EESchema Schematic File Version 2
LIBS:_ams-reg
LIBS:_cirrus-logic
LIBS:conn
LIBS:device
LIBS:_maxim
LIBS:power
LIBS:_ptc
LIBS:regul
LIBS:_st-audio
LIBS:_switchcraft
LIBS:_ti-reg
LIBS:_wolfson
LIBS:_wurth
LIBS:_toshiba
LIBS:sta308a-ev-rev-c-cache
EELAYER 24 0
EELAYER END
$Descr USLegal 14000 8500
encoding utf-8
Sheet 2 7
Title "Power Section"
Date ""
Rev "0.1"
Comp ""
Comment1 ""
Comment2 ""
Comment3 ""
Comment4 ""
$EndDescr
$Comp
L C C5
U 1 1 53CD8F1C
P 3900 3100
F 0 "C5" H 3900 3200 40  0000 L CNN
F 1 "0.1u" H 3906 3015 40  0000 L CNN
F 2 "smd_packages:c_1206" H 3938 2950 30  0001 C CNN
F 3 "" H 3900 3100 60  0000 C CNN
F 4 "TDK Corporation" H 3900 3100 60  0001 C CNN "Manufacturer"
F 5 "C3216X7R2A104M160AA" H 3900 3100 60  0001 C CNN "Manufacturer Part Number"
F 6 "445-1378-1-ND" H 3900 3100 60  0001 C CNN "Digi-Key Part Number"
F 7 "CAP CER 0.1UF 100V 20% X7R 1206" H 3900 3100 60  0001 C CNN "Description"
	1    3900 3100
	1    0    0    -1  
$EndComp
$Comp
L R RT1
U 1 1 53CD8F27
P 4300 3150
F 0 "RT1" V 4380 3150 40  0000 C CNN
F 1 "324K" V 4307 3151 40  0000 C CNN
F 2 "smd_packages:r_1206" V 4230 3150 30  0001 C CNN
F 3 "" H 4300 3150 30  0000 C CNN
F 4 "Vishay Dale" V 4300 3150 60  0001 C CNN "Manufacturer"
F 5 "CRCW1206324KFKEA" V 4300 3150 60  0001 C CNN "Manufacturer Part Number"
F 6 "541-324KFCT-ND" V 4300 3150 60  0001 C CNN "Digi-Key Part Number"
F 7 "RES 324K OHM 1/4W 1% 1206 SMD" V 4300 3150 60  0001 C CNN "Description"
	1    4300 3150
	-1   0    0    1   
$EndComp
$Comp
L LM5008A U1
U 1 1 53CD8F2E
P 5200 3400
F 0 "U1" H 5200 4150 60  0000 C CNN
F 1 "LM5008A" H 5200 2650 60  0000 C CNN
F 2 "smd_packages:vssop8" H 5200 3400 60  0001 C CNN
F 3 "" H 5200 3400 60  0000 C CNN
F 4 "Texas Instruments" H 5200 3400 60  0001 C CNN "Manufacturer"
F 5 "LM5008AMM/NOPB" H 5200 3400 60  0001 C CNN "Manufacturer Part Number"
F 6 "LM5008AMM/NOPBCT-ND" H 5200 3400 60  0001 C CNN "Digi-Key Part Number"
F 7 "IC REG BUCK ADJ 0.35A 8VSSOP" H 5200 3400 60  0001 C CNN "Description"
	1    5200 3400
	1    0    0    -1  
$EndComp
$Comp
L C C1
U 1 1 53CD8F51
P 3500 3100
F 0 "C1" H 3500 3200 40  0000 L CNN
F 1 "1.0u" H 3506 3015 40  0000 L CNN
F 2 "smd_packages:c_1812" H 3538 2950 30  0001 C CNN
F 3 "" H 3500 3100 60  0000 C CNN
F 4 "TDK Corporation" H 3500 3100 60  0001 C CNN "Manufacturer"
F 5 "C4532X7R2A105M230KA" H 3500 3100 60  0001 C CNN "Manufacturer Part Number"
F 6 "445-1411-1-ND" H 3500 3100 60  0001 C CNN "Digi-Key Part Number"
F 7 "CAP CER 1UF 100V 20% X7R 1812" H 3500 3100 60  0001 C CNN "Description"
	1    3500 3100
	1    0    0    -1  
$EndComp
$Comp
L C C3
U 1 1 53CD8F5C
P 6000 2400
F 0 "C3" H 6000 2500 40  0000 L CNN
F 1 "0.47u" H 6006 2315 40  0000 L CNN
F 2 "smd_packages:c_1206" H 6038 2250 30  0001 C CNN
F 3 "" H 6000 2400 60  0000 C CNN
F 4 "Kemet" H 6000 2400 60  0001 C CNN "Manufacturer"
F 5 "C1206C474K5RACTU" H 6000 2400 60  0001 C CNN "Manufacturer Part Number"
F 6 "399-3498-1-ND" H 6000 2400 60  0001 C CNN "Digi-Key Part Number"
F 7 "CAP CER 0.47UF 50V 10% X7R 1206" H 6000 2400 60  0001 C CNN "Description"
	1    6000 2400
	-1   0    0    1   
$EndComp
$Comp
L C C4
U 1 1 53CD90E4
P 6200 3400
F 0 "C4" H 6200 3500 40  0000 L CNN
F 1 "100n" H 6206 3315 40  0000 L CNN
F 2 "smd_packages:c_1206" H 6238 3250 30  0001 C CNN
F 3 "" H 6200 3400 60  0000 C CNN
F 4 "Kemet" H 6200 3400 60  0001 C CNN "Manufacturer"
F 5 "C1206C103K5RACTU" H 6200 3400 60  0001 C CNN "Manufacturer Part Number"
F 6 "399-1234-1-ND" H 6200 3400 60  0001 C CNN "Digi-Key Part Number"
F 7 "CAP CER 10000PF 50V 10% X7R 1206" H 6200 3400 60  0001 C CNN "Description"
	1    6200 3400
	1    0    0    -1  
$EndComp
Text HLabel 1800 2800 0    60   Input ~ 0
PWRVCC
Text HLabel 1800 3400 0    60   Input ~ 0
PWRGND
Text HLabel 10950 2200 1    60   Output ~ 0
3V3
Text HLabel 11850 2200 1    60   Output ~ 0
3A3
Text HLabel 7800 2400 1    60   Output ~ 0
5V0
Text HLabel 7300 2100 0    60   Input ~ 0
VLOGIC
$Comp
L JUMPER3 JP1
U 1 1 53CDC1E4
P 7500 2500
F 0 "JP1" H 7550 2400 40  0000 L CNN
F 1 "5V SEL" H 7500 2600 40  0000 C CNN
F 2 "connect:sil-3" H 7500 2500 60  0001 C CNN
F 3 "" H 7500 2500 60  0000 C CNN
F 4 "FCI" H 7500 2500 60  0001 C CNN "Manufacturer"
F 5 "68000-103HLF" H 7500 2500 60  0001 C CNN "Manufacturer Part Number"
F 6 "609-3461-ND" H 7500 2500 60  0001 C CNN "Digi-Key Part Number"
F 7 "BERGSTIK II .100\" SR STRAIGHT" H 7500 2500 60  0001 C CNN "Description"
	1    7500 2500
	0    -1   1    0   
$EndComp
$Comp
L R RCL1
U 1 1 53CDD144
P 4300 3950
F 0 "RCL1" V 4380 3950 40  0000 C CNN
F 1 "332K" V 4307 3951 40  0000 C CNN
F 2 "smd_packages:r_1206" V 4230 3950 30  0001 C CNN
F 3 "" H 4300 3950 30  0000 C CNN
F 4 "Vishay Dale" V 4300 3950 60  0001 C CNN "Manufacturer"
F 5 "CRCW1206332KFKEA" V 4300 3950 60  0001 C CNN "Manufacturer Part Number"
F 6 "541-332KFCT-ND" V 4300 3950 60  0001 C CNN "Digi-Key Part Number"
F 7 "RES 332K OHM 1/4W 1% 1206 SMD" V 4300 3950 60  0001 C CNN "Description"
	1    4300 3950
	-1   0    0    1   
$EndComp
$Comp
L R RFB1
U 1 1 53CDD42F
P 7100 3550
F 0 "RFB1" V 7180 3550 40  0000 C CNN
F 1 "2K0" V 7107 3551 40  0000 C CNN
F 2 "smd_packages:r_1206" V 7030 3550 30  0001 C CNN
F 3 "" H 7100 3550 30  0000 C CNN
F 4 "Vishay Dale" V 7100 3550 60  0001 C CNN "Manufacturer"
F 5 "CRCW12062K00FKEA" V 7100 3550 60  0001 C CNN "Manufacturer Part Number"
F 6 "541-2.00KFCT-ND" V 7100 3550 60  0001 C CNN "Digi-Key Part Number"
F 7 "RES 2.00K OHM 1/4W 1% 1206 SMD" V 7100 3550 60  0001 C CNN "Description"
	1    7100 3550
	-1   0    0    1   
$EndComp
$Comp
L R RFB2
U 1 1 53CDD4F8
P 7100 4350
F 0 "RFB2" V 7180 4350 40  0000 C CNN
F 1 "2K0" V 7107 4351 40  0000 C CNN
F 2 "smd_packages:r_1206" V 7030 4350 30  0001 C CNN
F 3 "" H 7100 4350 30  0000 C CNN
F 4 "Vishay Dale" V 7100 4350 60  0001 C CNN "Manufacturer"
F 5 "CRCW12062K00FKEA" V 7100 4350 60  0001 C CNN "Manufacturer Part Number"
F 6 "541-2.00KFCT-ND" V 7100 4350 60  0001 C CNN "Digi-Key Part Number"
F 7 "RES 2.00K OHM 1/4W 1% 1206 SMD" V 7100 4350 60  0001 C CNN "Description"
	1    7100 4350
	-1   0    0    1   
$EndComp
$Comp
L INDUCTOR_SMALL L1
U 1 1 53CDD65F
P 6650 3100
F 0 "L1" H 6650 3200 50  0000 C CNN
F 1 "220uH" H 6650 3050 50  0000 C CNN
F 2 "_tdk:slf6025" H 6650 3100 60  0001 C CNN
F 3 "" H 6650 3100 60  0000 C CNN
F 4 "TDK Corporation" H 6650 3100 60  0001 C CNN "Manufacturer"
F 5 "SLF10145T-221MR65-PF" H 6650 3100 60  0001 C CNN "Manufacturer Part Number"
F 6 "445-1982-1-ND" H 6650 3100 60  0001 C CNN "Digi-Key Part Number"
F 7 "INDUCTOR SHIELD PWR 220UH 10145" H 6650 3100 60  0001 C CNN "Description"
	1    6650 3100
	1    0    0    -1  
$EndComp
$Comp
L R R1
U 1 1 53CE7033
P 7500 3550
F 0 "R1" V 7580 3550 40  0000 C CNN
F 1 "3R0" V 7507 3551 40  0000 C CNN
F 2 "smd_packages:r_1206" V 7430 3550 30  0001 C CNN
F 3 "" H 7500 3550 30  0000 C CNN
F 4 "Vishay Dale" V 7500 3550 60  0001 C CNN "Manufacturer"
F 5 "CRCW12063R00FKEA" V 7500 3550 60  0001 C CNN "Manufacturer Part Number"
F 6 "541-3.00FFCT-ND" V 7500 3550 60  0001 C CNN "Digi-Key Part Number"
F 7 "RES 3.00 OHM 1/4W 1% 1206 SMD" V 7500 3550 60  0001 C CNN "Description"
	1    7500 3550
	-1   0    0    1   
$EndComp
$Comp
L C C2
U 1 1 53CE7194
P 7500 4350
F 0 "C2" H 7500 4450 40  0000 L CNN
F 1 "22u" H 7506 4265 40  0000 L CNN
F 2 "smd_packages:c_1812" H 7538 4200 30  0001 C CNN
F 3 "" H 7500 4350 60  0000 C CNN
F 4 "TDK Corporation" H 7500 4350 60  0001 C CNN "Manufacturer"
F 5 "C4532X7R1E226M250KC" H 7500 4350 60  0001 C CNN "Manufacturer Part Number"
F 6 "445-1607-1-ND" H 7500 4350 60  0001 C CNN "Digi-Key Part Number"
F 7 "CAP CER 22UF 25V 20% X7R 1812" H 7500 4350 60  0001 C CNN "Description"
	1    7500 4350
	1    0    0    -1  
$EndComp
$Comp
L CP1 C6
U 1 1 53CE7E53
P 8600 2900
F 0 "C6" H 8650 3000 50  0000 L CNN
F 1 "220u/16V" H 8650 2800 50  0000 L CNN
F 2 "smd_packages:c_elec_6_3x7_7" H 8600 2900 60  0001 C CNN
F 3 "" H 8600 2900 60  0000 C CNN
F 4 "Nichicon" H 8600 2900 60  0001 C CNN "Manufacturer"
F 5 "UWT1C221MCL1GS" H 8600 2900 60  0001 C CNN "Manufacturer Part Number"
F 6 "493-2179-2-ND" H 8600 2900 60  0001 C CNN "Digi-Key Part Number"
F 7 "CAP ALUM 220UF 16V 20% SMD" H 8600 2900 60  0001 C CNN "Description"
	1    8600 2900
	1    0    0    -1  
$EndComp
$Comp
L AMS1117CD-3.3 U2
U 1 1 53CE8823
P 9900 2500
F 0 "U2" H 9550 2650 40  0000 C CNN
F 1 "AMS1117CD-3.3" H 9900 2650 40  0000 C CNN
F 2 "smd_packages:sot223" H 9900 2550 35  0001 C CIN
F 3 "" H 9950 2500 60  0000 C CNN
F 4 "Advanced Monolithic Systems" H 9900 2500 60  0001 C CNN "Manufacturer"
F 5 "AMS1117CD-3.3" H 9900 2500 60  0001 C CNN "Manufacturer Part Number"
	1    9900 2500
	1    0    0    -1  
$EndComp
$Comp
L GND #PWR035
U 1 1 53CE8921
P 11900 3400
F 0 "#PWR035" H 11900 3400 30  0001 C CNN
F 1 "GND" H 11900 3330 30  0001 C CNN
F 2 "" H 11900 3400 60  0000 C CNN
F 3 "" H 11900 3400 60  0000 C CNN
	1    11900 3400
	1    0    0    -1  
$EndComp
$Comp
L C C8
U 1 1 53CE8C3E
P 9200 2900
F 0 "C8" H 9200 3000 40  0000 L CNN
F 1 "100n" H 9206 2815 40  0000 L CNN
F 2 "smd_packages:c_1206" H 9238 2750 30  0001 C CNN
F 3 "" H 9200 2900 60  0000 C CNN
F 4 "TDK Corporation" H 9200 2900 60  0001 C CNN "Manufacturer"
F 5 "C3216X7R2A104M160AA" H 9200 2900 60  0001 C CNN "Manufacturer Part Number"
F 6 "445-1378-1-ND" H 9200 2900 60  0001 C CNN "Digi-Key Part Number"
F 7 "CAP CER 0.1UF 100V 20% X7R 1206" H 9200 2900 60  0001 C CNN "Description"
	1    9200 2900
	1    0    0    -1  
$EndComp
$Comp
L C C10
U 1 1 53CE8E9E
P 10600 2900
F 0 "C10" H 10600 3000 40  0000 L CNN
F 1 "100n" H 10606 2815 40  0000 L CNN
F 2 "smd_packages:c_1206" H 10638 2750 30  0001 C CNN
F 3 "" H 10600 2900 60  0000 C CNN
F 4 "TDK Corporation" H 10600 2900 60  0001 C CNN "Manufacturer"
F 5 "C3216X7R2A104M160AA" H 10600 2900 60  0001 C CNN "Manufacturer Part Number"
F 6 "445-1378-1-ND" H 10600 2900 60  0001 C CNN "Digi-Key Part Number"
F 7 "CAP CER 0.1UF 100V 20% X7R 1206" H 10600 2900 60  0001 C CNN "Description"
	1    10600 2900
	1    0    0    -1  
$EndComp
$Comp
L INDUCTOR_SMALL L2
U 1 1 53CE91A6
P 11450 2500
F 0 "L2" H 11150 2550 50  0000 C CNN
F 1 "Ferrite" H 11450 2450 50  0000 C CNN
F 2 "smd_packages:l_1206" H 11450 2500 60  0001 C CNN
F 3 "" H 11450 2500 60  0000 C CNN
F 4 "TDK Corporation" H 11450 2500 60  0001 C CNN "Manufacturer"
F 5 "HF70ACB321611-T" H 11450 2500 60  0001 C CNN "Manufacturer Part Number"
F 6 "445-6181-1-ND" H 11450 2500 60  0001 C CNN "Digi-Key Part Number"
F 7 "FERRITE CHIP 26 OHM 500MA 1206" H 11450 2500 60  0001 C CNN "Description"
	1    11450 2500
	1    0    0    -1  
$EndComp
$Comp
L GNDPWR #PWR036
U 1 1 53CE940F
P 3500 3400
F 0 "#PWR036" H 3500 3450 40  0001 C CNN
F 1 "GNDPWR" H 3500 3320 40  0000 C CNN
F 2 "" H 3500 3400 60  0000 C CNN
F 3 "" H 3500 3400 60  0000 C CNN
	1    3500 3400
	1    0    0    -1  
$EndComp
$Comp
L GNDPWR #PWR037
U 1 1 53CE9597
P 3900 3400
F 0 "#PWR037" H 3900 3450 40  0001 C CNN
F 1 "GNDPWR" H 3900 3320 40  0000 C CNN
F 2 "" H 3900 3400 60  0000 C CNN
F 3 "" H 3900 3400 60  0000 C CNN
	1    3900 3400
	1    0    0    -1  
$EndComp
$Comp
L GNDPWR #PWR038
U 1 1 53CE95B6
P 3200 3150
F 0 "#PWR038" H 3200 3200 40  0001 C CNN
F 1 "GNDPWR" H 3200 3070 40  0000 C CNN
F 2 "" H 3200 3150 60  0000 C CNN
F 3 "" H 3200 3150 60  0000 C CNN
	1    3200 3150
	1    0    0    -1  
$EndComp
$Comp
L GNDPWR #PWR039
U 1 1 53CE9699
P 7100 4700
F 0 "#PWR039" H 7100 4750 40  0001 C CNN
F 1 "GNDPWR" H 7100 4620 40  0000 C CNN
F 2 "" H 7100 4700 60  0000 C CNN
F 3 "" H 7100 4700 60  0000 C CNN
	1    7100 4700
	1    0    0    -1  
$EndComp
$Comp
L GNDPWR #PWR040
U 1 1 53CE9730
P 7500 4700
F 0 "#PWR040" H 7500 4750 40  0001 C CNN
F 1 "GNDPWR" H 7500 4620 40  0000 C CNN
F 2 "" H 7500 4700 60  0000 C CNN
F 3 "" H 7500 4700 60  0000 C CNN
	1    7500 4700
	1    0    0    -1  
$EndComp
$Comp
L GNDPWR #PWR041
U 1 1 53CE983F
P 8600 3300
F 0 "#PWR041" H 8600 3350 40  0001 C CNN
F 1 "GNDPWR" H 8600 3220 40  0000 C CNN
F 2 "" H 8600 3300 60  0000 C CNN
F 3 "" H 8600 3300 60  0000 C CNN
	1    8600 3300
	1    0    0    -1  
$EndComp
$Comp
L GNDPWR #PWR042
U 1 1 53CE98C3
P 9200 3300
F 0 "#PWR042" H 9200 3350 40  0001 C CNN
F 1 "GNDPWR" H 9200 3220 40  0000 C CNN
F 2 "" H 9200 3300 60  0000 C CNN
F 3 "" H 9200 3300 60  0000 C CNN
	1    9200 3300
	1    0    0    -1  
$EndComp
$Comp
L GNDPWR #PWR043
U 1 1 53CE98E2
P 9900 3000
F 0 "#PWR043" H 9900 3050 40  0001 C CNN
F 1 "GNDPWR" H 9900 2920 40  0000 C CNN
F 2 "" H 9900 3000 60  0000 C CNN
F 3 "" H 9900 3000 60  0000 C CNN
	1    9900 3000
	1    0    0    -1  
$EndComp
$Comp
L GNDPWR #PWR044
U 1 1 53CE9901
P 10600 3300
F 0 "#PWR044" H 10600 3350 40  0001 C CNN
F 1 "GNDPWR" H 10600 3220 40  0000 C CNN
F 2 "" H 10600 3300 60  0000 C CNN
F 3 "" H 10600 3300 60  0000 C CNN
	1    10600 3300
	1    0    0    -1  
$EndComp
$Comp
L GNDPWR #PWR045
U 1 1 53CE9920
P 11000 3400
F 0 "#PWR045" H 11000 3450 40  0001 C CNN
F 1 "GNDPWR" H 11000 3320 40  0000 C CNN
F 2 "" H 11000 3400 60  0000 C CNN
F 3 "" H 11000 3400 60  0000 C CNN
	1    11000 3400
	1    0    0    -1  
$EndComp
$Comp
L C C14
U 1 1 53CE9A01
P 11900 2900
F 0 "C14" H 11900 3000 40  0000 L CNN
F 1 "100n" H 11906 2815 40  0000 L CNN
F 2 "smd_packages:c_1206" H 11938 2750 30  0001 C CNN
F 3 "" H 11900 2900 60  0000 C CNN
F 4 "TDK Corporation" H 11900 2900 60  0001 C CNN "Manufacturer"
F 5 "C3216X7R2A104M160AA" H 11900 2900 60  0001 C CNN "Manufacturer Part Number"
F 6 "445-1378-1-ND" H 11900 2900 60  0001 C CNN "Digi-Key Part Number"
F 7 "CAP CER 0.1UF 100V 20% X7R 1206" H 11900 2900 60  0001 C CNN "Description"
	1    11900 2900
	1    0    0    -1  
$EndComp
Wire Wire Line
	4600 3200 4500 3200
Wire Wire Line
	4500 3200 4500 3500
Wire Wire Line
	4500 3500 4300 3500
Wire Wire Line
	4300 3500 4300 3400
Wire Wire Line
	4300 2800 4300 2900
Wire Wire Line
	3100 2800 4600 2800
Wire Wire Line
	3900 2800 3900 2900
Connection ~ 4300 2800
Wire Wire Line
	3500 2800 3500 2900
Connection ~ 3900 2800
Wire Wire Line
	3900 3300 3900 3400
Wire Wire Line
	3500 3300 3500 3400
Wire Wire Line
	6000 2200 6000 2100
Wire Wire Line
	6000 2600 6000 2800
Wire Wire Line
	6000 2800 5800 2800
Wire Wire Line
	5800 3200 5900 3200
Wire Wire Line
	5900 3200 5900 3100
Wire Wire Line
	5900 3100 6400 3100
Wire Wire Line
	6200 3100 6200 3200
Wire Wire Line
	5800 3600 5900 3600
Wire Wire Line
	5900 3600 5900 3700
Wire Wire Line
	5900 3700 6200 3700
Wire Wire Line
	6200 3700 6200 3600
Connection ~ 3500 2800
Wire Wire Line
	3200 3000 3200 3150
Wire Wire Line
	7600 2500 9400 2500
Wire Wire Line
	4300 3700 4300 3600
Wire Wire Line
	4300 3600 4600 3600
Wire Wire Line
	4600 4000 4500 4000
Wire Wire Line
	4500 4000 4500 4300
Wire Wire Line
	4500 4300 4300 4300
Wire Wire Line
	4300 4300 4300 4200
Wire Wire Line
	5800 4000 7100 4000
Wire Wire Line
	7100 3800 7100 4100
Connection ~ 7100 4000
Wire Wire Line
	7100 4600 7100 4700
Wire Wire Line
	7100 3300 7100 3100
Wire Wire Line
	6900 3100 7500 3100
Connection ~ 6200 3100
Wire Wire Line
	7300 2100 7500 2100
Wire Wire Line
	7500 2100 7500 2250
Wire Wire Line
	7500 4550 7500 4700
Wire Wire Line
	7500 4150 7500 3800
Wire Wire Line
	7500 2750 7500 3300
Connection ~ 7100 3100
Connection ~ 7500 3100
Wire Wire Line
	9200 2500 9200 2700
Wire Wire Line
	8600 2500 8600 2700
Connection ~ 9200 2500
Wire Wire Line
	10400 2500 11200 2500
Wire Wire Line
	11000 2450 11000 2700
Connection ~ 11000 2500
Wire Wire Line
	10600 2700 10600 2500
Connection ~ 10600 2500
Wire Wire Line
	11700 2500 11900 2500
Wire Wire Line
	11900 2450 11900 2700
Wire Wire Line
	11900 3100 11900 3400
Wire Wire Line
	11000 3100 11000 3400
Wire Wire Line
	10600 3100 10600 3300
Wire Wire Line
	9900 3000 9900 2800
Wire Wire Line
	8600 3100 8600 3300
Wire Wire Line
	9200 3300 9200 3100
Wire Notes Line
	10800 2400 10800 2450
Wire Notes Line
	10800 2550 10800 2600
Wire Notes Line
	10800 2700 10800 2750
Wire Notes Line
	10800 2850 10800 2900
Wire Notes Line
	10800 3000 10800 3050
Wire Notes Line
	10800 3150 10800 3200
Wire Notes Line
	10800 3300 10800 3350
Wire Notes Line
	10800 3450 10800 3500
Wire Notes Line
	10850 3550 10900 3550
Wire Notes Line
	11000 3550 11050 3550
Wire Notes Line
	11150 3550 11200 3550
Wire Notes Line
	11300 3550 11350 3550
Wire Notes Line
	11450 3550 11500 3550
Wire Notes Line
	11600 3550 11650 3550
Wire Notes Line
	11750 3550 11800 3550
Wire Notes Line
	11900 3550 11950 3550
Wire Notes Line
	10850 2350 10900 2350
Wire Notes Line
	11000 2350 11050 2350
Wire Notes Line
	11150 2350 11200 2350
Wire Notes Line
	11300 2350 11350 2350
Wire Notes Line
	11450 2350 11500 2350
Wire Notes Line
	11600 2350 11650 2350
Wire Notes Line
	11750 2350 11800 2350
Wire Notes Line
	11900 2350 11950 2350
Wire Notes Line
	12150 2550 12150 2600
Wire Notes Line
	12150 2700 12150 2750
Wire Notes Line
	12150 2850 12150 2900
Wire Notes Line
	12150 3000 12150 3050
Wire Notes Line
	12150 3150 12150 3200
Wire Notes Line
	12150 3300 12150 3350
Wire Notes Line
	12150 3450 12150 3500
Wire Notes Line
	12050 3550 12100 3550
Wire Notes Line
	12150 2450 12150 2400
Wire Notes Line
	12050 2350 12100 2350
Wire Wire Line
	11000 2450 10950 2400
Wire Wire Line
	10950 2400 10950 2200
Wire Wire Line
	11900 2450 11850 2400
Wire Wire Line
	11850 2400 11850 2200
Connection ~ 11900 2500
Connection ~ 8600 2500
Wire Wire Line
	7800 2400 7800 2500
Connection ~ 7800 2500
$Comp
L CP1 C12
U 1 1 53CEDA6D
P 11000 2900
F 0 "C12" H 11050 3000 50  0000 L CNN
F 1 "10u/16V" H 11050 2800 50  0000 L CNN
F 2 "smd_packages:c_elec_4x5_7" H 11000 2900 60  0001 C CNN
F 3 "" H 11000 2900 60  0000 C CNN
F 4 "Panasonic Electronic Components" H 11000 2900 60  0001 C CNN "Manufacturer"
F 5 "EEE-1CA100SR" H 11000 2900 60  0001 C CNN "Manufacturer Part Number"
F 6 "PCE3878CT-ND" H 11000 2900 60  0001 C CNN "Digi-Key Part Number"
F 7 "CAP ALUM 10UF 16V 20% SMD" H 11000 2900 60  0001 C CNN "Description"
	1    11000 2900
	1    0    0    -1  
$EndComp
$Comp
L GNDPWR #PWR046
U 1 1 53CEEB4C
P 6000 2100
F 0 "#PWR046" H 6000 2150 40  0001 C CNN
F 1 "GNDPWR" H 6000 2020 40  0000 C CNN
F 2 "" H 6000 2100 60  0000 C CNN
F 3 "" H 6000 2100 60  0000 C CNN
	1    6000 2100
	-1   0    0    1   
$EndComp
$Comp
L INDUCTOR_SMALL L3
U 1 1 53CEF5E9
P 11450 3300
F 0 "L3" H 11150 3350 50  0000 C CNN
F 1 "Ferrite" H 11450 3250 50  0000 C CNN
F 2 "smd_packages:l_1206" H 11450 3300 60  0001 C CNN
F 3 "" H 11450 3300 60  0000 C CNN
F 4 "TDK Corporation" H 11450 3300 60  0001 C CNN "Manufacturer"
F 5 "HF70ACB321611-T" H 11450 3300 60  0001 C CNN "Manufacturer Part Number"
F 6 "445-6181-1-ND" H 11450 3300 60  0001 C CNN "Digi-Key Part Number"
F 7 "FERRITE CHIP 26 OHM 500MA 1206" H 11450 3300 60  0001 C CNN "Description"
	1    11450 3300
	1    0    0    -1  
$EndComp
Wire Wire Line
	11200 3300 11000 3300
Connection ~ 11000 3300
Wire Wire Line
	11700 3300 11900 3300
Connection ~ 11900 3300
$Comp
L 744272471 LCL1
U 1 1 53CE94B7
P 2750 2900
F 0 "LCL1" H 2750 3100 50  0000 C CNN
F 1 "744272471" H 2750 2700 50  0000 C CNN
F 2 "_wurth:744272471" H 2750 2800 60  0001 C CNN
F 3 "" H 2750 2800 60  0000 C CNN
F 4 "Wurth Electronics Inc" H 2750 2900 60  0001 C CNN "Manufacturer"
F 5 "744272471" H 2750 2900 60  0001 C CNN "Manufacturer Part Number"
F 6 "732-1492-1-ND" H 2750 2900 60  0001 C CNN "Digi-Key Part Number"
F 7 "CHOKE COM MODE 2 X 470UH 1.6A" H 2750 2900 60  0001 C CNN "Description"
	1    2750 2900
	1    0    0    1   
$EndComp
$Comp
L C C16
U 1 1 53CE9AA6
P 2100 3100
F 0 "C16" H 2100 3200 40  0000 L CNN
F 1 "100n" H 2106 3015 40  0000 L CNN
F 2 "smd_packages:c_1206" H 2138 2950 30  0001 C CNN
F 3 "" H 2100 3100 60  0000 C CNN
F 4 "TDK Corporation" H 2100 3100 60  0001 C CNN "Manufacturer"
F 5 "C3216X7R2A104M160AA" H 2100 3100 60  0001 C CNN "Manufacturer Part Number"
F 6 "445-1378-1-ND" H 2100 3100 60  0001 C CNN "Digi-Key Part Number"
F 7 "CAP CER 0.1UF 100V 20% X7R 1206" H 2100 3100 60  0001 C CNN "Description"
	1    2100 3100
	1    0    0    -1  
$EndComp
Wire Wire Line
	2400 2800 1800 2800
Wire Wire Line
	2100 2900 2100 2800
Connection ~ 2100 2800
Wire Wire Line
	1800 3400 2300 3400
Wire Wire Line
	2100 3400 2100 3300
Wire Wire Line
	2300 3400 2300 3000
Wire Wire Line
	2300 3000 2400 3000
Connection ~ 2100 3400
Wire Wire Line
	3100 3000 3200 3000
Text HLabel 10950 4000 1    60   Output ~ 0
2V5
Text HLabel 11850 4000 1    60   Output ~ 0
2A5
$Comp
L CP1 C73
U 1 1 53F49D55
P 8600 4700
F 0 "C73" H 8650 4800 50  0000 L CNN
F 1 "220u/16V" H 8650 4600 50  0000 L CNN
F 2 "smd_packages:c_elec_6_3x7_7" H 8600 4700 60  0001 C CNN
F 3 "" H 8600 4700 60  0000 C CNN
F 4 "Nichicon" H 8600 4700 60  0001 C CNN "Manufacturer"
F 5 "UWT1C221MCL1GS" H 8600 4700 60  0001 C CNN "Manufacturer Part Number"
F 6 "493-2179-2-ND" H 8600 4700 60  0001 C CNN "Digi-Key Part Number"
F 7 "CAP ALUM 220UF 16V 20% SMD" H 8600 4700 60  0001 C CNN "Description"
	1    8600 4700
	1    0    0    -1  
$EndComp
$Comp
L GND #PWR047
U 1 1 53F49D63
P 11900 5200
F 0 "#PWR047" H 11900 5200 30  0001 C CNN
F 1 "GND" H 11900 5130 30  0001 C CNN
F 2 "" H 11900 5200 60  0000 C CNN
F 3 "" H 11900 5200 60  0000 C CNN
	1    11900 5200
	1    0    0    -1  
$EndComp
$Comp
L C C74
U 1 1 53F49D6D
P 9200 4700
F 0 "C74" H 9200 4800 40  0000 L CNN
F 1 "100n" H 9206 4615 40  0000 L CNN
F 2 "smd_packages:c_1206" H 9238 4550 30  0001 C CNN
F 3 "" H 9200 4700 60  0000 C CNN
F 4 "TDK Corporation" H 9200 4700 60  0001 C CNN "Manufacturer"
F 5 "C3216X7R2A104M160AA" H 9200 4700 60  0001 C CNN "Manufacturer Part Number"
F 6 "445-1378-1-ND" H 9200 4700 60  0001 C CNN "Digi-Key Part Number"
F 7 "CAP CER 0.1UF 100V 20% X7R 1206" H 9200 4700 60  0001 C CNN "Description"
	1    9200 4700
	1    0    0    -1  
$EndComp
$Comp
L C C75
U 1 1 53F49D77
P 10600 4700
F 0 "C75" H 10600 4800 40  0000 L CNN
F 1 "100n" H 10606 4615 40  0000 L CNN
F 2 "smd_packages:c_1206" H 10638 4550 30  0001 C CNN
F 3 "" H 10600 4700 60  0000 C CNN
F 4 "TDK Corporation" H 10600 4700 60  0001 C CNN "Manufacturer"
F 5 "C3216X7R2A104M160AA" H 10600 4700 60  0001 C CNN "Manufacturer Part Number"
F 6 "445-1378-1-ND" H 10600 4700 60  0001 C CNN "Digi-Key Part Number"
F 7 "CAP CER 0.1UF 100V 20% X7R 1206" H 10600 4700 60  0001 C CNN "Description"
	1    10600 4700
	1    0    0    -1  
$EndComp
$Comp
L INDUCTOR_SMALL L10
U 1 1 53F49D81
P 11450 4300
F 0 "L10" H 11150 4350 50  0000 C CNN
F 1 "Ferrite" H 11450 4250 50  0000 C CNN
F 2 "smd_packages:l_1206" H 11450 4300 60  0001 C CNN
F 3 "" H 11450 4300 60  0000 C CNN
F 4 "TDK Corporation" H 11450 4300 60  0001 C CNN "Manufacturer"
F 5 "HF70ACB321611-T" H 11450 4300 60  0001 C CNN "Manufacturer Part Number"
F 6 "445-6181-1-ND" H 11450 4300 60  0001 C CNN "Digi-Key Part Number"
F 7 "FERRITE CHIP 26 OHM 500MA 1206" H 11450 4300 60  0001 C CNN "Description"
	1    11450 4300
	1    0    0    -1  
$EndComp
$Comp
L GNDPWR #PWR048
U 1 1 53F49D87
P 8600 5100
F 0 "#PWR048" H 8600 5150 40  0001 C CNN
F 1 "GNDPWR" H 8600 5020 40  0000 C CNN
F 2 "" H 8600 5100 60  0000 C CNN
F 3 "" H 8600 5100 60  0000 C CNN
	1    8600 5100
	1    0    0    -1  
$EndComp
$Comp
L GNDPWR #PWR049
U 1 1 53F49D8D
P 9200 5100
F 0 "#PWR049" H 9200 5150 40  0001 C CNN
F 1 "GNDPWR" H 9200 5020 40  0000 C CNN
F 2 "" H 9200 5100 60  0000 C CNN
F 3 "" H 9200 5100 60  0000 C CNN
	1    9200 5100
	1    0    0    -1  
$EndComp
$Comp
L GNDPWR #PWR050
U 1 1 53F49D93
P 9900 4800
F 0 "#PWR050" H 9900 4850 40  0001 C CNN
F 1 "GNDPWR" H 9900 4720 40  0000 C CNN
F 2 "" H 9900 4800 60  0000 C CNN
F 3 "" H 9900 4800 60  0000 C CNN
	1    9900 4800
	1    0    0    -1  
$EndComp
$Comp
L GNDPWR #PWR051
U 1 1 53F49D99
P 10600 5100
F 0 "#PWR051" H 10600 5150 40  0001 C CNN
F 1 "GNDPWR" H 10600 5020 40  0000 C CNN
F 2 "" H 10600 5100 60  0000 C CNN
F 3 "" H 10600 5100 60  0000 C CNN
	1    10600 5100
	1    0    0    -1  
$EndComp
$Comp
L GNDPWR #PWR052
U 1 1 53F49D9F
P 11000 5200
F 0 "#PWR052" H 11000 5250 40  0001 C CNN
F 1 "GNDPWR" H 11000 5120 40  0000 C CNN
F 2 "" H 11000 5200 60  0000 C CNN
F 3 "" H 11000 5200 60  0000 C CNN
	1    11000 5200
	1    0    0    -1  
$EndComp
$Comp
L C C77
U 1 1 53F49DA9
P 11900 4700
F 0 "C77" H 11900 4800 40  0000 L CNN
F 1 "100n" H 11906 4615 40  0000 L CNN
F 2 "smd_packages:c_1206" H 11938 4550 30  0001 C CNN
F 3 "" H 11900 4700 60  0000 C CNN
F 4 "TDK Corporation" H 11900 4700 60  0001 C CNN "Manufacturer"
F 5 "C3216X7R2A104M160AA" H 11900 4700 60  0001 C CNN "Manufacturer Part Number"
F 6 "445-1378-1-ND" H 11900 4700 60  0001 C CNN "Digi-Key Part Number"
F 7 "CAP CER 0.1UF 100V 20% X7R 1206" H 11900 4700 60  0001 C CNN "Description"
	1    11900 4700
	1    0    0    -1  
$EndComp
Wire Wire Line
	9200 4300 9200 4500
Wire Wire Line
	8600 4300 8600 4500
Connection ~ 9200 4300
Wire Wire Line
	10400 4300 11200 4300
Wire Wire Line
	11000 4250 11000 4500
Connection ~ 11000 4300
Wire Wire Line
	10600 4500 10600 4300
Connection ~ 10600 4300
Wire Wire Line
	11700 4300 11900 4300
Wire Wire Line
	11900 4250 11900 4500
Wire Wire Line
	11900 4900 11900 5200
Wire Wire Line
	11000 4900 11000 5200
Wire Wire Line
	10600 4900 10600 5100
Wire Wire Line
	9900 4800 9900 4600
Wire Wire Line
	8600 4900 8600 5100
Wire Wire Line
	9200 5100 9200 4900
Wire Notes Line
	10800 4200 10800 4250
Wire Notes Line
	10800 4350 10800 4400
Wire Notes Line
	10800 4500 10800 4550
Wire Notes Line
	10800 4650 10800 4700
Wire Notes Line
	10800 4800 10800 4850
Wire Notes Line
	10800 4950 10800 5000
Wire Notes Line
	10800 5100 10800 5150
Wire Notes Line
	10800 5250 10800 5300
Wire Notes Line
	10850 5350 10900 5350
Wire Notes Line
	11000 5350 11050 5350
Wire Notes Line
	11150 5350 11200 5350
Wire Notes Line
	11300 5350 11350 5350
Wire Notes Line
	11450 5350 11500 5350
Wire Notes Line
	11600 5350 11650 5350
Wire Notes Line
	11750 5350 11800 5350
Wire Notes Line
	11900 5350 11950 5350
Wire Notes Line
	10850 4150 10900 4150
Wire Notes Line
	11000 4150 11050 4150
Wire Notes Line
	11150 4150 11200 4150
Wire Notes Line
	11300 4150 11350 4150
Wire Notes Line
	11450 4150 11500 4150
Wire Notes Line
	11600 4150 11650 4150
Wire Notes Line
	11750 4150 11800 4150
Wire Notes Line
	11900 4150 11950 4150
Wire Notes Line
	12150 4350 12150 4400
Wire Notes Line
	12150 4500 12150 4550
Wire Notes Line
	12150 4650 12150 4700
Wire Notes Line
	12150 4800 12150 4850
Wire Notes Line
	12150 4950 12150 5000
Wire Notes Line
	12150 5100 12150 5150
Wire Notes Line
	12150 5250 12150 5300
Wire Notes Line
	12050 5350 12100 5350
Wire Notes Line
	12150 4250 12150 4200
Wire Notes Line
	12050 4150 12100 4150
Wire Wire Line
	11000 4250 10950 4200
Wire Wire Line
	10950 4200 10950 4000
Wire Wire Line
	11900 4250 11850 4200
Wire Wire Line
	11850 4200 11850 4000
Connection ~ 11900 4300
Connection ~ 8600 4300
$Comp
L CP1 C76
U 1 1 53F49DEC
P 11000 4700
F 0 "C76" H 11050 4800 50  0000 L CNN
F 1 "10u/16V" H 11050 4600 50  0000 L CNN
F 2 "smd_packages:c_elec_4x5_7" H 11000 4700 60  0001 C CNN
F 3 "" H 11000 4700 60  0000 C CNN
F 4 "Panasonic Electronic Components" H 11000 4700 60  0001 C CNN "Manufacturer"
F 5 "EEE-1CA100SR" H 11000 4700 60  0001 C CNN "Manufacturer Part Number"
F 6 "PCE3878CT-ND" H 11000 4700 60  0001 C CNN "Digi-Key Part Number"
F 7 "CAP ALUM 10UF 16V 20% SMD" H 11000 4700 60  0001 C CNN "Description"
	1    11000 4700
	1    0    0    -1  
$EndComp
$Comp
L INDUCTOR_SMALL L11
U 1 1 53F49DF6
P 11450 5100
F 0 "L11" H 11150 5150 50  0000 C CNN
F 1 "Ferrite" H 11450 5050 50  0000 C CNN
F 2 "smd_packages:l_1206" H 11450 5100 60  0001 C CNN
F 3 "" H 11450 5100 60  0000 C CNN
F 4 "TDK Corporation" H 11450 5100 60  0001 C CNN "Manufacturer"
F 5 "HF70ACB321611-T" H 11450 5100 60  0001 C CNN "Manufacturer Part Number"
F 6 "445-6181-1-ND" H 11450 5100 60  0001 C CNN "Digi-Key Part Number"
F 7 "FERRITE CHIP 26 OHM 500MA 1206" H 11450 5100 60  0001 C CNN "Description"
	1    11450 5100
	1    0    0    -1  
$EndComp
Wire Wire Line
	11200 5100 11000 5100
Connection ~ 11000 5100
Wire Wire Line
	11700 5100 11900 5100
Connection ~ 11900 5100
Wire Wire Line
	8200 4300 9400 4300
$Comp
L AMS1117CD-2.5 U7
U 1 1 53F4A09F
P 9900 4300
F 0 "U7" H 9550 4450 40  0000 C CNN
F 1 "AMS1117CD-2.5" H 9900 4450 40  0000 C CNN
F 2 "smd_packages:sot223" H 9900 4350 35  0001 C CIN
F 3 "" H 9950 4300 60  0000 C CNN
F 4 "Advanced Monolithic Systems" H 9900 4300 60  0001 C CNN "Manufacturer"
F 5 "AMS1117CD-2.5" H 9900 4300 60  0001 C CNN "Manufacturer Part Number"
	1    9900 4300
	1    0    0    -1  
$EndComp
Wire Wire Line
	8200 4300 8200 2500
Connection ~ 8200 2500
$EndSCHEMATC
