EESchema Schematic File Version 2
LIBS:power
LIBS:device
LIBS:conn
LIBS:_ti-reg
LIBS:_ams-reg
LIBS:_wurth
LIBS:_sharp
LIBS:_cirrus-logic
LIBS:_st-audio
LIBS:_maxim
LIBS:_ptc
LIBS:sta308a-ev-cache
EELAYER 24 0
EELAYER END
$Descr USLegal 14000 8500
encoding utf-8
Sheet 3 8
Title "S/P DIF Section (Ports)"
Date ""
Rev "0.1"
Comp ""
Comment1 ""
Comment2 ""
Comment3 ""
Comment4 ""
$EndDescr
Text HLabel 8000 4000 2    60   Output ~ 0
SPDifPortOut
$Comp
L INDUCTOR_SMALL L6
U 1 1 53CECC48
P 5550 2900
AR Path="/53CECB52/53CECC48" Ref="L6"  Part="1" 
AR Path="/53CED854/53CECC48" Ref="L7"  Part="1" 
AR Path="/53CEDC5B/53CECC48" Ref="L8"  Part="1" 
AR Path="/53CEDCA2/53CECC48" Ref="L9"  Part="1" 
AR Path="/53CEDCC7/53CECC48" Ref="L10"  Part="1" 
AR Path="/53CEDCEC/53CECC48" Ref="L11"  Part="1" 
AR Path="/53CEDD4F/53CECC48" Ref="L12"  Part="1" 
AR Path="/53CEDD74/53CECC48" Ref="L13"  Part="1" 
F 0 "L13" H 5550 3000 50  0000 C CNN
F 1 "Ferrite" H 5550 2850 50  0000 C CNN
F 2 "SMD_Packages:l_0805" H 5550 2900 60  0001 C CNN
F 3 "" H 5550 2900 60  0000 C CNN
F 4 "TDK Corporation" H 5550 2900 60  0001 C CNN "Manufacturer"
F 5 "MMZ2012R121A" H 5550 2900 60  0001 C CNN "Manufacturer Part Number"
F 6 "445-2190-1-ND" H 5550 2900 60  0001 C CNN "Digi-Key Part Number"
F 7 "FERRITE CHIP 120 OHM 800MA 0805" H 5550 2900 60  0001 C CNN "Description"
	1    5550 2900
	1    0    0    -1  
$EndComp
$Comp
L C C17
U 1 1 53CECC8B
P 6200 2900
AR Path="/53CECB52/53CECC8B" Ref="C17"  Part="1" 
AR Path="/53CED854/53CECC8B" Ref="C19"  Part="1" 
AR Path="/53CEDC5B/53CECC8B" Ref="C21"  Part="1" 
AR Path="/53CEDCA2/53CECC8B" Ref="C23"  Part="1" 
AR Path="/53CEDCC7/53CECC8B" Ref="C25"  Part="1" 
AR Path="/53CEDCEC/53CECC8B" Ref="C27"  Part="1" 
AR Path="/53CEDD4F/53CECC8B" Ref="C29"  Part="1" 
AR Path="/53CEDD74/53CECC8B" Ref="C31"  Part="1" 
F 0 "C31" V 6050 2850 40  0000 L CNN
F 1 "100n" V 6350 2850 40  0000 L CNN
F 2 "SMD_Packages:c_0603" H 6238 2750 30  0001 C CNN
F 3 "" H 6200 2900 60  0000 C CNN
F 4 "TDK Corporation" H 6200 2900 60  0001 C CNN "Manufacturer"
F 5 "C1608X7R1E104K080AA" H 6200 2900 60  0001 C CNN "Manufacturer Part Number"
F 6 "445-1316-1-ND" H 6200 2900 60  0001 C CNN "Digi-Key Part Number"
F 7 "CAP CER 0.1UF 25V 10% X7R 0603" H 6200 2900 60  0001 C CNN "Description"
	1    6200 2900
	0    1    1    0   
$EndComp
$Comp
L R R2
U 1 1 53CECD51
P 6900 4850
AR Path="/53CECB52/53CECD51" Ref="R2"  Part="1" 
AR Path="/53CED854/53CECD51" Ref="R3"  Part="1" 
AR Path="/53CEDC5B/53CECD51" Ref="R4"  Part="1" 
AR Path="/53CEDCA2/53CECD51" Ref="R5"  Part="1" 
AR Path="/53CEDCC7/53CECD51" Ref="R6"  Part="1" 
AR Path="/53CEDCEC/53CECD51" Ref="R7"  Part="1" 
AR Path="/53CEDD4F/53CECD51" Ref="R8"  Part="1" 
AR Path="/53CEDD74/53CECD51" Ref="R9"  Part="1" 
F 0 "R9" H 7000 4850 40  0000 C CNN
F 1 "R75" V 6907 4851 40  0000 C CNN
F 2 "SMD_Packages:r_0603" V 6830 4850 30  0001 C CNN
F 3 "" H 6900 4850 30  0000 C CNN
F 4 "Vishay Dale" V 6900 4850 60  0001 C CNN "Manufacturer"
F 5 "CRCW060375R0FKEA" V 6900 4850 60  0001 C CNN "Manufacturer Part Number"
F 6 "541-75.0HCT-ND" V 6900 4850 60  0001 C CNN "Digi-Key Part Number"
F 7 "RES 75.0 OHM 1/10W 1% 0603 SMD" V 6900 4850 60  0001 C CNN "Description"
	1    6900 4850
	1    0    0    -1  
$EndComp
Wire Wire Line
	7700 4000 8000 4000
$Comp
L JUMPER3 JP2
U 1 1 53CEE62E
P 6900 4000
AR Path="/53CECB52/53CEE62E" Ref="JP2"  Part="1" 
AR Path="/53CED854/53CEE62E" Ref="JP3"  Part="1" 
AR Path="/53CEDC5B/53CEE62E" Ref="JP4"  Part="1" 
AR Path="/53CEDCA2/53CEE62E" Ref="JP5"  Part="1" 
AR Path="/53CEDCC7/53CEE62E" Ref="JP6"  Part="1" 
AR Path="/53CEDCEC/53CEE62E" Ref="JP7"  Part="1" 
AR Path="/53CEDD4F/53CEE62E" Ref="JP8"  Part="1" 
AR Path="/53CEDD74/53CEE62E" Ref="JP9"  Part="1" 
F 0 "JP9" V 6750 3800 40  0000 L CNN
F 1 "OPT/ELEC" H 6900 4150 40  0000 C CNN
F 2 "Connect:SIL-3" H 6900 4000 60  0001 C CNN
F 3 "" H 6900 4000 60  0000 C CNN
F 4 "FCI" H 6900 4000 60  0001 C CNN "Manufacturer"
F 5 "68000-103HLF" H 6900 4000 60  0001 C CNN "Manufacturer Part Number"
F 6 "609-3461-ND" H 6900 4000 60  0001 C CNN "Digi-Key Part Number"
F 7 "BERGSTIK II .100\" SR STRAIGHT" H 6900 4000 60  0001 C CNN "Description"
	1    6900 4000
	0    -1   1    0   
$EndComp
$Comp
L C C18
U 1 1 53CEFC85
P 7500 4000
AR Path="/53CECB52/53CEFC85" Ref="C18"  Part="1" 
AR Path="/53CED854/53CEFC85" Ref="C20"  Part="1" 
AR Path="/53CEDC5B/53CEFC85" Ref="C22"  Part="1" 
AR Path="/53CEDCA2/53CEFC85" Ref="C24"  Part="1" 
AR Path="/53CEDCC7/53CEFC85" Ref="C26"  Part="1" 
AR Path="/53CEDCEC/53CEFC85" Ref="C28"  Part="1" 
AR Path="/53CEDD4F/53CEFC85" Ref="C30"  Part="1" 
AR Path="/53CEDD74/53CEFC85" Ref="C32"  Part="1" 
F 0 "C32" V 7350 3950 40  0000 L CNN
F 1 "100n" V 7650 3950 40  0000 L CNN
F 2 "SMD_Packages:c_0603" H 7538 3850 30  0001 C CNN
F 3 "" H 7500 4000 60  0000 C CNN
F 4 "TDK Corporation" H 7500 4000 60  0001 C CNN "Manufacturer"
F 5 "C1608X7R1E104K080AA" H 7500 4000 60  0001 C CNN "Manufacturer Part Number"
F 6 "445-1316-1-ND" H 7500 4000 60  0001 C CNN "Digi-Key Part Number"
F 7 "CAP CER 0.1UF 25V 10% X7R 0603" H 7500 4000 60  0001 C CNN "Description"
	1    7500 4000
	0    1    1    0   
$EndComp
$Comp
L GND #PWR25
U 1 1 53CEB344
P 6900 5300
AR Path="/53CECB52/53CEB344" Ref="#PWR25"  Part="1" 
AR Path="/53CED854/53CEB344" Ref="#PWR30"  Part="1" 
AR Path="/53CEDC5B/53CEB344" Ref="#PWR35"  Part="1" 
AR Path="/53CEDCA2/53CEB344" Ref="#PWR40"  Part="1" 
AR Path="/53CEDCC7/53CEB344" Ref="#PWR45"  Part="1" 
AR Path="/53CEDCEC/53CEB344" Ref="#PWR50"  Part="1" 
AR Path="/53CEDD4F/53CEB344" Ref="#PWR55"  Part="1" 
AR Path="/53CEDD74/53CEB344" Ref="#PWR60"  Part="1" 
F 0 "#PWR60" H 6900 5300 30  0001 C CNN
F 1 "GND" H 6900 5230 30  0001 C CNN
F 2 "" H 6900 5300 60  0000 C CNN
F 3 "" H 6900 5300 60  0000 C CNN
	1    6900 5300
	1    0    0    -1  
$EndComp
$Comp
L +5V #PWR21
U 1 1 53CEDF71
P 5100 2800
AR Path="/53CECB52/53CEDF71" Ref="#PWR21"  Part="1" 
AR Path="/53CED854/53CEDF71" Ref="#PWR26"  Part="1" 
AR Path="/53CEDC5B/53CEDF71" Ref="#PWR31"  Part="1" 
AR Path="/53CEDCA2/53CEDF71" Ref="#PWR36"  Part="1" 
AR Path="/53CEDCC7/53CEDF71" Ref="#PWR41"  Part="1" 
AR Path="/53CEDCEC/53CEDF71" Ref="#PWR46"  Part="1" 
AR Path="/53CEDD4F/53CEDF71" Ref="#PWR51"  Part="1" 
AR Path="/53CEDD74/53CEDF71" Ref="#PWR56"  Part="1" 
F 0 "#PWR56" H 5100 2890 20  0001 C CNN
F 1 "+5V" H 5100 2890 30  0000 C CNN
F 2 "" H 5100 2800 60  0000 C CNN
F 3 "" H 5100 2800 60  0000 C CNN
	1    5100 2800
	1    0    0    -1  
$EndComp
Wire Wire Line
	5600 3500 6900 3500
Wire Wire Line
	6900 3500 6900 3750
Wire Wire Line
	5800 2900 6000 2900
Wire Wire Line
	5900 2900 5900 3300
Wire Wire Line
	5900 3300 5600 3300
Connection ~ 5900 2900
$Comp
L GND #PWR24
U 1 1 53CEE034
P 6500 3000
AR Path="/53CECB52/53CEE034" Ref="#PWR24"  Part="1" 
AR Path="/53CED854/53CEE034" Ref="#PWR29"  Part="1" 
AR Path="/53CEDC5B/53CEE034" Ref="#PWR34"  Part="1" 
AR Path="/53CEDCA2/53CEE034" Ref="#PWR39"  Part="1" 
AR Path="/53CEDCC7/53CEE034" Ref="#PWR44"  Part="1" 
AR Path="/53CEDCEC/53CEE034" Ref="#PWR49"  Part="1" 
AR Path="/53CEDD4F/53CEE034" Ref="#PWR54"  Part="1" 
AR Path="/53CEDD74/53CEE034" Ref="#PWR59"  Part="1" 
F 0 "#PWR59" H 6500 3000 30  0001 C CNN
F 1 "GND" H 6500 2930 30  0001 C CNN
F 2 "" H 6500 3000 60  0000 C CNN
F 3 "" H 6500 3000 60  0000 C CNN
	1    6500 3000
	1    0    0    -1  
$EndComp
$Comp
L GND #PWR22
U 1 1 53CEE060
P 5700 3900
AR Path="/53CECB52/53CEE060" Ref="#PWR22"  Part="1" 
AR Path="/53CED854/53CEE060" Ref="#PWR27"  Part="1" 
AR Path="/53CEDC5B/53CEE060" Ref="#PWR32"  Part="1" 
AR Path="/53CEDCA2/53CEE060" Ref="#PWR37"  Part="1" 
AR Path="/53CEDCC7/53CEE060" Ref="#PWR42"  Part="1" 
AR Path="/53CEDCEC/53CEE060" Ref="#PWR47"  Part="1" 
AR Path="/53CEDD4F/53CEE060" Ref="#PWR52"  Part="1" 
AR Path="/53CEDD74/53CEE060" Ref="#PWR57"  Part="1" 
F 0 "#PWR57" H 5700 3900 30  0001 C CNN
F 1 "GND" H 5700 3830 30  0001 C CNN
F 2 "" H 5700 3900 60  0000 C CNN
F 3 "" H 5700 3900 60  0000 C CNN
	1    5700 3900
	1    0    0    -1  
$EndComp
Wire Wire Line
	5600 3700 5700 3700
Wire Wire Line
	5700 3700 5700 3900
Wire Wire Line
	6400 2900 6500 2900
Wire Wire Line
	6500 2900 6500 3000
Wire Wire Line
	5100 2800 5100 2900
Wire Wire Line
	5100 2900 5300 2900
Wire Wire Line
	6900 5100 6900 5300
Wire Wire Line
	6900 4600 6900 4250
Wire Wire Line
	7300 4000 7000 4000
$Comp
L BNC P10
U 1 1 53CEF3DF
P 6100 4500
AR Path="/53CEDD74/53CEF3DF" Ref="P10"  Part="1" 
AR Path="/53CECB52/53CEF3DF" Ref="P3"  Part="1" 
AR Path="/53CED854/53CEF3DF" Ref="P4"  Part="1" 
AR Path="/53CEDC5B/53CEF3DF" Ref="P5"  Part="1" 
AR Path="/53CEDCA2/53CEF3DF" Ref="P6"  Part="1" 
AR Path="/53CEDCC7/53CEF3DF" Ref="P7"  Part="1" 
AR Path="/53CEDCEC/53CEF3DF" Ref="P8"  Part="1" 
AR Path="/53CEDD4F/53CEF3DF" Ref="P9"  Part="1" 
F 0 "P10" H 6110 4620 60  0000 C CNN
F 1 "RCA JACK" H 5850 4450 40  0000 C CNN
F 2 "_CUI:RCJ-04x" H 6100 4500 60  0001 C CNN
F 3 "" H 6100 4500 60  0000 C CNN
	1    6100 4500
	-1   0    0    -1  
$EndComp
$Comp
L GND #PWR58
U 1 1 53CEF9F1
P 6100 4900
AR Path="/53CEDD74/53CEF9F1" Ref="#PWR58"  Part="1" 
AR Path="/53CECB52/53CEF9F1" Ref="#PWR23"  Part="1" 
AR Path="/53CED854/53CEF9F1" Ref="#PWR28"  Part="1" 
AR Path="/53CEDC5B/53CEF9F1" Ref="#PWR33"  Part="1" 
AR Path="/53CEDCA2/53CEF9F1" Ref="#PWR38"  Part="1" 
AR Path="/53CEDCC7/53CEF9F1" Ref="#PWR43"  Part="1" 
AR Path="/53CEDCEC/53CEF9F1" Ref="#PWR48"  Part="1" 
AR Path="/53CEDD4F/53CEF9F1" Ref="#PWR53"  Part="1" 
F 0 "#PWR58" H 6100 4900 30  0001 C CNN
F 1 "GND" H 6100 4830 30  0001 C CNN
F 2 "" H 6100 4900 60  0000 C CNN
F 3 "" H 6100 4900 60  0000 C CNN
	1    6100 4900
	1    0    0    -1  
$EndComp
Wire Wire Line
	6100 4700 6100 4900
Wire Wire Line
	6250 4500 6900 4500
Connection ~ 6900 4500
$Comp
L GP1F31R U4
U 1 1 53D69DF2
P 5000 3500
AR Path="/53CECB52/53D69DF2" Ref="U4"  Part="1" 
AR Path="/53CED854/53D69DF2" Ref="U5"  Part="1" 
AR Path="/53CEDC5B/53D69DF2" Ref="U6"  Part="1" 
AR Path="/53CEDCA2/53D69DF2" Ref="U7"  Part="1" 
AR Path="/53CEDCC7/53D69DF2" Ref="U8"  Part="1" 
AR Path="/53CEDCEC/53D69DF2" Ref="U9"  Part="1" 
AR Path="/53CEDD4F/53D69DF2" Ref="U10"  Part="1" 
AR Path="/53CEDD74/53D69DF2" Ref="U11"  Part="1" 
F 0 "U11" H 5000 3875 60  0000 C CNN
F 1 "GP1F31R" H 5000 3025 60  0000 C CNN
F 2 "_Sharp:GP1F31R" H 5425 3250 30  0001 C CNN
F 3 "" H 5000 3500 60  0000 C CNN
	1    5000 3500
	-1   0    0    -1  
$EndComp
Wire Wire Line
	5700 3800 5600 3800
Connection ~ 5700 3800
$EndSCHEMATC
