EESchema Schematic File Version 2
LIBS:_ams-reg
LIBS:_cirrus-logic
LIBS:conn
LIBS:device
LIBS:_maxim
LIBS:power
LIBS:_ptc
LIBS:regul
LIBS:_st-audio
LIBS:_switchcraft
LIBS:_ti-reg
LIBS:_wolfson
LIBS:_wurth
LIBS:_toshiba
LIBS:sta308a-ev-rev-c-cache
EELAYER 24 0
EELAYER END
$Descr USLegal 14000 8500
encoding utf-8
Sheet 6 7
Title "STA308A"
Date ""
Rev "0.1"
Comp ""
Comment1 ""
Comment2 ""
Comment3 ""
Comment4 ""
$EndDescr
Text HLabel 4900 1500 0    60   Input ~ 0
PWD_308
$Comp
L GND #PWR093
U 1 1 53D5BCB8
P 4300 1800
F 0 "#PWR093" H 4300 1800 30  0001 C CNN
F 1 "GND" H 4300 1730 30  0001 C CNN
F 2 "" H 4300 1800 60  0000 C CNN
F 3 "" H 4300 1800 60  0000 C CNN
	1    4300 1800
	1    0    0    -1  
$EndComp
Text HLabel 8100 1700 2    60   Output ~ 0
CH1_A
Text HLabel 8100 1800 2    60   Output ~ 0
CH1_B
Text HLabel 8100 2850 2    60   Output ~ 0
CH2_A
Text HLabel 8100 2950 2    60   Output ~ 0
CH2_B
Text HLabel 8100 3350 2    60   Output ~ 0
CH3_A
Text HLabel 8100 3450 2    60   Output ~ 0
CH3_B
Text HLabel 8100 3550 2    60   Output ~ 0
CH4_A
Text HLabel 8100 3650 2    60   Output ~ 0
CH4_B
Text HLabel 8100 3750 2    60   Output ~ 0
CH5_A
Text HLabel 8100 3850 2    60   Output ~ 0
CH5_B
Text HLabel 8100 5400 2    60   Output ~ 0
CH7_A
Text HLabel 8100 5500 2    60   Output ~ 0
CH7_B
Text HLabel 8100 5600 2    60   Output ~ 0
CH8_A
Text HLabel 8100 5700 2    60   Output ~ 0
CH8_B
Text HLabel 8100 4250 2    60   Output ~ 0
CH6_A
Text HLabel 8100 4350 2    60   Output ~ 0
CH6_B
$Comp
L C C41
U 1 1 53D5BF5A
P 5650 850
F 0 "C41" V 5600 700 40  0000 L CNN
F 1 "100n" V 5500 800 40  0000 L CNN
F 2 "smd_packages:c_0603" H 5688 700 30  0001 C CNN
F 3 "" H 5650 850 60  0000 C CNN
F 4 "Yageo" V 5650 850 60  0001 C CNN "Manufacturer"
F 5 "CC0603ZRY5V9BB104" V 5650 850 60  0001 C CNN "Manufacturer Part Number"
F 6 "311-1343-1-ND" V 5650 850 60  0001 C CNN "Digi-Key Part Number"
F 7 "CAP CER 0.1UF 50V Y5V 0603" V 5650 850 60  0001 C CNN "Description"
	1    5650 850 
	0    1    1    0   
$EndComp
$Comp
L GND #PWR094
U 1 1 53D5BFBC
P 5400 650
F 0 "#PWR094" H 5400 650 30  0001 C CNN
F 1 "GND" H 5400 580 30  0001 C CNN
F 2 "" H 5400 650 60  0000 C CNN
F 3 "" H 5400 650 60  0000 C CNN
	1    5400 650 
	-1   0    0    1   
$EndComp
$Comp
L +3.3V #PWR095
U 1 1 53D5BFC9
P 5900 650
F 0 "#PWR095" H 5900 610 30  0001 C CNN
F 1 "+3.3V" H 5900 760 30  0000 C CNN
F 2 "" H 5900 650 60  0000 C CNN
F 3 "" H 5900 650 60  0000 C CNN
	1    5900 650 
	1    0    0    -1  
$EndComp
$Comp
L GND #PWR096
U 1 1 53D5C037
P 6100 650
F 0 "#PWR096" H 6100 650 30  0001 C CNN
F 1 "GND" H 6100 580 30  0001 C CNN
F 2 "" H 6100 650 60  0000 C CNN
F 3 "" H 6100 650 60  0000 C CNN
	1    6100 650 
	-1   0    0    1   
$EndComp
$Comp
L +3.3V #PWR097
U 1 1 53D5C046
P 6600 650
F 0 "#PWR097" H 6600 610 30  0001 C CNN
F 1 "+3.3V" H 6600 760 30  0000 C CNN
F 2 "" H 6600 650 60  0000 C CNN
F 3 "" H 6600 650 60  0000 C CNN
	1    6600 650 
	1    0    0    -1  
$EndComp
Text HLabel 8100 1500 2    60   Input ~ 0
EAPD
$Comp
L +3.3V #PWR098
U 1 1 53D5C5EA
P 9800 3700
F 0 "#PWR098" H 9800 3660 30  0001 C CNN
F 1 "+3.3V" H 9800 3810 30  0000 C CNN
F 2 "" H 9800 3700 60  0000 C CNN
F 3 "" H 9800 3700 60  0000 C CNN
	1    9800 3700
	1    0    0    -1  
$EndComp
$Comp
L GND #PWR099
U 1 1 53D5C5FB
P 9800 4500
F 0 "#PWR099" H 9800 4500 30  0001 C CNN
F 1 "GND" H 9800 4430 30  0001 C CNN
F 2 "" H 9800 4500 60  0000 C CNN
F 3 "" H 9800 4500 60  0000 C CNN
	1    9800 4500
	1    0    0    -1  
$EndComp
$Comp
L GND #PWR0100
U 1 1 53D5C7D2
P 6200 5400
F 0 "#PWR0100" H 6200 5400 30  0001 C CNN
F 1 "GND" H 6200 5330 30  0001 C CNN
F 2 "" H 6200 5400 60  0000 C CNN
F 3 "" H 6200 5400 60  0000 C CNN
	1    6200 5400
	1    0    0    -1  
$EndComp
NoConn ~ 6000 5200
$Comp
L +3.3V #PWR0101
U 1 1 53D5C90C
P 6000 6000
F 0 "#PWR0101" H 6000 5960 30  0001 C CNN
F 1 "+3.3V" H 6000 6110 30  0000 C CNN
F 2 "" H 6000 6000 60  0000 C CNN
F 3 "" H 6000 6000 60  0000 C CNN
	1    6000 6000
	1    0    0    -1  
$EndComp
$Comp
L GND #PWR0102
U 1 1 53D5CA60
P 6000 6700
F 0 "#PWR0102" H 6000 6700 30  0001 C CNN
F 1 "GND" H 6000 6630 30  0001 C CNN
F 2 "" H 6000 6700 60  0000 C CNN
F 3 "" H 6000 6700 60  0000 C CNN
	1    6000 6700
	1    0    0    -1  
$EndComp
$Comp
L GND #PWR0103
U 1 1 53D5CA74
P 6300 6700
F 0 "#PWR0103" H 6300 6700 30  0001 C CNN
F 1 "GND" H 6300 6630 30  0001 C CNN
F 2 "" H 6300 6700 60  0000 C CNN
F 3 "" H 6300 6700 60  0000 C CNN
	1    6300 6700
	1    0    0    -1  
$EndComp
$Comp
L CP1 C45
U 1 1 53D5CDBB
P 6300 7300
F 0 "C45" H 6350 7400 50  0000 L CNN
F 1 "22u" H 6350 7200 50  0000 L CNN
F 2 "smd_packages:tantalc_sizeb_eia-3528" H 6300 7300 60  0001 C CNN
F 3 "" H 6300 7300 60  0000 C CNN
F 4 "Kemet" H 6300 7300 60  0001 C CNN "Manufacturer"
F 5 "T491B226K006AT" H 6300 7300 60  0001 C CNN "Manufacturer Part Number"
F 6 "399-3716-1-ND" H 6300 7300 60  0001 C CNN "Digi-Key Part Number"
F 7 "CAP TANT 22UF 6.3V 10% 1411" H 6300 7300 60  0001 C CNN "Description"
	1    6300 7300
	1    0    0    -1  
$EndComp
$Comp
L INDUCTOR_SMALL L4
U 1 1 53D5CDE4
P 6850 7000
F 0 "L4" H 6850 7100 50  0000 C CNN
F 1 "600ohm @ 100MHz" H 6850 6950 50  0000 C CNN
F 2 "smd_packages:l_1206" H 6850 7000 60  0001 C CNN
F 3 "" H 6850 7000 60  0000 C CNN
F 4 "Wurth Electronics Inc" H 6850 7000 60  0001 C CNN "Manufacturer"
F 5 "7427920415" H 6850 7000 60  0001 C CNN "Manufacturer Part Number"
F 6 "732-1605-1-ND" H 6850 7000 60  0001 C CNN "Digi-Key Part Number"
F 7 "FERRITE BEAD 600 OHM .50A 0805" H 6850 7000 60  0001 C CNN "Description"
	1    6850 7000
	1    0    0    -1  
$EndComp
$Comp
L GND #PWR0104
U 1 1 53D5CECC
P 7400 7700
F 0 "#PWR0104" H 7400 7700 30  0001 C CNN
F 1 "GND" H 7400 7630 30  0001 C CNN
F 2 "" H 7400 7700 60  0000 C CNN
F 3 "" H 7400 7700 60  0000 C CNN
	1    7400 7700
	1    0    0    -1  
$EndComp
$Comp
L R R13
U 1 1 53D5CEFA
P 4800 6650
F 0 "R13" V 4880 6650 40  0000 C CNN
F 1 "3.40K" V 4807 6651 40  0000 C CNN
F 2 "smd_packages:r_0603" V 4730 6650 30  0001 C CNN
F 3 "" H 4800 6650 30  0000 C CNN
F 4 "Yageo" V 4800 6650 60  0001 C CNN "Manufacturer"
F 5 "RC0603FR-073K4L" V 4800 6650 60  0001 C CNN "Manufacturer Part Number"
F 6 "311-3.40KHRCT-ND" V 4800 6650 60  0001 C CNN "Digi-Key Part Number"
F 7 "RES 3.40K OHM 1/10W 1% 0603 SMD" V 4800 6650 60  0001 C CNN "Description"
	1    4800 6650
	-1   0    0    1   
$EndComp
Text Label 6050 7000 0    50   ~ 0
VDDA
Text HLabel 4350 5700 0    60   BiDi ~ 0
SDA
Text HLabel 4350 5800 0    60   Input ~ 0
SCL
Text HLabel 4350 5900 0    60   Input ~ 0
XTI
$Comp
L GND #PWR0105
U 1 1 53D5E12F
P 5200 5400
F 0 "#PWR0105" H 5200 5400 30  0001 C CNN
F 1 "GND" H 5200 5330 30  0001 C CNN
F 2 "" H 5200 5400 60  0000 C CNN
F 3 "" H 5200 5400 60  0000 C CNN
	1    5200 5400
	1    0    0    -1  
$EndComp
Text HLabel 3700 3850 0    60   Input ~ 0
BICK
Text HLabel 3700 3750 0    60   Input ~ 0
LRCK
Text HLabel 3700 3650 0    60   Input ~ 0
SDATA12
Text HLabel 3700 3550 0    60   Input ~ 0
SDATA34
Text HLabel 3700 3450 0    60   Input ~ 0
SDATA56
Text HLabel 3700 3350 0    60   Input ~ 0
SDATA78
$Comp
L R R12
U 1 1 53D5E5B7
P 3450 2700
F 0 "R12" V 3530 2700 40  0000 C CNN
F 1 "0" V 3457 2701 40  0000 C CNN
F 2 "smd_packages:r_0603" V 3380 2700 30  0001 C CNN
F 3 "" H 3450 2700 30  0000 C CNN
F 4 "Yageo" V 3450 2700 60  0001 C CNN "Manufacturer"
F 5 "RC0603JR-070RL" V 3450 2700 60  0001 C CNN "Manufacturer Part Number"
F 6 "311-0.0GRCT-ND" V 3450 2700 60  0001 C CNN "Digi-Key Part Number"
F 7 "RES 0.0 OHM 1/10W JUMP 0603 SMD" V 3450 2700 60  0001 C CNN "Description"
	1    3450 2700
	0    -1   -1   0   
$EndComp
$Comp
L GND #PWR0106
U 1 1 53D5E8D1
P 3000 2800
F 0 "#PWR0106" H 3000 2800 30  0001 C CNN
F 1 "GND" H 3000 2730 30  0001 C CNN
F 2 "" H 3000 2800 60  0000 C CNN
F 3 "" H 3000 2800 60  0000 C CNN
	1    3000 2800
	1    0    0    -1  
$EndComp
$Comp
L +3.3V #PWR0107
U 1 1 53D5E93A
P 1800 2800
F 0 "#PWR0107" H 1800 2760 30  0001 C CNN
F 1 "+3.3V" H 1800 2910 30  0000 C CNN
F 2 "" H 1800 2800 60  0000 C CNN
F 3 "" H 1800 2800 60  0000 C CNN
	1    1800 2800
	1    0    0    -1  
$EndComp
$Comp
L +3.3V #PWR0108
U 1 1 53D5E9A0
P 1800 3700
F 0 "#PWR0108" H 1800 3660 30  0001 C CNN
F 1 "+3.3V" H 1800 3810 30  0000 C CNN
F 2 "" H 1800 3700 60  0000 C CNN
F 3 "" H 1800 3700 60  0000 C CNN
	1    1800 3700
	1    0    0    -1  
$EndComp
$Comp
L GND #PWR0109
U 1 1 53D5EA5F
P 1800 3400
F 0 "#PWR0109" H 1800 3400 30  0001 C CNN
F 1 "GND" H 1800 3330 30  0001 C CNN
F 2 "" H 1800 3400 60  0000 C CNN
F 3 "" H 1800 3400 60  0000 C CNN
	1    1800 3400
	1    0    0    -1  
$EndComp
$Comp
L GND #PWR0110
U 1 1 53D5EACE
P 1800 4300
F 0 "#PWR0110" H 1800 4300 30  0001 C CNN
F 1 "GND" H 1800 4230 30  0001 C CNN
F 2 "" H 1800 4300 60  0000 C CNN
F 3 "" H 1800 4300 60  0000 C CNN
	1    1800 4300
	1    0    0    -1  
$EndComp
$Comp
L GND #PWR0111
U 1 1 53D5F8D0
P 4200 4500
F 0 "#PWR0111" H 4200 4500 30  0001 C CNN
F 1 "GND" H 4200 4430 30  0001 C CNN
F 2 "" H 4200 4500 60  0000 C CNN
F 3 "" H 4200 4500 60  0000 C CNN
	1    4200 4500
	1    0    0    -1  
$EndComp
Text HLabel 3000 4600 0    60   Input ~ 0
RESET
$Comp
L GND #PWR0112
U 1 1 53D5FD8D
P 3900 4900
F 0 "#PWR0112" H 3900 4900 30  0001 C CNN
F 1 "GND" H 3900 4830 30  0001 C CNN
F 2 "" H 3900 4900 60  0000 C CNN
F 3 "" H 3900 4900 60  0000 C CNN
	1    3900 4900
	1    0    0    -1  
$EndComp
$Comp
L GND #PWR0113
U 1 1 53D5FDAE
P 3600 4900
F 0 "#PWR0113" H 3600 4900 30  0001 C CNN
F 1 "GND" H 3600 4830 30  0001 C CNN
F 2 "" H 3600 4900 60  0000 C CNN
F 3 "" H 3600 4900 60  0000 C CNN
	1    3600 4900
	1    0    0    -1  
$EndComp
$Comp
L +3.3V #PWR0114
U 1 1 53D60B54
P 7400 6900
F 0 "#PWR0114" H 7400 6860 30  0001 C CNN
F 1 "+3.3V" H 7400 7010 30  0000 C CNN
F 2 "" H 7400 6900 60  0000 C CNN
F 3 "" H 7400 6900 60  0000 C CNN
	1    7400 6900
	1    0    0    -1  
$EndComp
Text Label 6050 7600 0    50   ~ 0
GNDA
$Comp
L C C46
U 1 1 53D61AED
P 6350 850
F 0 "C46" V 6300 700 40  0000 L CNN
F 1 "100n" V 6200 800 40  0000 L CNN
F 2 "smd_packages:c_0603" H 6388 700 30  0001 C CNN
F 3 "" H 6350 850 60  0000 C CNN
F 4 "Yageo" V 6350 850 60  0001 C CNN "Manufacturer"
F 5 "CC0603ZRY5V9BB104" V 6350 850 60  0001 C CNN "Manufacturer Part Number"
F 6 "311-1343-1-ND" V 6350 850 60  0001 C CNN "Digi-Key Part Number"
F 7 "CAP CER 0.1UF 50V Y5V 0603" V 6350 850 60  0001 C CNN "Description"
	1    6350 850 
	0    1    1    0   
$EndComp
$Comp
L C C7
U 1 1 53D61B30
P 1800 3100
F 0 "C7" H 1900 3000 40  0000 L CNN
F 1 "100n" H 1850 3200 40  0000 L CNN
F 2 "smd_packages:c_0603" H 1838 2950 30  0001 C CNN
F 3 "" H 1800 3100 60  0000 C CNN
F 4 "Yageo" V 1800 3100 60  0001 C CNN "Manufacturer"
F 5 "CC0603ZRY5V9BB104" V 1800 3100 60  0001 C CNN "Manufacturer Part Number"
F 6 "311-1343-1-ND" V 1800 3100 60  0001 C CNN "Digi-Key Part Number"
F 7 "CAP CER 0.1UF 50V Y5V 0603" V 1800 3100 60  0001 C CNN "Description"
	1    1800 3100
	-1   0    0    1   
$EndComp
$Comp
L C C9
U 1 1 53D61D61
P 1800 4000
F 0 "C9" H 1900 3900 40  0000 L CNN
F 1 "100n" H 1850 4100 40  0000 L CNN
F 2 "smd_packages:c_0603" H 1838 3850 30  0001 C CNN
F 3 "" H 1800 4000 60  0000 C CNN
F 4 "Yageo" V 1800 4000 60  0001 C CNN "Manufacturer"
F 5 "CC0603ZRY5V9BB104" V 1800 4000 60  0001 C CNN "Manufacturer Part Number"
F 6 "311-1343-1-ND" V 1800 4000 60  0001 C CNN "Digi-Key Part Number"
F 7 "CAP CER 0.1UF 50V Y5V 0603" V 1800 4000 60  0001 C CNN "Description"
	1    1800 4000
	-1   0    0    1   
$EndComp
$Comp
L C C43
U 1 1 53D61DF1
P 6000 7300
F 0 "C43" H 6100 7200 40  0000 L CNN
F 1 "100n" H 6050 7400 30  0000 L CNN
F 2 "smd_packages:c_0603" H 6038 7150 30  0001 C CNN
F 3 "" H 6000 7300 60  0000 C CNN
F 4 "Yageo" V 6000 7300 60  0001 C CNN "Manufacturer"
F 5 "CC0603ZRY5V9BB104" V 6000 7300 60  0001 C CNN "Manufacturer Part Number"
F 6 "311-1343-1-ND" V 6000 7300 60  0001 C CNN "Digi-Key Part Number"
F 7 "CAP CER 0.1UF 50V Y5V 0603" V 6000 7300 60  0001 C CNN "Description"
	1    6000 7300
	-1   0    0    1   
$EndComp
$Comp
L C C47
U 1 1 53D62103
P 7400 7300
F 0 "C47" H 7300 7200 40  0000 L CNN
F 1 "100n" H 7200 7400 40  0000 L CNN
F 2 "smd_packages:c_0603" H 7438 7150 30  0001 C CNN
F 3 "" H 7400 7300 60  0000 C CNN
F 4 "Yageo" V 7400 7300 60  0001 C CNN "Manufacturer"
F 5 "CC0603ZRY5V9BB104" V 7400 7300 60  0001 C CNN "Manufacturer Part Number"
F 6 "311-1343-1-ND" V 7400 7300 60  0001 C CNN "Digi-Key Part Number"
F 7 "CAP CER 0.1UF 50V Y5V 0603" V 7400 7300 60  0001 C CNN "Description"
	1    7400 7300
	-1   0    0    1   
$EndComp
$Comp
L C C48
U 1 1 53D622BF
P 9800 4100
F 0 "C48" H 9600 4000 40  0000 L CNN
F 1 "100n" H 9600 4200 40  0000 L CNN
F 2 "smd_packages:c_0603" H 9838 3950 30  0001 C CNN
F 3 "" H 9800 4100 60  0000 C CNN
F 4 "Yageo" V 9800 4100 60  0001 C CNN "Manufacturer"
F 5 "CC0603ZRY5V9BB104" V 9800 4100 60  0001 C CNN "Manufacturer Part Number"
F 6 "311-1343-1-ND" V 9800 4100 60  0001 C CNN "Digi-Key Part Number"
F 7 "CAP CER 0.1UF 50V Y5V 0603" V 9800 4100 60  0001 C CNN "Description"
	1    9800 4100
	-1   0    0    1   
$EndComp
$Comp
L C C42
U 1 1 53D62899
P 6000 6400
F 0 "C42" H 5900 6300 40  0000 L CNN
F 1 "100n" H 5800 6500 40  0000 L CNN
F 2 "smd_packages:c_0603" H 6038 6250 30  0001 C CNN
F 3 "" H 6000 6400 60  0000 C CNN
F 4 "Yageo" V 6000 6400 60  0001 C CNN "Manufacturer"
F 5 "CC0603ZRY5V9BB104" V 6000 6400 60  0001 C CNN "Manufacturer Part Number"
F 6 "311-1343-1-ND" V 6000 6400 60  0001 C CNN "Digi-Key Part Number"
F 7 "CAP CER 0.1UF 50V Y5V 0603" V 6000 6400 60  0001 C CNN "Description"
	1    6000 6400
	-1   0    0    1   
$EndComp
$Comp
L C C44
U 1 1 53D6290A
P 6300 6400
F 0 "C44" H 6200 6300 40  0000 L CNN
F 1 "100n" H 6100 6500 40  0000 L CNN
F 2 "smd_packages:c_0603" H 6338 6250 30  0001 C CNN
F 3 "" H 6300 6400 60  0000 C CNN
F 4 "Yageo" V 6300 6400 60  0001 C CNN "Manufacturer"
F 5 "CC0603ZRY5V9BB104" V 6300 6400 60  0001 C CNN "Manufacturer Part Number"
F 6 "311-1343-1-ND" V 6300 6400 60  0001 C CNN "Digi-Key Part Number"
F 7 "CAP CER 0.1UF 50V Y5V 0603" V 6300 6400 60  0001 C CNN "Description"
	1    6300 6400
	-1   0    0    1   
$EndComp
$Comp
L C C11
U 1 1 53D62942
P 3600 4600
F 0 "C11" H 3500 4500 40  0000 L CNN
F 1 "1000p" H 3400 4700 40  0000 L CNN
F 2 "smd_packages:c_0603" H 3638 4450 30  0001 C CNN
F 3 "" H 3600 4600 60  0000 C CNN
F 4 "Yageo" V 3600 4600 60  0001 C CNN "Manufacturer"
F 5 "CC0603JRNPO8BN102" V 3600 4600 60  0001 C CNN "Manufacturer Part Number"
F 6 "311-1342-1-ND" V 3600 4600 60  0001 C CNN "Digi-Key Part Number"
F 7 "CAP CER 1000PF 25V 5% NPO 0603" V 3600 4600 60  0001 C CNN "Description"
	1    3600 4600
	-1   0    0    1   
$EndComp
$Comp
L C C15
U 1 1 53D62BA7
P 4700 1700
F 0 "C15" V 4650 1500 40  0000 L CNN
F 1 "1000p" V 4850 1600 40  0000 L CNN
F 2 "smd_packages:c_0603" H 4738 1550 30  0001 C CNN
F 3 "" H 4700 1700 60  0000 C CNN
F 4 "Yageo" V 4700 1700 60  0001 C CNN "Manufacturer"
F 5 "CC0603JRNPO8BN102" V 4700 1700 60  0001 C CNN "Manufacturer Part Number"
F 6 "311-1342-1-ND" V 4700 1700 60  0001 C CNN "Digi-Key Part Number"
F 7 "CAP CER 1000PF 25V 5% NPO 0603" V 4700 1700 60  0001 C CNN "Description"
	1    4700 1700
	0    1    1    0   
$EndComp
$Comp
L C C13
U 1 1 53D62F64
P 3900 4600
F 0 "C13" H 3800 4500 40  0000 L CNN
F 1 "47p" H 3750 4700 40  0000 L CNN
F 2 "smd_packages:c_0603" H 3938 4450 30  0001 C CNN
F 3 "" H 3900 4600 60  0000 C CNN
F 4 "Yageo" V 3900 4600 60  0001 C CNN "Manufacturer"
F 5 "CC0603JRNPO9BN470" V 3900 4600 60  0001 C CNN "Manufacturer Part Number"
F 6 "311-1065-1-ND" V 3900 4600 60  0001 C CNN "Digi-Key Part Number"
F 7 "CAP CER 47PF 50V 5% NPO 0603" V 3900 4600 60  0001 C CNN "Description"
	1    3900 4600
	-1   0    0    1   
$EndComp
$Comp
L C C39
U 1 1 53D6315E
P 5100 7300
F 0 "C39" H 5000 7200 40  0000 L CNN
F 1 "100p" H 4900 7400 40  0000 L CNN
F 2 "smd_packages:c_0603" H 5138 7150 30  0001 C CNN
F 3 "" H 5100 7300 60  0000 C CNN
F 4 "Yageo" V 5100 7300 60  0001 C CNN "Manufacturer"
F 5 "CC0603JRNPO9BN101" V 5100 7300 60  0001 C CNN "Manufacturer Part Number"
F 6 "311-1069-1-ND" V 5100 7300 60  0001 C CNN "Digi-Key Part Number"
F 7 "CAP CER 100PF 50V 5% NPO 0603" V 5100 7300 60  0001 C CNN "Description"
	1    5100 7300
	-1   0    0    1   
$EndComp
$Comp
L C C40
U 1 1 53D633B8
P 5400 7000
F 0 "C40" H 5300 6900 40  0000 L CNN
F 1 "220p" H 5200 7100 40  0000 L CNN
F 2 "smd_packages:c_0603" H 5438 6850 30  0001 C CNN
F 3 "" H 5400 7000 60  0000 C CNN
F 4 "Yageo" V 5400 7000 60  0001 C CNN "Manufacturer"
F 5 "CC0603JRNPO9BN221" V 5400 7000 60  0001 C CNN "Manufacturer Part Number"
F 6 "311-1073-1-ND" V 5400 7000 60  0001 C CNN "Digi-Key Part Number"
F 7 "CAP CER 220PF 50V 5% NPO 0603" V 5400 7000 60  0001 C CNN "Description"
	1    5400 7000
	-1   0    0    1   
$EndComp
$Comp
L C C38
U 1 1 53D63692
P 4800 7300
F 0 "C38" H 4700 7200 40  0000 L CNN
F 1 "1200p" H 4600 7400 40  0000 L CNN
F 2 "smd_packages:c_0603" H 4838 7150 30  0001 C CNN
F 3 "" H 4800 7300 60  0000 C CNN
F 4 "Kemet" V 4800 7300 60  0001 C CNN "Manufacturer"
F 5 "C0603C122K5RACTU" V 4800 7300 60  0001 C CNN "Manufacturer Part Number"
F 6 "399-7851-1-ND" V 4800 7300 60  0001 C CNN "Digi-Key Part Number"
F 7 "CAP CER 1200PF 50V 10% X7R 0603" V 4800 7300 60  0001 C CNN "Description"
	1    4800 7300
	-1   0    0    1   
$EndComp
$Comp
L R R14
U 1 1 53D640CB
P 7300 1500
F 0 "R14" V 7380 1500 40  0000 C CNN
F 1 "0" V 7307 1501 40  0000 C CNN
F 2 "smd_packages:r_0603" V 7230 1500 30  0001 C CNN
F 3 "" H 7300 1500 30  0000 C CNN
F 4 "Yageo" V 7300 1500 60  0001 C CNN "Manufacturer"
F 5 "RC0603JR-070RL" V 7300 1500 60  0001 C CNN "Manufacturer Part Number"
F 6 "311-0.0GRCT-ND" V 7300 1500 60  0001 C CNN "Digi-Key Part Number"
F 7 "RES 0.0 OHM 1/10W JUMP 0603 SMD" V 7300 1500 60  0001 C CNN "Description"
	1    7300 1500
	0    -1   -1   0   
$EndComp
$Comp
L INDUCTOR_SMALL L5
U 1 1 53D64B26
P 6850 7600
F 0 "L5" H 6850 7700 50  0000 C CNN
F 1 "600ohm @ 100MHz" H 6850 7550 50  0000 C CNN
F 2 "smd_packages:l_1206" H 6850 7600 60  0001 C CNN
F 3 "" H 6850 7600 60  0000 C CNN
F 4 "Wurth Electronics Inc" H 6850 7600 60  0001 C CNN "Manufacturer"
F 5 "7427920415" H 6850 7600 60  0001 C CNN "Manufacturer Part Number"
F 6 "732-1605-1-ND" H 6850 7600 60  0001 C CNN "Digi-Key Part Number"
F 7 "FERRITE BEAD 600 OHM .50A 0805" H 6850 7600 60  0001 C CNN "Description"
	1    6850 7600
	1    0    0    -1  
$EndComp
Text HLabel 6100 1900 1    60   Output ~ 0
BICKO
Text HLabel 6000 1900 1    60   Output ~ 0
LRCKO
Text HLabel 5900 1900 1    60   Output ~ 0
SDO_12
Text HLabel 5800 1900 1    60   Output ~ 0
SDO_34
Text HLabel 5300 1900 1    60   Output ~ 0
SDO_78
Text HLabel 5400 1900 1    60   Output ~ 0
SDO_56
$Comp
L +3.3V #PWR0115
U 1 1 53DC39AB
P 10400 2800
F 0 "#PWR0115" H 10400 2760 30  0001 C CNN
F 1 "+3.3V" H 10400 2910 30  0000 C CNN
F 2 "" H 10400 2800 60  0000 C CNN
F 3 "" H 10400 2800 60  0000 C CNN
	1    10400 2800
	1    0    0    -1  
$EndComp
$Comp
L GND #PWR0116
U 1 1 53DC39B1
P 10400 3600
F 0 "#PWR0116" H 10400 3600 30  0001 C CNN
F 1 "GND" H 10400 3530 30  0001 C CNN
F 2 "" H 10400 3600 60  0000 C CNN
F 3 "" H 10400 3600 60  0000 C CNN
	1    10400 3600
	1    0    0    -1  
$EndComp
$Comp
L C C23
U 1 1 53DC39BB
P 10400 3200
F 0 "C23" H 10200 3100 40  0000 L CNN
F 1 "100n" H 10200 3300 40  0000 L CNN
F 2 "smd_packages:c_0603" H 10438 3050 30  0001 C CNN
F 3 "" H 10400 3200 60  0000 C CNN
F 4 "Yageo" V 10400 3200 60  0001 C CNN "Manufacturer"
F 5 "CC0603ZRY5V9BB104" V 10400 3200 60  0001 C CNN "Manufacturer Part Number"
F 6 "311-1343-1-ND" V 10400 3200 60  0001 C CNN "Digi-Key Part Number"
F 7 "CAP CER 0.1UF 50V Y5V 0603" V 10400 3200 60  0001 C CNN "Description"
	1    10400 3200
	-1   0    0    1   
$EndComp
$Comp
L CP1 C24
U 1 1 53DC3A9E
P 10800 3200
F 0 "C24" H 10850 3300 50  0000 L CNN
F 1 "2.2u" H 10850 3100 50  0000 L CNN
F 2 "smd_packages:tantalc_sizeb_eia-3528" H 10800 3200 60  0001 C CNN
F 3 "" H 10800 3200 60  0000 C CNN
F 4 "Kemet" H 10800 3200 60  0001 C CNN "Manufacturer"
F 5 "T491B225K016AT" H 10800 3200 60  0001 C CNN "Manufacturer Part Number"
F 6 "399-8305-1-ND" H 10800 3200 60  0001 C CNN "Digi-Key Part Number"
F 7 "CAP TANT 2.2UF 16V 10% 1411" H 10800 3200 60  0001 C CNN "Description"
	1    10800 3200
	1    0    0    -1  
$EndComp
$Comp
L STA308_sch U3
U 1 1 53F25041
P 5950 3600
F 0 "U3" H 4700 5000 60  0000 C CNN
F 1 "STA308_sch" H 4750 2200 60  0000 C CNN
F 2 "smd_packages:tqfp64" H 10700 4150 60  0001 C CNN
F 3 "" H 10700 4150 60  0000 C CNN
F 4 "STMicroelectronics" H 5950 3600 60  0001 C CNN "Manufacturer"
F 5 "STA308A13TR" H 5950 3600 60  0001 C CNN "Manufacturer Part Number"
F 6 "STA308A13CT-ND" H 5950 3600 60  0001 C CNN "Digi-Key Part Number"
F 7 "IC AUDIO PROCESSOR DGTL 64-TQFP" H 5950 3600 60  0001 C CNN "Description"
	1    5950 3600
	1    0    0    -1  
$EndComp
$Comp
L C C83
U 1 1 53F25222
P 2300 4500
F 0 "C83" H 2400 4400 40  0000 L CNN
F 1 "100n" H 2350 4600 40  0000 L CNN
F 2 "smd_packages:c_0603" H 2338 4350 30  0001 C CNN
F 3 "" H 2300 4500 60  0000 C CNN
F 4 "Yageo" V 2300 4500 60  0001 C CNN "Manufacturer"
F 5 "CC0603ZRY5V9BB104" V 2300 4500 60  0001 C CNN "Manufacturer Part Number"
F 6 "311-1343-1-ND" V 2300 4500 60  0001 C CNN "Digi-Key Part Number"
F 7 "CAP CER 0.1UF 50V Y5V 0603" V 2300 4500 60  0001 C CNN "Description"
	1    2300 4500
	-1   0    0    1   
$EndComp
$Comp
L GND #PWR0117
U 1 1 53F252F7
P 2300 4800
F 0 "#PWR0117" H 2300 4800 30  0001 C CNN
F 1 "GND" H 2300 4730 30  0001 C CNN
F 2 "" H 2300 4800 60  0000 C CNN
F 3 "" H 2300 4800 60  0000 C CNN
	1    2300 4800
	1    0    0    -1  
$EndComp
$Comp
L C C80
U 1 1 53F25338
P 2300 2600
F 0 "C80" H 2400 2500 40  0000 L CNN
F 1 "100n" H 2350 2700 40  0000 L CNN
F 2 "smd_packages:c_0603" H 2338 2450 30  0001 C CNN
F 3 "" H 2300 2600 60  0000 C CNN
F 4 "Yageo" V 2300 2600 60  0001 C CNN "Manufacturer"
F 5 "CC0603ZRY5V9BB104" V 2300 2600 60  0001 C CNN "Manufacturer Part Number"
F 6 "311-1343-1-ND" V 2300 2600 60  0001 C CNN "Digi-Key Part Number"
F 7 "CAP CER 0.1UF 50V Y5V 0603" V 2300 2600 60  0001 C CNN "Description"
	1    2300 2600
	-1   0    0    1   
$EndComp
$Comp
L GND #PWR0118
U 1 1 53F2539E
P 2300 2300
F 0 "#PWR0118" H 2300 2300 30  0001 C CNN
F 1 "GND" H 2300 2230 30  0001 C CNN
F 2 "" H 2300 2300 60  0000 C CNN
F 3 "" H 2300 2300 60  0000 C CNN
	1    2300 2300
	-1   0    0    1   
$EndComp
Wire Wire Line
	4500 1700 4300 1700
Wire Wire Line
	4300 1700 4300 1800
Wire Wire Line
	4900 1700 5200 1700
Wire Wire Line
	5200 1500 5200 2000
Wire Wire Line
	4900 1500 5200 1500
Connection ~ 5200 1700
Wire Wire Line
	8100 5700 6400 5700
Wire Wire Line
	6400 5700 6400 5200
Wire Wire Line
	8100 5600 6500 5600
Wire Wire Line
	6500 5600 6500 5200
Wire Wire Line
	8100 5500 6600 5500
Wire Wire Line
	6600 5500 6600 5200
Wire Wire Line
	8100 5400 6700 5400
Wire Wire Line
	6700 5400 6700 5200
Wire Wire Line
	8100 4350 7550 4350
Wire Wire Line
	7550 4250 8100 4250
Wire Wire Line
	8100 3850 7550 3850
Wire Wire Line
	7550 3750 8100 3750
Wire Wire Line
	8100 3650 7550 3650
Wire Wire Line
	7550 3550 8100 3550
Wire Wire Line
	8100 3450 7550 3450
Wire Wire Line
	7550 3350 8100 3350
Wire Wire Line
	8100 2950 7550 2950
Wire Wire Line
	7550 2850 8100 2850
Wire Wire Line
	8100 1800 6700 1800
Wire Wire Line
	6700 1800 6700 2000
Wire Wire Line
	8100 1700 6600 1700
Wire Wire Line
	6600 1700 6600 2000
Wire Wire Line
	6600 650  6600 1050
Wire Wire Line
	6600 1050 6400 1050
Wire Wire Line
	6400 1050 6400 2000
Wire Wire Line
	6300 1050 6300 2000
Wire Wire Line
	6300 1050 6100 1050
Wire Wire Line
	6100 1050 6100 650 
Wire Wire Line
	5700 1050 5700 2000
Wire Wire Line
	5700 1050 5900 1050
Wire Wire Line
	5900 1050 5900 650 
Wire Wire Line
	5400 650  5400 1050
Wire Wire Line
	5400 1050 5600 1050
Wire Wire Line
	5600 1050 5600 2000
Wire Wire Line
	5450 850  5400 850 
Connection ~ 5400 850 
Wire Wire Line
	5850 850  5900 850 
Connection ~ 5900 850 
Wire Wire Line
	6100 850  6150 850 
Connection ~ 6100 850 
Wire Wire Line
	6550 850  6600 850 
Connection ~ 6600 850 
Wire Wire Line
	7050 1500 6500 1500
Wire Wire Line
	6500 1500 6500 2000
Wire Wire Line
	8100 1500 7550 1500
Wire Wire Line
	9800 3800 9600 3800
Wire Wire Line
	9600 3800 9600 4050
Wire Wire Line
	9600 4050 7550 4050
Wire Wire Line
	7550 4150 9600 4150
Wire Wire Line
	9600 4150 9600 4400
Wire Wire Line
	9600 4400 9800 4400
Wire Wire Line
	9800 4300 9800 4500
Wire Wire Line
	9800 3700 9800 3900
Connection ~ 9800 3800
Connection ~ 9800 4400
Wire Wire Line
	6300 5200 6300 5500
Wire Wire Line
	6300 5500 5900 5500
Wire Wire Line
	5900 5200 5900 6100
Wire Wire Line
	6200 5200 6200 5400
Wire Wire Line
	6300 6200 6300 6100
Wire Wire Line
	6300 6100 5900 6100
Connection ~ 5900 5500
Wire Wire Line
	6000 6000 6000 6200
Connection ~ 6000 6100
Wire Wire Line
	6000 6600 6000 6700
Wire Wire Line
	6300 6600 6300 6700
Wire Wire Line
	6000 7500 6000 7600
Wire Wire Line
	6300 7600 6300 7500
Connection ~ 6300 7600
Wire Wire Line
	6000 7100 6000 7000
Wire Wire Line
	5700 7000 6600 7000
Wire Wire Line
	6300 7100 6300 7000
Connection ~ 6300 7000
Wire Wire Line
	7100 7000 7400 7000
Wire Wire Line
	7400 6900 7400 7100
Wire Wire Line
	7100 7600 7400 7600
Wire Wire Line
	7400 7500 7400 7700
Connection ~ 7400 7600
Wire Wire Line
	5800 5200 5800 7600
Connection ~ 6000 7600
Wire Wire Line
	5700 5200 5700 7000
Connection ~ 6000 7000
Wire Wire Line
	4800 7500 4800 7600
Connection ~ 5800 7600
Wire Wire Line
	5100 7500 5100 7600
Connection ~ 5100 7600
Wire Wire Line
	5400 7600 5400 7200
Connection ~ 5400 7600
Wire Wire Line
	5400 6800 5400 6300
Wire Wire Line
	5600 6300 4800 6300
Wire Wire Line
	4800 6300 4800 6400
Wire Wire Line
	4800 6900 4800 7100
Wire Wire Line
	5100 7100 5100 7000
Wire Wire Line
	5100 7000 4800 7000
Connection ~ 4800 7000
Wire Wire Line
	4800 7600 6600 7600
Wire Wire Line
	5600 5200 5600 6300
Connection ~ 5400 6300
Wire Wire Line
	4350 5700 5300 5700
Wire Wire Line
	5300 5700 5300 5200
Wire Wire Line
	4350 5800 5400 5800
Wire Wire Line
	5400 5800 5400 5200
Wire Wire Line
	4350 5900 5500 5900
Wire Wire Line
	5500 5900 5500 5200
Wire Wire Line
	5200 5200 5200 5400
Wire Wire Line
	3850 2950 4350 2950
Wire Wire Line
	3850 3150 3850 2950
Wire Wire Line
	2000 3150 4350 3150
Wire Wire Line
	2000 3050 4350 3050
Connection ~ 3850 3150
Wire Wire Line
	1800 4300 1800 4200
Wire Wire Line
	1800 4250 2000 4250
Wire Wire Line
	2000 4250 2000 4050
Wire Wire Line
	2000 4050 4350 4050
Connection ~ 1800 4250
Wire Wire Line
	2000 3950 4350 3950
Wire Wire Line
	2000 3950 2000 3750
Wire Wire Line
	2000 3750 1800 3750
Wire Wire Line
	1800 3700 1800 3800
Connection ~ 1800 3750
Wire Wire Line
	1800 3300 1800 3400
Wire Wire Line
	1800 3350 2000 3350
Wire Wire Line
	2000 3350 2000 3150
Connection ~ 1800 3350
Wire Wire Line
	2000 3050 2000 2850
Wire Wire Line
	2000 2850 1800 2850
Wire Wire Line
	1800 2800 1800 2900
Connection ~ 1800 2850
Wire Wire Line
	3000 2800 3000 2700
Wire Wire Line
	3000 2700 3200 2700
Wire Wire Line
	3700 2700 3850 2700
Wire Wire Line
	3850 2700 3850 2850
Wire Wire Line
	3850 2850 4350 2850
Wire Wire Line
	3700 3350 4350 3350
Wire Wire Line
	3700 3450 4350 3450
Wire Wire Line
	3700 3550 4350 3550
Wire Wire Line
	3700 3650 4350 3650
Wire Wire Line
	3700 3750 4350 3750
Wire Wire Line
	3700 3850 4350 3850
Wire Wire Line
	3200 4250 4350 4250
Wire Wire Line
	3600 4250 3600 4400
Wire Wire Line
	3000 4600 3200 4600
Wire Wire Line
	3200 4600 3200 4250
Connection ~ 3600 4250
Wire Wire Line
	3900 4400 3900 3750
Connection ~ 3900 3750
Wire Wire Line
	4350 4350 4200 4350
Wire Wire Line
	4200 4350 4200 4500
Wire Wire Line
	3600 4800 3600 4900
Wire Wire Line
	3900 4800 3900 4900
Connection ~ 7400 7000
Wire Wire Line
	6100 1900 6100 2000
Wire Wire Line
	6000 2000 6000 1900
Wire Wire Line
	5900 1900 5900 2000
Wire Wire Line
	5800 2000 5800 1900
Wire Wire Line
	5400 1900 5400 2000
Wire Wire Line
	5300 2000 5300 1900
Wire Wire Line
	10200 2900 10800 2900
Wire Wire Line
	10200 3150 10200 2900
Wire Wire Line
	7550 3150 10200 3150
Wire Wire Line
	7550 3250 10200 3250
Wire Wire Line
	10200 3250 10200 3500
Wire Wire Line
	10200 3500 10800 3500
Wire Wire Line
	10400 3400 10400 3600
Wire Wire Line
	10400 2800 10400 3000
Connection ~ 10400 2900
Connection ~ 10400 3500
Wire Wire Line
	10800 2900 10800 3000
Wire Wire Line
	10800 3500 10800 3400
$Comp
L +2.5V #PWR0119
U 1 1 53F259FF
P 2300 4200
F 0 "#PWR0119" H 2300 4150 20  0001 C CNN
F 1 "+2.5V" H 2300 4300 30  0000 C CNN
F 2 "" H 2300 4200 100 0000 C CNN
F 3 "" H 2300 4200 100 0000 C CNN
	1    2300 4200
	1    0    0    -1  
$EndComp
Wire Wire Line
	4350 4150 2500 4150
Wire Wire Line
	2500 4150 2500 4250
Wire Wire Line
	2500 4250 2300 4250
Wire Wire Line
	2300 4200 2300 4300
Connection ~ 2300 4250
Wire Wire Line
	2300 4700 2300 4800
$Comp
L +2.5V #PWR0120
U 1 1 53F25C9E
P 2300 2900
F 0 "#PWR0120" H 2300 2850 20  0001 C CNN
F 1 "+2.5V" H 2300 3000 30  0000 C CNN
F 2 "" H 2300 2900 100 0000 C CNN
F 3 "" H 2300 2900 100 0000 C CNN
	1    2300 2900
	-1   0    0    1   
$EndComp
Wire Wire Line
	4350 3250 2500 3250
Wire Wire Line
	2500 3250 2500 2850
Wire Wire Line
	2500 2850 2300 2850
Wire Wire Line
	2300 2800 2300 2900
Connection ~ 2300 2850
Wire Wire Line
	2300 2400 2300 2300
$Comp
L C C84
U 1 1 53F26411
P 9200 4500
F 0 "C84" H 9000 4400 40  0000 L CNN
F 1 "100n" H 9000 4600 40  0000 L CNN
F 2 "smd_packages:c_0603" H 9238 4350 30  0001 C CNN
F 3 "" H 9200 4500 60  0000 C CNN
F 4 "Yageo" V 9200 4500 60  0001 C CNN "Manufacturer"
F 5 "CC0603ZRY5V9BB104" V 9200 4500 60  0001 C CNN "Manufacturer Part Number"
F 6 "311-1343-1-ND" V 9200 4500 60  0001 C CNN "Digi-Key Part Number"
F 7 "CAP CER 0.1UF 50V Y5V 0603" V 9200 4500 60  0001 C CNN "Description"
	1    9200 4500
	-1   0    0    1   
$EndComp
$Comp
L GND #PWR0121
U 1 1 53F265F2
P 9200 4800
F 0 "#PWR0121" H 9200 4800 30  0001 C CNN
F 1 "GND" H 9200 4730 30  0001 C CNN
F 2 "" H 9200 4800 60  0000 C CNN
F 3 "" H 9200 4800 60  0000 C CNN
	1    9200 4800
	1    0    0    -1  
$EndComp
$Comp
L GND #PWR0122
U 1 1 53F26689
P 9200 2300
F 0 "#PWR0122" H 9200 2300 30  0001 C CNN
F 1 "GND" H 9200 2230 30  0001 C CNN
F 2 "" H 9200 2300 60  0000 C CNN
F 3 "" H 9200 2300 60  0000 C CNN
	1    9200 2300
	-1   0    0    1   
$EndComp
$Comp
L +2.5V #PWR0123
U 1 1 53F26870
P 9200 3850
F 0 "#PWR0123" H 9200 3800 20  0001 C CNN
F 1 "+2.5V" H 9200 3950 30  0000 C CNN
F 2 "" H 9200 3850 100 0000 C CNN
F 3 "" H 9200 3850 100 0000 C CNN
	1    9200 3850
	1    0    0    -1  
$EndComp
$Comp
L +2.5V #PWR0124
U 1 1 53F26993
P 9200 3350
F 0 "#PWR0124" H 9200 3300 20  0001 C CNN
F 1 "+2.5V" H 9200 3450 30  0000 C CNN
F 2 "" H 9200 3350 100 0000 C CNN
F 3 "" H 9200 3350 100 0000 C CNN
	1    9200 3350
	-1   0    0    1   
$EndComp
Wire Wire Line
	7550 3950 9200 3950
Wire Wire Line
	9200 3850 9200 4300
Connection ~ 9200 3950
Wire Wire Line
	9200 3350 9200 2900
Wire Wire Line
	7550 3050 9600 3050
Connection ~ 9200 3050
$Comp
L C C81
U 1 1 53F276BD
P 9200 2700
F 0 "C81" H 9000 2600 40  0000 L CNN
F 1 "100n" H 9000 2800 40  0000 L CNN
F 2 "smd_packages:c_0603" H 9238 2550 30  0001 C CNN
F 3 "" H 9200 2700 60  0000 C CNN
F 4 "Yageo" V 9200 2700 60  0001 C CNN "Manufacturer"
F 5 "CC0603ZRY5V9BB104" V 9200 2700 60  0001 C CNN "Manufacturer Part Number"
F 6 "311-1343-1-ND" V 9200 2700 60  0001 C CNN "Digi-Key Part Number"
F 7 "CAP CER 0.1UF 50V Y5V 0603" V 9200 2700 60  0001 C CNN "Description"
	1    9200 2700
	1    0    0    -1  
$EndComp
$Comp
L CP1 C82
U 1 1 53F27725
P 9600 2700
F 0 "C82" H 9650 2800 50  0000 L CNN
F 1 "2.2u" H 9650 2600 50  0000 L CNN
F 2 "smd_packages:tantalc_sizeb_eia-3528" H 9600 2700 60  0001 C CNN
F 3 "" H 9600 2700 60  0000 C CNN
F 4 "Kemet" H 9600 2700 60  0001 C CNN "Manufacturer"
F 5 "T491B225K016AT" H 9600 2700 60  0001 C CNN "Manufacturer Part Number"
F 6 "399-8305-1-ND" H 9600 2700 60  0001 C CNN "Digi-Key Part Number"
F 7 "CAP TANT 2.2UF 16V 10% 1411" H 9600 2700 60  0001 C CNN "Description"
	1    9600 2700
	-1   0    0    1   
$EndComp
Wire Wire Line
	9600 2500 9600 2400
Wire Wire Line
	9600 2400 9200 2400
Wire Wire Line
	9200 2300 9200 2500
Connection ~ 9200 2400
Wire Wire Line
	9600 3050 9600 2900
$Comp
L GND #PWR0125
U 1 1 53F287E2
P 6600 6700
F 0 "#PWR0125" H 6600 6700 30  0001 C CNN
F 1 "GND" H 6600 6630 30  0001 C CNN
F 2 "" H 6600 6700 60  0000 C CNN
F 3 "" H 6600 6700 60  0000 C CNN
	1    6600 6700
	1    0    0    -1  
$EndComp
$Comp
L GND #PWR0126
U 1 1 53F287E8
P 6900 6700
F 0 "#PWR0126" H 6900 6700 30  0001 C CNN
F 1 "GND" H 6900 6630 30  0001 C CNN
F 2 "" H 6900 6700 60  0000 C CNN
F 3 "" H 6900 6700 60  0000 C CNN
	1    6900 6700
	1    0    0    -1  
$EndComp
$Comp
L C C85
U 1 1 53F287F2
P 6600 6400
F 0 "C85" H 6500 6300 40  0000 L CNN
F 1 "100n" H 6400 6500 40  0000 L CNN
F 2 "smd_packages:c_0603" H 6638 6250 30  0001 C CNN
F 3 "" H 6600 6400 60  0000 C CNN
F 4 "Yageo" V 6600 6400 60  0001 C CNN "Manufacturer"
F 5 "CC0603ZRY5V9BB104" V 6600 6400 60  0001 C CNN "Manufacturer Part Number"
F 6 "311-1343-1-ND" V 6600 6400 60  0001 C CNN "Digi-Key Part Number"
F 7 "CAP CER 0.1UF 50V Y5V 0603" V 6600 6400 60  0001 C CNN "Description"
	1    6600 6400
	-1   0    0    1   
$EndComp
$Comp
L C C86
U 1 1 53F287FC
P 6900 6400
F 0 "C86" H 6800 6300 40  0000 L CNN
F 1 "100n" H 6700 6500 40  0000 L CNN
F 2 "smd_packages:c_0603" H 6938 6250 30  0001 C CNN
F 3 "" H 6900 6400 60  0000 C CNN
F 4 "Yageo" V 6900 6400 60  0001 C CNN "Manufacturer"
F 5 "CC0603ZRY5V9BB104" V 6900 6400 60  0001 C CNN "Manufacturer Part Number"
F 6 "311-1343-1-ND" V 6900 6400 60  0001 C CNN "Digi-Key Part Number"
F 7 "CAP CER 0.1UF 50V Y5V 0603" V 6900 6400 60  0001 C CNN "Description"
	1    6900 6400
	-1   0    0    1   
$EndComp
Wire Wire Line
	6600 6600 6600 6700
Wire Wire Line
	6900 6600 6900 6700
Wire Wire Line
	6900 6000 6900 6200
Wire Wire Line
	6500 6100 6900 6100
Wire Wire Line
	6600 6100 6600 6200
Wire Wire Line
	6500 6100 6100 5700
Wire Wire Line
	6100 5700 6100 5200
Connection ~ 6600 6100
$Comp
L +2.5V #PWR0127
U 1 1 53F28BAD
P 6900 6000
F 0 "#PWR0127" H 6900 5950 20  0001 C CNN
F 1 "+2.5V" H 6900 6100 30  0000 C CNN
F 2 "" H 6900 6000 100 0000 C CNN
F 3 "" H 6900 6000 100 0000 C CNN
	1    6900 6000
	1    0    0    -1  
$EndComp
Connection ~ 6900 6100
$Comp
L C C79
U 1 1 53F29301
P 7050 850
F 0 "C79" V 7000 700 40  0000 L CNN
F 1 "100n" V 6900 800 40  0000 L CNN
F 2 "smd_packages:c_0603" H 7088 700 30  0001 C CNN
F 3 "" H 7050 850 60  0000 C CNN
F 4 "Yageo" V 7050 850 60  0001 C CNN "Manufacturer"
F 5 "CC0603ZRY5V9BB104" V 7050 850 60  0001 C CNN "Manufacturer Part Number"
F 6 "311-1343-1-ND" V 7050 850 60  0001 C CNN "Digi-Key Part Number"
F 7 "CAP CER 0.1UF 50V Y5V 0603" V 7050 850 60  0001 C CNN "Description"
	1    7050 850 
	0    1    1    0   
$EndComp
$Comp
L C C78
U 1 1 53F29355
P 4950 850
F 0 "C78" V 4900 700 40  0000 L CNN
F 1 "100n" V 4800 800 40  0000 L CNN
F 2 "smd_packages:c_0603" H 4988 700 30  0001 C CNN
F 3 "" H 4950 850 60  0000 C CNN
F 4 "Yageo" V 4950 850 60  0001 C CNN "Manufacturer"
F 5 "CC0603ZRY5V9BB104" V 4950 850 60  0001 C CNN "Manufacturer Part Number"
F 6 "311-1343-1-ND" V 4950 850 60  0001 C CNN "Digi-Key Part Number"
F 7 "CAP CER 0.1UF 50V Y5V 0603" V 4950 850 60  0001 C CNN "Description"
	1    4950 850 
	0    1    1    0   
$EndComp
$Comp
L +2.5V #PWR0128
U 1 1 53F29436
P 6750 650
F 0 "#PWR0128" H 6750 600 20  0001 C CNN
F 1 "+2.5V" H 6750 750 30  0000 C CNN
F 2 "" H 6750 650 100 0000 C CNN
F 3 "" H 6750 650 100 0000 C CNN
	1    6750 650 
	1    0    0    -1  
$EndComp
$Comp
L +2.5V #PWR0129
U 1 1 53F2958B
P 5250 650
F 0 "#PWR0129" H 5250 600 20  0001 C CNN
F 1 "+2.5V" H 5250 750 30  0000 C CNN
F 2 "" H 5250 650 100 0000 C CNN
F 3 "" H 5250 650 100 0000 C CNN
	1    5250 650 
	1    0    0    -1  
$EndComp
Wire Wire Line
	6200 2000 6200 1400
Wire Wire Line
	6200 1400 6750 1400
Wire Wire Line
	6750 1400 6750 650 
Wire Wire Line
	6750 850  6850 850 
Connection ~ 6750 850 
Wire Wire Line
	5250 650  5250 1150
Wire Wire Line
	5250 1150 5500 1150
Wire Wire Line
	5500 1150 5500 2000
Wire Wire Line
	5150 850  5250 850 
Connection ~ 5250 850 
$Comp
L GND #PWR0130
U 1 1 53F2A25C
P 7350 950
F 0 "#PWR0130" H 7350 950 30  0001 C CNN
F 1 "GND" H 7350 880 30  0001 C CNN
F 2 "" H 7350 950 60  0000 C CNN
F 3 "" H 7350 950 60  0000 C CNN
	1    7350 950 
	1    0    0    -1  
$EndComp
$Comp
L GND #PWR0131
U 1 1 53F2A288
P 4650 950
F 0 "#PWR0131" H 4650 950 30  0001 C CNN
F 1 "GND" H 4650 880 30  0001 C CNN
F 2 "" H 4650 950 60  0000 C CNN
F 3 "" H 4650 950 60  0000 C CNN
	1    4650 950 
	1    0    0    -1  
$EndComp
Wire Wire Line
	7250 850  7350 850 
Wire Wire Line
	7350 850  7350 950 
Wire Wire Line
	4750 850  4650 850 
Wire Wire Line
	4650 850  4650 950 
Wire Wire Line
	9200 4700 9200 4800
$EndSCHEMATC
