EESchema Schematic File Version 2
LIBS:_ams-reg
LIBS:_cirrus-logic
LIBS:conn
LIBS:device
LIBS:_maxim
LIBS:power
LIBS:_ptc
LIBS:regul
LIBS:_st-audio
LIBS:_switchcraft
LIBS:_ti-reg
LIBS:_wolfson
LIBS:_wurth
LIBS:_toshiba
LIBS:sta308a-ev-rev-c-cache
EELAYER 24 0
EELAYER END
$Descr USLegal 14000 8500
encoding utf-8
Sheet 1 7
Title "STA308A Evaluation Board"
Date ""
Rev "0.1"
Comp ""
Comment1 ""
Comment2 ""
Comment3 ""
Comment4 ""
$EndDescr
$Comp
L CONN_2 P1
U 1 1 53CD6CBE
P 850 1000
F 0 "P1" V 800 1000 40  0000 C CNN
F 1 "CONN_2" V 900 1000 40  0000 C CNN
F 2 "connect:bornier2" H 850 1000 60  0001 C CNN
F 3 "" H 850 1000 60  0000 C CNN
F 4 "Weidmuller" V 850 1000 60  0001 C CNN "Manufacturer"
F 5 "1760510000" V 850 1000 60  0001 C CNN "Manufacturer Part Number"
F 6 "281-1882-ND" V 850 1000 60  0001 C CNN "Digi-Key Part Number"
F 7 "TERM BLOCK PCB 2POS 5.08MM BLACK" V 850 1000 60  0001 C CNN "Description"
	1    850  1000
	-1   0    0    1   
$EndComp
$Comp
L CONN_2 P2
U 1 1 53CD78CD
P 850 1400
F 0 "P2" V 800 1400 40  0000 C CNN
F 1 "CONN_2" V 900 1400 40  0000 C CNN
F 2 "connect:bornier2" H 850 1400 60  0001 C CNN
F 3 "" H 850 1400 60  0000 C CNN
F 4 "Weidmuller" V 850 1400 60  0001 C CNN "Manufacturer"
F 5 "1760510000" V 850 1400 60  0001 C CNN "Manufacturer Part Number"
F 6 "281-1882-ND" V 850 1400 60  0001 C CNN "Digi-Key Part Number"
F 7 "TERM BLOCK PCB 2POS 5.08MM BLACK" V 850 1400 60  0001 C CNN "Description"
	1    850  1400
	-1   0    0    -1  
$EndComp
$Sheet
S 2000 700  1100 1200
U 53CD8BCF
F0 "_powersupply" 60
F1 "_powersupply.sch" 60
F2 "PWRVCC" I L 2000 1300 60 
F3 "PWRGND" I L 2000 1500 60 
F4 "3V3" O R 3100 1000 60 
F5 "3A3" O R 3100 1200 60 
F6 "5V0" O R 3100 800 60 
F7 "VLOGIC" I L 2000 900 60 
F8 "GND" O R 3100 1800 60 
F9 "2V5" O R 3100 1400 60 
F10 "2A5" O R 3100 1600 60 
$EndSheet
$Comp
L +5V #PWR01
U 1 1 53CDA689
P 3300 800
F 0 "#PWR01" H 3300 890 20  0001 C CNN
F 1 "+5V" H 3300 890 30  0000 C CNN
F 2 "" H 3300 800 60  0000 C CNN
F 3 "" H 3300 800 60  0000 C CNN
	1    3300 800 
	0    1    1    0   
$EndComp
$Comp
L +3.3V #PWR02
U 1 1 53CDA9DF
P 3300 1000
F 0 "#PWR02" H 3300 960 30  0001 C CNN
F 1 "+3.3V" H 3300 1110 30  0000 C CNN
F 2 "" H 3300 1000 60  0000 C CNN
F 3 "" H 3300 1000 60  0000 C CNN
	1    3300 1000
	0    1    1    0   
$EndComp
$Comp
L GND #PWR03
U 1 1 53CEE9E3
P 3300 1900
F 0 "#PWR03" H 3300 1900 30  0001 C CNN
F 1 "GND" H 3300 1830 30  0001 C CNN
F 2 "" H 3300 1900 60  0000 C CNN
F 3 "" H 3300 1900 60  0000 C CNN
	1    3300 1900
	1    0    0    -1  
$EndComp
$Sheet
S 9500 2200 900  1200
U 53D00000
F0 "_sta516b" 60
F1 "_sta516b.sch" 60
F2 "IN1A" I L 9500 2400 60 
F3 "IN1B" I L 9500 2500 60 
F4 "PWD_516a" I L 9500 3100 60 
F5 "TH_WARa" O L 9500 3200 60 
F6 "IN2A" I L 9500 2700 60 
F7 "IN2B" I L 9500 2800 60 
F8 "PWR" I R 10400 2400 60 
F9 "DQa" B L 9500 3300 60 
$EndSheet
Entry Wire Line
	6300 4500 6400 4400
Entry Wire Line
	6300 4600 6400 4500
Entry Wire Line
	6300 4600 6400 4500
Text Label 6450 4400 0    60   ~ 0
SDA
Text Label 6450 4500 0    60   ~ 0
SCL
Entry Wire Line
	6200 3500 6300 3600
Entry Wire Line
	6200 3400 6300 3500
Entry Wire Line
	6200 3600 6300 3700
Text Label 6150 3500 2    60   ~ 0
SDA
Text Label 6150 3400 2    60   ~ 0
SCL
Text Label 6150 3600 2    60   ~ 0
RST
$Comp
L VPP #PWR4
U 1 1 53CDB26C
P 3300 1200
F 0 "#PWR4" H 3300 1400 40  0001 C CNN
F 1 "VPP" H 3300 1350 40  0000 C CNN
F 2 "" H 3300 1200 60  0000 C CNN
F 3 "" H 3300 1200 60  0000 C CNN
	1    3300 1200
	0    1    1    0   
$EndComp
Text Label 6150 2600 2    60   ~ 0
BICK
Text Label 6150 2500 2    60   ~ 0
LRCK
Text Label 6450 2800 0    60   ~ 0
LRCK
Text Label 6450 2900 0    60   ~ 0
BICK
Entry Wire Line
	6300 2900 6400 2800
Entry Wire Line
	6300 3000 6400 2900
Entry Wire Line
	6200 2500 6300 2600
Entry Wire Line
	6200 2600 6300 2700
Text Label 6450 3100 0    60   ~ 0
XTI
Text Label 6150 2800 2    60   ~ 0
XTI
Entry Wire Line
	6200 2800 6300 2900
Entry Wire Line
	6300 3200 6400 3100
Entry Wire Line
	6300 3900 6400 3800
Text Label 6450 3800 0    60   ~ 0
PWD_308
Text Label 6450 6500 0    60   ~ 0
PWD_308
Text Label 6450 7500 0    60   ~ 0
RST
Text Label 6450 6400 0    60   ~ 0
SCL
Text Label 6450 6300 0    60   ~ 0
SDA
Text Notes 7750 7750 0    80   Italic 16
Microcontroller\nPort
$Comp
L +36V #PWR04
U 1 1 53D85E33
P 1600 1200
F 0 "#PWR04" H 1600 1170 30  0001 C CNN
F 1 "+36V" H 1600 1310 40  0000 C CNN
F 2 "" H 1600 1200 60  0000 C CNN
F 3 "" H 1600 1200 60  0000 C CNN
	1    1600 1200
	1    0    0    -1  
$EndComp
$Comp
L +36V #PWR05
U 1 1 53D870D9
P 10600 2300
F 0 "#PWR05" H 10600 2270 30  0001 C CNN
F 1 "+36V" H 10600 2410 40  0000 C CNN
F 2 "" H 10600 2300 60  0000 C CNN
F 3 "" H 10600 2300 60  0000 C CNN
	1    10600 2300
	1    0    0    -1  
$EndComp
Entry Bus Bus
	8800 5100 8900 5000
Entry Bus Bus
	6300 5200 6400 5100
Entry Wire Line
	8800 3300 8900 3400
Entry Wire Line
	8800 3100 8900 3200
Entry Wire Line
	8800 3000 8900 3100
Entry Wire Line
	8900 3200 9000 3100
Entry Wire Line
	8900 3300 9000 3200
Text Label 9050 3100 0    60   ~ 0
PWD_516a
Text Label 9050 3200 0    60   ~ 0
TH_WARa
Text Label 6450 6800 0    60   ~ 0
TH_WARa
Text Label 6450 6900 0    60   ~ 0
PWD_516a
Entry Wire Line
	6300 2500 6400 2400
Entry Wire Line
	6200 2400 6300 2500
Entry Wire Line
	6300 2600 6400 2500
Entry Wire Line
	6300 2700 6400 2600
Entry Wire Line
	6300 2800 6400 2700
Text Label 6450 2400 0    60   ~ 0
SDATA12
Text Label 6450 2500 0    60   ~ 0
SDATA34
Text Label 6450 2600 0    60   ~ 0
SDATA56
Text Label 6450 2700 0    60   ~ 0
SDATA78
Text Label 6150 2400 2    60   ~ 0
SDATA12
Text Label 6450 5700 0    60   ~ 0
LRCK
Text Label 6450 5600 0    60   ~ 0
BICK
Text Label 6450 6200 0    60   ~ 0
XTI
Text Label 6450 5800 0    60   ~ 0
SDATA12
Text Label 6450 5900 0    60   ~ 0
SDATA34
Text Label 6450 6000 0    60   ~ 0
SDATA56
Text Label 6450 6100 0    60   ~ 0
SDATA78
$Comp
L INDUCTOR_SMALL L6
U 1 1 53DAC803
P 1750 3600
F 0 "L6" H 1750 3700 50  0000 C CNN
F 1 "Ferrite" H 1750 3550 50  0000 C CNN
F 2 "smd_packages:l_0805" H 1750 3600 60  0001 C CNN
F 3 "" H 1750 3600 60  0000 C CNN
F 4 "TDK Corporation" H 1750 3600 60  0001 C CNN "Manufacturer"
F 5 "MMZ2012R121A" H 1750 3600 60  0001 C CNN "Manufacturer Part Number"
F 6 "445-2190-1-ND" H 1750 3600 60  0001 C CNN "Digi-Key Part Number"
F 7 "FERRITE CHIP 120 OHM 800MA 0805" H 1750 3600 60  0001 C CNN "Description"
	1    1750 3600
	1    0    0    -1  
$EndComp
$Comp
L C C18
U 1 1 53DAC80E
P 2400 3600
F 0 "C18" V 2250 3550 40  0000 L CNN
F 1 "100n" V 2550 3550 40  0000 L CNN
F 2 "smd_packages:c_0603" H 2438 3450 30  0001 C CNN
F 3 "" H 2400 3600 60  0000 C CNN
F 4 "TDK Corporation" H 2400 3600 60  0001 C CNN "Manufacturer"
F 5 "C1608X7R1E104K080AA" H 2400 3600 60  0001 C CNN "Manufacturer Part Number"
F 6 "445-1316-1-ND" H 2400 3600 60  0001 C CNN "Digi-Key Part Number"
F 7 "CAP CER 0.1UF 25V 10% X7R 0603" H 2400 3600 60  0001 C CNN "Description"
	1    2400 3600
	0    1    1    0   
$EndComp
$Comp
L R R3
U 1 1 53DAC819
P 2600 7350
F 0 "R3" H 2700 7350 40  0000 C CNN
F 1 "R75" V 2607 7351 40  0000 C CNN
F 2 "smd_packages:r_0603" V 2530 7350 30  0001 C CNN
F 3 "" H 2600 7350 30  0000 C CNN
F 4 "Vishay Dale" V 2600 7350 60  0001 C CNN "Manufacturer"
F 5 "CRCW060375R0FKEA" V 2600 7350 60  0001 C CNN "Manufacturer Part Number"
F 6 "541-75.0HCT-ND" V 2600 7350 60  0001 C CNN "Digi-Key Part Number"
F 7 "RES 75.0 OHM 1/10W 1% 0603 SMD" V 2600 7350 60  0001 C CNN "Description"
	1    2600 7350
	1    0    0    -1  
$EndComp
$Comp
L C C22
U 1 1 53DAC830
P 3400 7000
F 0 "C22" V 3350 6800 40  0000 L CNN
F 1 "100n" V 3450 7100 40  0000 L CNN
F 2 "smd_packages:c_0603" H 3438 6850 30  0001 C CNN
F 3 "" H 3400 7000 60  0000 C CNN
F 4 "TDK Corporation" H 3400 7000 60  0001 C CNN "Manufacturer"
F 5 "C1608X7R1E104K080AA" H 3400 7000 60  0001 C CNN "Manufacturer Part Number"
F 6 "445-1316-1-ND" H 3400 7000 60  0001 C CNN "Digi-Key Part Number"
F 7 "CAP CER 0.1UF 25V 10% X7R 0603" H 3400 7000 60  0001 C CNN "Description"
	1    3400 7000
	0    1    1    0   
$EndComp
$Comp
L GND #PWR06
U 1 1 53DAC837
P 2600 7800
F 0 "#PWR06" H 2600 7800 30  0001 C CNN
F 1 "GND" H 2600 7730 30  0001 C CNN
F 2 "" H 2600 7800 60  0000 C CNN
F 3 "" H 2600 7800 60  0000 C CNN
	1    2600 7800
	1    0    0    -1  
$EndComp
$Comp
L +5V #PWR07
U 1 1 53DAC83D
P 1300 3500
F 0 "#PWR07" H 1300 3590 20  0001 C CNN
F 1 "+5V" H 1300 3590 30  0000 C CNN
F 2 "" H 1300 3500 60  0000 C CNN
F 3 "" H 1300 3500 60  0000 C CNN
	1    1300 3500
	1    0    0    -1  
$EndComp
$Comp
L GND #PWR08
U 1 1 53DAC849
P 2700 3700
F 0 "#PWR08" H 2700 3700 30  0001 C CNN
F 1 "GND" H 2700 3630 30  0001 C CNN
F 2 "" H 2700 3700 60  0000 C CNN
F 3 "" H 2700 3700 60  0000 C CNN
	1    2700 3700
	1    0    0    -1  
$EndComp
$Comp
L GND #PWR09
U 1 1 53DAC84F
P 1900 4400
F 0 "#PWR09" H 1900 4400 30  0001 C CNN
F 1 "GND" H 1900 4330 30  0001 C CNN
F 2 "" H 1900 4400 60  0000 C CNN
F 3 "" H 1900 4400 60  0000 C CNN
	1    1900 4400
	1    0    0    -1  
$EndComp
$Comp
L BNC P3
U 1 1 53DAC85E
P 1800 7000
F 0 "P3" H 1810 7120 60  0000 C CNN
F 1 "RCA JACK" H 1550 6950 40  0000 C CNN
F 2 "_cui:rcj-04x" H 1800 7000 60  0001 C CNN
F 3 "" H 1800 7000 60  0000 C CNN
F 4 "CUI Inc" H 1800 7000 60  0001 C CNN "Manufacturer"
F 5 "RCJ-041" H 1800 7000 60  0001 C CNN "Manufacturer Part Number"
F 6 "CP-1418-ND" H 1800 7000 60  0001 C CNN "Digi-Key Part Number"
F 7 "CONN RCA JACK R/A BLACK PCB" H 1800 7000 60  0001 C CNN "Description"
	1    1800 7000
	-1   0    0    -1  
$EndComp
$Comp
L GND #PWR010
U 1 1 53DAC865
P 1800 7400
F 0 "#PWR010" H 1800 7400 30  0001 C CNN
F 1 "GND" H 1800 7330 30  0001 C CNN
F 2 "" H 1800 7400 60  0000 C CNN
F 3 "" H 1800 7400 60  0000 C CNN
	1    1800 7400
	1    0    0    -1  
$EndComp
$Comp
L C C21
U 1 1 53DB1E97
P 3400 4100
F 0 "C21" V 3350 3900 40  0000 L CNN
F 1 "100n" V 3450 4200 40  0000 L CNN
F 2 "smd_packages:c_0603" H 3438 3950 30  0001 C CNN
F 3 "" H 3400 4100 60  0000 C CNN
F 4 "TDK Corporation" H 3400 4100 60  0001 C CNN "Manufacturer"
F 5 "C1608X7R1E104K080AA" H 3400 4100 60  0001 C CNN "Manufacturer Part Number"
F 6 "445-1316-1-ND" H 3400 4100 60  0001 C CNN "Digi-Key Part Number"
F 7 "CAP CER 0.1UF 25V 10% X7R 0603" H 3400 4100 60  0001 C CNN "Description"
	1    3400 4100
	0    1    1    0   
$EndComp
$Comp
L C C20
U 1 1 53DB3C95
P 3400 2700
F 0 "C20" V 3350 2500 40  0000 L CNN
F 1 "100n" V 3450 2800 40  0000 L CNN
F 2 "smd_packages:c_0603" H 3438 2550 30  0001 C CNN
F 3 "" H 3400 2700 60  0000 C CNN
F 4 "TDK Corporation" H 3400 2700 60  0001 C CNN "Manufacturer"
F 5 "C1608X7R1E104K080AA" H 3400 2700 60  0001 C CNN "Manufacturer Part Number"
F 6 "445-1316-1-ND" H 3400 2700 60  0001 C CNN "Digi-Key Part Number"
F 7 "CAP CER 0.1UF 25V 10% X7R 0603" H 3400 2700 60  0001 C CNN "Description"
	1    3400 2700
	0    1    1    0   
$EndComp
$Comp
L C C19
U 1 1 53DB3CD0
P 3400 2300
F 0 "C19" V 3350 2100 40  0000 L CNN
F 1 "100n" V 3450 2400 40  0000 L CNN
F 2 "smd_packages:c_0603" H 3438 2150 30  0001 C CNN
F 3 "" H 3400 2300 60  0000 C CNN
F 4 "TDK Corporation" H 3400 2300 60  0001 C CNN "Manufacturer"
F 5 "C1608X7R1E104K080AA" H 3400 2300 60  0001 C CNN "Manufacturer Part Number"
F 6 "445-1316-1-ND" H 3400 2300 60  0001 C CNN "Digi-Key Part Number"
F 7 "CAP CER 0.1UF 25V 10% X7R 0603" H 3400 2300 60  0001 C CNN "Description"
	1    3400 2300
	0    1    1    0   
$EndComp
$Comp
L R R2
U 1 1 53DB5592
P 2450 2600
F 0 "R2" V 2400 2350 40  0000 C CNN
F 1 "R75" V 2457 2601 40  0000 C CNN
F 2 "smd_packages:r_0603" V 2380 2600 30  0001 C CNN
F 3 "" H 2450 2600 30  0000 C CNN
F 4 "Vishay Dale" V 2450 2600 60  0001 C CNN "Manufacturer"
F 5 "CRCW060375R0FKEA" V 2450 2600 60  0001 C CNN "Manufacturer Part Number"
F 6 "541-75.0HCT-ND" V 2450 2600 60  0001 C CNN "Digi-Key Part Number"
F 7 "RES 75.0 OHM 1/10W 1% 0603 SMD" V 2450 2600 60  0001 C CNN "Description"
	1    2450 2600
	1    0    0    -1  
$EndComp
$Sheet
S 3900 2200 1700 5400
U 53CF1403
F0 "_spdif_cs8416" 60
F1 "_spdif_cs8416.sch" 60
F2 "SPDifPortIn_0" I L 3900 2300 60 
F3 "SPDifPortIn_1" I L 3900 4100 60 
F4 "SPDifPortIn_2" I L 3900 5500 60 
F5 "SDOUT" O R 5600 2400 60 
F6 "OLRCK" B R 5600 2500 60 
F7 "OSCLK" B R 5600 2600 60 
F8 "RMCK" O R 5600 2800 60 
F9 "SCL" I R 5600 3400 60 
F10 "SDA" B R 5600 3500 60 
F11 "RST" I R 5600 3600 60 
F12 "SPDifPortIn_N" I L 3900 2700 60 
F13 "OMCK" I R 5600 2900 60 
F14 "SPDifPortIn_3" I L 3900 7000 60 
$EndSheet
$Comp
L C C17
U 1 1 53DB9DA5
P 2050 2300
F 0 "C17" V 2000 2100 40  0000 L CNN
F 1 "100n" V 2100 2400 40  0000 L CNN
F 2 "smd_packages:c_0603" H 2088 2150 30  0001 C CNN
F 3 "" H 2050 2300 60  0000 C CNN
F 4 "TDK Corporation" H 2050 2300 60  0001 C CNN "Manufacturer"
F 5 "C1608X7R1E104K080AA" H 2050 2300 60  0001 C CNN "Manufacturer Part Number"
F 6 "445-1316-1-ND" H 2050 2300 60  0001 C CNN "Digi-Key Part Number"
F 7 "CAP CER 0.1UF 25V 10% X7R 0603" H 2050 2300 60  0001 C CNN "Description"
	1    2050 2300
	0    1    1    0   
$EndComp
$Comp
L JUMPER3 JP2
U 1 1 53DBA217
P 2900 2900
F 0 "JP2" H 2950 2800 40  0000 L CNN
F 1 "JUMPER3" H 2900 3000 40  0000 C CNN
F 2 "connect:sil-3" H 2900 2900 60  0001 C CNN
F 3 "" H 2900 2900 60  0000 C CNN
F 4 "FCI" H 2900 2900 60  0001 C CNN "Manufacturer"
F 5 "68000-103HLF" H 2900 2900 60  0001 C CNN "Manufacturer Part Number"
F 6 "609-3461-ND" H 2900 2900 60  0001 C CNN "Digi-Key Part Number"
F 7 "BERGSTIK II .100\" SR STRAIGHT" H 2900 2900 60  0001 C CNN "Description"
	1    2900 2900
	1    0    0    1   
$EndComp
$Comp
L GND #PWR011
U 1 1 53DBA8A6
P 3250 3000
F 0 "#PWR011" H 3250 3000 30  0001 C CNN
F 1 "GND" H 3250 2930 30  0001 C CNN
F 2 "" H 3250 3000 60  0000 C CNN
F 3 "" H 3250 3000 60  0000 C CNN
	1    3250 3000
	1    0    0    -1  
$EndComp
$Comp
L GND #PWR012
U 1 1 53DBCCF5
P 1400 2650
F 0 "#PWR012" H 1400 2650 30  0001 C CNN
F 1 "GND" H 1400 2580 30  0001 C CNN
F 2 "" H 1400 2650 60  0000 C CNN
F 3 "" H 1400 2650 60  0000 C CNN
	1    1400 2650
	1    0    0    -1  
$EndComp
Text Notes 3800 3200 2    100  ~ 20
XLR
Text Notes 3800 4600 2    100  ~ 20
Optical
Text Notes 3800 7400 2    100  ~ 20
RCA
$Comp
L PQG3MRAxxx J1
U 1 1 53DB3245
P 1100 2400
F 0 "J1" H 1100 2650 60  0000 C CNN
F 1 "PQG3MRAxxx" H 1000 2150 60  0000 C CNN
F 2 "_switchcraft:pqg3mraxxx" H 1100 2375 60  0001 C CNN
F 3 "" H 1100 2375 60  0000 C CNN
F 4 "Switchcraft Inc." H 1100 2400 60  0001 C CNN "Manufacturer"
F 5 "PQG3MRA112" H 1100 2400 60  0001 C CNN "Manufacturer Part Number"
F 6 "SC1507-ND" H 1100 2400 60  0001 C CNN "Digi-Key Part Number"
F 7 "CONN RCPT 3POS MALE R/A PCB" H 1100 2400 60  0001 C CNN "Description"
	1    1100 2400
	1    0    0    -1  
$EndComp
Entry Wire Line
	8900 3400 9000 3300
Text Label 9050 3300 0    60   ~ 0
DQa
Text Label 6450 6600 0    60   ~ 0
DQa
Text Label 6450 3400 0    60   ~ 0
RESET
Entry Wire Line
	6300 3500 6400 3400
Text Label 6450 6700 0    60   ~ 0
RESET
Entry Wire Line
	6200 2900 6300 3000
Text Label 6150 2900 2    60   ~ 0
OMCK
Text Label 6450 7400 0    60   ~ 0
OMCK
Entry Wire Line
	8800 3400 8900 3500
Wire Wire Line
	2600 7100 2600 7000
Connection ~ 2600 7000
Wire Wire Line
	1800 7200 1800 7400
Wire Wire Line
	1950 7000 3200 7000
Wire Wire Line
	2600 7600 2600 7800
Wire Wire Line
	1300 3600 1500 3600
Wire Wire Line
	1300 3500 1300 3600
Wire Wire Line
	2700 3600 2700 3700
Wire Wire Line
	2600 3600 2700 3600
Connection ~ 2100 3600
Wire Wire Line
	2100 3900 1800 3900
Wire Wire Line
	2000 3600 2200 3600
Wire Wire Line
	6400 7100 7100 7100
Wire Wire Line
	6400 6700 7100 6700
Wire Wire Line
	6400 6600 7100 6600
Wire Wire Line
	6400 6500 7100 6500
Wire Wire Line
	6400 7400 7100 7400
Wire Wire Line
	6400 7300 7100 7300
Wire Wire Line
	6400 7200 7100 7200
Wire Wire Line
	6400 2700 7000 2700
Wire Wire Line
	7000 2600 6400 2600
Wire Wire Line
	6400 2500 7000 2500
Wire Wire Line
	6400 2400 7000 2400
Wire Wire Line
	6200 2400 5600 2400
Wire Wire Line
	8300 3000 8800 3000
Wire Wire Line
	8800 3100 8300 3100
Wire Wire Line
	8300 3300 8800 3300
Wire Wire Line
	8800 3400 8300 3400
Wire Wire Line
	9000 3200 9500 3200
Wire Wire Line
	9000 3100 9500 3100
Wire Wire Line
	7100 6300 6400 6300
Wire Wire Line
	7100 6200 6400 6200
Wire Wire Line
	6200 3400 5600 3400
Wire Wire Line
	5600 3500 6200 3500
Wire Wire Line
	6200 3600 5600 3600
Wire Wire Line
	6400 4500 7000 4500
Wire Wire Line
	7000 4400 6400 4400
Wire Wire Line
	6400 3800 7000 3800
Wire Wire Line
	10600 2400 10400 2400
Wire Wire Line
	10600 2300 10600 2400
Connection ~ 1600 1300
Wire Wire Line
	1600 1200 1600 1300
Wire Wire Line
	6400 6100 7100 6100
Wire Wire Line
	6400 6000 7100 6000
Wire Wire Line
	6400 5900 7100 5900
Wire Wire Line
	6400 5800 7100 5800
Wire Wire Line
	6200 2500 5600 2500
Wire Wire Line
	5600 2600 6200 2600
Wire Wire Line
	6200 2800 5600 2800
Wire Wire Line
	6400 3100 7000 3100
Wire Wire Line
	7000 2900 6400 2900
Wire Wire Line
	6400 2800 7000 2800
Wire Wire Line
	3300 1200 3100 1200
Wire Wire Line
	8300 2800 9500 2800
Wire Wire Line
	8300 2700 9500 2700
Wire Wire Line
	8300 2500 9500 2500
Wire Wire Line
	8300 2400 9500 2400
Wire Wire Line
	3600 7000 3900 7000
Wire Wire Line
	3900 4100 3600 4100
Wire Wire Line
	3600 2300 3900 2300
Wire Wire Line
	1400 1100 1400 1500
Wire Wire Line
	3300 1800 3300 1900
Wire Wire Line
	3100 1800 3300 1800
Wire Wire Line
	3100 1000 3300 1000
Wire Wire Line
	3300 800  3100 800 
Wire Wire Line
	1200 900  2000 900 
Wire Wire Line
	1200 1100 1400 1100
Wire Wire Line
	1200 1300 2000 1300
Connection ~ 1400 1500
Wire Wire Line
	1200 1500 2000 1500
Wire Wire Line
	2100 3600 2100 3900
Wire Wire Line
	1800 4100 3200 4100
Wire Wire Line
	3600 2700 3900 2700
Wire Wire Line
	3200 2700 2900 2700
Wire Wire Line
	2900 2700 2900 2800
Wire Wire Line
	3150 2900 3250 2900
Wire Wire Line
	3250 2900 3250 3000
Wire Wire Line
	2450 2900 2450 2850
Wire Wire Line
	2450 2350 2450 2300
Wire Wire Line
	2250 2300 3200 2300
Connection ~ 2450 2300
Connection ~ 2450 2900
Wire Wire Line
	1300 2550 1400 2550
Wire Wire Line
	1400 2500 1400 2650
Wire Notes Line
	3800 4700 3700 4700
Wire Notes Line
	3600 4700 3500 4700
Wire Notes Line
	3400 4700 3300 4700
Wire Notes Line
	3200 4700 3100 4700
Wire Notes Line
	3000 4700 2900 4700
Wire Notes Line
	2800 4700 2700 4700
Wire Notes Line
	2600 4700 2500 4700
Wire Notes Line
	2400 4700 2300 4700
Wire Notes Line
	2200 4700 2100 4700
Wire Notes Line
	2000 4700 1900 4700
Wire Notes Line
	1800 4700 1700 4700
Wire Notes Line
	1600 4700 1500 4700
Wire Notes Line
	1400 4700 1300 4700
Wire Notes Line
	1200 4700 1100 4700
Wire Notes Line
	1000 4700 900  4700
Wire Notes Line
	800  4700 700  4700
Wire Notes Line
	3800 3300 3700 3300
Wire Notes Line
	3600 3300 3500 3300
Wire Notes Line
	3400 3300 3300 3300
Wire Notes Line
	3200 3300 3100 3300
Wire Notes Line
	3000 3300 2900 3300
Wire Notes Line
	2800 3300 2700 3300
Wire Notes Line
	2600 3300 2500 3300
Wire Notes Line
	2400 3300 2300 3300
Wire Notes Line
	2200 3300 2100 3300
Wire Notes Line
	2000 3300 1900 3300
Wire Notes Line
	1800 3300 1700 3300
Wire Notes Line
	1600 3300 1500 3300
Wire Notes Line
	1400 3300 1300 3300
Wire Notes Line
	1200 3300 1100 3300
Wire Notes Line
	1000 3300 900  3300
Wire Notes Line
	800  3300 700  3300
Wire Wire Line
	2050 2900 2650 2900
Wire Wire Line
	2050 2900 1600 2450
Wire Wire Line
	1600 2450 1300 2450
Wire Wire Line
	1300 2300 1850 2300
Wire Wire Line
	1300 2500 1400 2500
Connection ~ 1400 2550
Wire Wire Line
	6400 5600 7100 5600
Wire Wire Line
	6400 3400 7000 3400
Wire Wire Line
	6400 6400 7100 6400
Wire Wire Line
	9500 3300 9000 3300
Wire Wire Line
	6200 2900 5600 2900
Wire Wire Line
	7100 7500 6400 7500
Text Label 8750 3000 2    60   ~ 0
STY1
Text Label 8750 3100 2    60   ~ 0
STY1B
Text Label 8750 3300 2    60   ~ 0
STY2
Text Label 8750 3400 2    60   ~ 0
STY2B
Wire Bus Line
	8900 5000 8900 3100
$Sheet
S 9500 800  900  1100
U 53DD8553
F0 "_wm8768" 60
F1 "_wm8768.sch" 60
F2 "BCLK" I L 9500 1000 60 
F3 "LRCLK" I L 9500 1100 60 
F4 "DIN1" I L 9500 1300 60 
F5 "DIN2" I L 9500 1400 60 
F6 "DIN3" I L 9500 1500 60 
F7 "DIN4" I L 9500 1600 60 
F8 "AGND" O R 10400 1800 60 
F9 "OUT1L" O R 10400 900 60 
F10 "OUT1R" O R 10400 1000 60 
F11 "OUT2L" O R 10400 1100 60 
F12 "OUT2R" O R 10400 1200 60 
F13 "OUT3L" O R 10400 1300 60 
F14 "OUT3R" O R 10400 1400 60 
F15 "OUT4L" O R 10400 1500 60 
F16 "OUT4R" O R 10400 1600 60 
F17 "XTI" I L 9500 900 60 
$EndSheet
Text Label 10900 900  2    60   ~ 0
OUT1L
Text Label 10900 1000 2    60   ~ 0
OUT1R
Text Label 10900 1100 2    60   ~ 0
OUT2L
Text Label 10900 1200 2    60   ~ 0
OUT2R
Text Label 10900 1300 2    60   ~ 0
OUT3L
Text Label 10900 1400 2    60   ~ 0
OUT3R
Text Label 10900 1500 2    60   ~ 0
OUT4L
Text Label 10900 1600 2    60   ~ 0
OUT4R
Text Label 10900 1800 2    60   ~ 0
AGND
Wire Wire Line
	9500 1000 8300 1000
Wire Wire Line
	8300 1100 9500 1100
Wire Wire Line
	9500 1300 8300 1300
Wire Wire Line
	8300 1400 9500 1400
Wire Wire Line
	9500 1500 8300 1500
Wire Wire Line
	8300 1600 9500 1600
Entry Wire Line
	8900 4400 9000 4300
Entry Wire Line
	8900 4300 9000 4200
Entry Wire Line
	8900 4100 9000 4000
Entry Wire Line
	8900 4000 9000 3900
Text Label 9050 3900 0    60   ~ 0
STY4
$Comp
L CONN_10 P5
U 1 1 53DEA212
P 9850 4350
F 0 "P5" H 9850 4950 60  0000 C CNN
F 1 "CONN_10" V 9900 4350 60  0000 C CNN
F 2 "connect:sil-10" H 9850 4350 60  0001 C CNN
F 3 "" H 9850 4350 60  0000 C CNN
F 4 "TE Connectivity" H 9850 4350 60  0001 C CNN "Manufacturer"
F 5 "1-640456-0" H 9850 4350 60  0001 C CNN "Manufacturer Part Number"
F 6 "A1925-ND" H 9850 4350 60  0001 C CNN "Digi-Key Part Number"
F 7 "CONN HEADER VERT 10POS .100 TIN" H 9850 4350 60  0001 C CNN "Description"
	1    9850 4350
	1    0    0    -1  
$EndComp
Text Label 9050 4000 0    60   ~ 0
STY4B
Text Label 9050 4200 0    60   ~ 0
STY3
Text Label 9050 4300 0    60   ~ 0
STY3B
Wire Wire Line
	9000 3900 9500 3900
Wire Wire Line
	9500 4000 9000 4000
Wire Wire Line
	9500 4200 9000 4200
Wire Wire Line
	9000 4300 9500 4300
NoConn ~ 9500 4700
NoConn ~ 9500 4500
Text Notes 9700 3800 2    60   Italic 12
to T4
Entry Wire Line
	10200 4400 10300 4300
Entry Wire Line
	10200 4300 10300 4200
Entry Wire Line
	10200 4100 10300 4000
Entry Wire Line
	10200 4000 10300 3900
Text Label 10350 3900 0    60   ~ 0
STY6
$Comp
L CONN_10 P6
U 1 1 53DEA484
P 11150 4350
F 0 "P6" H 11150 4950 60  0000 C CNN
F 1 "CONN_10" V 11200 4350 60  0000 C CNN
F 2 "connect:sil-10" H 11150 4350 60  0001 C CNN
F 3 "" H 11150 4350 60  0000 C CNN
F 4 "TE Connectivity" H 11150 4350 60  0001 C CNN "Manufacturer"
F 5 "1-640456-0" H 11150 4350 60  0001 C CNN "Manufacturer Part Number"
F 6 "A1925-ND" H 11150 4350 60  0001 C CNN "Digi-Key Part Number"
F 7 "CONN HEADER VERT 10POS .100 TIN" H 11150 4350 60  0001 C CNN "Description"
	1    11150 4350
	1    0    0    -1  
$EndComp
Text Label 10350 4000 0    60   ~ 0
STY6B
Text Label 10350 4200 0    60   ~ 0
STY5
Text Label 10350 4300 0    60   ~ 0
STY5B
Wire Wire Line
	10300 3900 10800 3900
Wire Wire Line
	10800 4000 10300 4000
Wire Wire Line
	10800 4200 10300 4200
Wire Wire Line
	10300 4300 10800 4300
NoConn ~ 10800 4700
NoConn ~ 10800 4500
Text Notes 11000 3800 2    60   Italic 12
to T4
Entry Wire Line
	8800 3900 8900 4000
Entry Wire Line
	8800 3700 8900 3800
Entry Wire Line
	8800 3600 8900 3700
Entry Wire Line
	8800 4000 8900 4100
Wire Wire Line
	8300 3600 8800 3600
Wire Wire Line
	8800 3700 8300 3700
Wire Wire Line
	8300 3900 8800 3900
Wire Wire Line
	8800 4000 8300 4000
Text Label 8750 3600 2    60   ~ 0
STY3
Text Label 8750 3700 2    60   ~ 0
STY3B
Text Label 8750 3900 2    60   ~ 0
STY4
Text Label 8750 4000 2    60   ~ 0
STY4B
Entry Wire Line
	8800 4500 8900 4600
Entry Wire Line
	8800 4300 8900 4400
Entry Wire Line
	8800 4200 8900 4300
Entry Wire Line
	8800 4600 8900 4700
Wire Wire Line
	8300 4200 8800 4200
Wire Wire Line
	8800 4300 8300 4300
Wire Wire Line
	8300 4500 8800 4500
Wire Wire Line
	8800 4600 8300 4600
Text Label 8750 4200 2    60   ~ 0
STY5
Text Label 8750 4300 2    60   ~ 0
STY5B
Text Label 8750 4500 2    60   ~ 0
STY6
Text Label 8750 4600 2    60   ~ 0
STY6B
$Sheet
S 7000 800  1300 4000
U 53D5B331
F0 "_sta308a" 60
F1 "_sta308a.sch" 60
F2 "PWD_308" I L 7000 3800 60 
F3 "CH1_A" O R 8300 2400 60 
F4 "CH1_B" O R 8300 2500 60 
F5 "CH2_A" O R 8300 2700 60 
F6 "CH2_B" O R 8300 2800 60 
F7 "CH3_A" O R 8300 3000 60 
F8 "CH3_B" O R 8300 3100 60 
F9 "CH4_A" O R 8300 3300 60 
F10 "CH4_B" O R 8300 3400 60 
F11 "CH5_A" O R 8300 3600 60 
F12 "CH5_B" O R 8300 3700 60 
F13 "CH7_A" O R 8300 4200 60 
F14 "CH7_B" O R 8300 4300 60 
F15 "CH8_A" O R 8300 4500 60 
F16 "CH8_B" O R 8300 4600 60 
F17 "CH6_A" O R 8300 3900 60 
F18 "CH6_B" O R 8300 4000 60 
F19 "SDA" B L 7000 4400 60 
F20 "SCL" I L 7000 4500 60 
F21 "BICK" I L 7000 2900 60 
F22 "LRCK" I L 7000 2800 60 
F23 "SDATA12" I L 7000 2400 60 
F24 "SDATA34" I L 7000 2500 60 
F25 "SDATA56" I L 7000 2600 60 
F26 "SDATA78" I L 7000 2700 60 
F27 "XTI" I L 7000 3100 60 
F28 "BICKO" O R 8300 1000 60 
F29 "LRCKO" O R 8300 1100 60 
F30 "SDO_12" O R 8300 1300 60 
F31 "SDO_34" O R 8300 1400 60 
F32 "SDO_78" O R 8300 1600 60 
F33 "SDO_56" O R 8300 1500 60 
F34 "EAPD" I L 7000 4000 60 
F35 "RESET" I L 7000 3400 60 
$EndSheet
Wire Wire Line
	7100 5700 6400 5700
Entry Wire Line
	6300 4100 6400 4000
Wire Wire Line
	6400 4000 7000 4000
Text Label 6450 4000 0    60   ~ 0
EAPD
Text Label 6450 7000 0    60   ~ 0
EAPD
$Comp
L INDUCTOR_SMALL L9
U 1 1 53F24A6C
P 1750 5000
F 0 "L9" H 1750 5100 50  0000 C CNN
F 1 "Ferrite" H 1750 4950 50  0000 C CNN
F 2 "smd_packages:l_0805" H 1750 5000 60  0001 C CNN
F 3 "" H 1750 5000 60  0000 C CNN
F 4 "TDK Corporation" H 1750 5000 60  0001 C CNN "Manufacturer"
F 5 "MMZ2012R121A" H 1750 5000 60  0001 C CNN "Manufacturer Part Number"
F 6 "445-2190-1-ND" H 1750 5000 60  0001 C CNN "Digi-Key Part Number"
F 7 "FERRITE CHIP 120 OHM 800MA 0805" H 1750 5000 60  0001 C CNN "Description"
	1    1750 5000
	1    0    0    -1  
$EndComp
$Comp
L C C71
U 1 1 53F24A76
P 2400 5000
F 0 "C71" V 2250 4950 40  0000 L CNN
F 1 "100n" V 2550 4950 40  0000 L CNN
F 2 "smd_packages:c_0603" H 2438 4850 30  0001 C CNN
F 3 "" H 2400 5000 60  0000 C CNN
F 4 "TDK Corporation" H 2400 5000 60  0001 C CNN "Manufacturer"
F 5 "C1608X7R1E104K080AA" H 2400 5000 60  0001 C CNN "Manufacturer Part Number"
F 6 "445-1316-1-ND" H 2400 5000 60  0001 C CNN "Digi-Key Part Number"
F 7 "CAP CER 0.1UF 25V 10% X7R 0603" H 2400 5000 60  0001 C CNN "Description"
	1    2400 5000
	0    1    1    0   
$EndComp
$Comp
L +5V #PWR013
U 1 1 53F24A7C
P 1300 4900
F 0 "#PWR013" H 1300 4990 20  0001 C CNN
F 1 "+5V" H 1300 4990 30  0000 C CNN
F 2 "" H 1300 4900 60  0000 C CNN
F 3 "" H 1300 4900 60  0000 C CNN
	1    1300 4900
	1    0    0    -1  
$EndComp
$Comp
L GND #PWR014
U 1 1 53F24A82
P 2700 5100
F 0 "#PWR014" H 2700 5100 30  0001 C CNN
F 1 "GND" H 2700 5030 30  0001 C CNN
F 2 "" H 2700 5100 60  0000 C CNN
F 3 "" H 2700 5100 60  0000 C CNN
	1    2700 5100
	1    0    0    -1  
$EndComp
$Comp
L C C72
U 1 1 53F24A98
P 3400 5500
F 0 "C72" V 3350 5300 40  0000 L CNN
F 1 "100n" V 3450 5600 40  0000 L CNN
F 2 "smd_packages:c_0603" H 3438 5350 30  0001 C CNN
F 3 "" H 3400 5500 60  0000 C CNN
F 4 "TDK Corporation" H 3400 5500 60  0001 C CNN "Manufacturer"
F 5 "C1608X7R1E104K080AA" H 3400 5500 60  0001 C CNN "Manufacturer Part Number"
F 6 "445-1316-1-ND" H 3400 5500 60  0001 C CNN "Digi-Key Part Number"
F 7 "CAP CER 0.1UF 25V 10% X7R 0603" H 3400 5500 60  0001 C CNN "Description"
	1    3400 5500
	0    1    1    0   
$EndComp
Text Notes 3800 6000 2    100  ~ 20
Optical
Wire Wire Line
	1300 5000 1500 5000
Wire Wire Line
	1300 4900 1300 5000
Wire Wire Line
	2700 5000 2700 5100
Wire Wire Line
	2600 5000 2700 5000
Connection ~ 2100 5000
Wire Wire Line
	2100 5300 1800 5300
Wire Wire Line
	2000 5000 2200 5000
Wire Wire Line
	3900 5500 3600 5500
Wire Wire Line
	2100 5000 2100 5300
Wire Wire Line
	1800 5500 3200 5500
Wire Notes Line
	3800 6100 3700 6100
Wire Notes Line
	3600 6100 3500 6100
Wire Notes Line
	3400 6100 3300 6100
Wire Notes Line
	3200 6100 3100 6100
Wire Notes Line
	3000 6100 2900 6100
Wire Notes Line
	2800 6100 2700 6100
Wire Notes Line
	2600 6100 2500 6100
Wire Notes Line
	2400 6100 2300 6100
Wire Notes Line
	2200 6100 2100 6100
Wire Notes Line
	2000 6100 1900 6100
Wire Notes Line
	1800 6100 1700 6100
Wire Notes Line
	1600 6100 1500 6100
Wire Notes Line
	1400 6100 1300 6100
Wire Notes Line
	1200 6100 1100 6100
Wire Notes Line
	1000 6100 900  6100
Wire Notes Line
	800  6100 700  6100
$Sheet
S 9500 5400 900  1100
U 53F270C9
F0 "_sta516b_4hb" 60
F1 "_sta516b_4hb.sch" 60
F2 "IN3A" I L 9500 5500 60 
F3 "IN3B" I L 9500 5600 60 
F4 "PWD_516b" I L 9500 6200 60 
F5 "TH_WARb" O L 9500 6300 60 
F6 "IN4A" I L 9500 5800 60 
F7 "IN4B" I L 9500 5900 60 
F8 "PWR" I R 10400 5500 60 
F9 "DQb" B L 9500 6400 60 
$EndSheet
Entry Bus Bus
	8800 5100 8900 5200
Entry Wire Line
	8900 5400 9000 5500
Entry Wire Line
	8900 5500 9000 5600
Entry Wire Line
	8900 5700 9000 5800
Entry Wire Line
	8900 5800 9000 5900
Entry Wire Line
	8900 6100 9000 6200
Entry Wire Line
	8900 6200 9000 6300
Entry Wire Line
	8900 6300 9000 6400
Wire Wire Line
	9000 5500 9500 5500
Wire Wire Line
	9500 5600 9000 5600
Wire Wire Line
	9000 5800 9500 5800
Wire Wire Line
	9500 5900 9000 5900
Text Label 9050 5500 0    60   ~ 0
STY1
Text Label 9050 5600 0    60   ~ 0
STY1B
Text Label 9050 5800 0    60   ~ 0
STY2
Text Label 9050 5900 0    60   ~ 0
STY2B
Text Label 9050 6200 0    60   ~ 0
PWD_516b
Text Label 9050 6300 0    60   ~ 0
TH_WARb
Text Label 9050 6400 0    60   ~ 0
DQb
Wire Wire Line
	9000 6300 9500 6300
Wire Wire Line
	9000 6200 9500 6200
Wire Wire Line
	9500 6400 9000 6400
$Comp
L +36V #PWR016
U 1 1 53F45AD6
P 10600 5400
F 0 "#PWR016" H 10600 5370 30  0001 C CNN
F 1 "+36V" H 10600 5510 40  0000 C CNN
F 2 "" H 10600 5400 60  0000 C CNN
F 3 "" H 10600 5400 60  0000 C CNN
	1    10600 5400
	1    0    0    -1  
$EndComp
Wire Wire Line
	10600 5400 10600 5500
Wire Wire Line
	10600 5500 10400 5500
$Comp
L +2.5V #PWR017
U 1 1 53F4F7E2
P 3300 1400
F 0 "#PWR017" H 3300 1350 20  0001 C CNN
F 1 "+2.5V" H 3300 1500 30  0000 C CNN
F 2 "" H 3300 1400 100 0000 C CNN
F 3 "" H 3300 1400 100 0000 C CNN
	1    3300 1400
	0    1    1    0   
$EndComp
$Comp
L VAA #PWR018
U 1 1 53F4F7F6
P 3300 1600
F 0 "#PWR018" H 3300 1660 30  0001 C CNN
F 1 "VAA" H 3300 1710 30  0000 C CNN
F 2 "" H 3300 1600 100 0000 C CNN
F 3 "" H 3300 1600 100 0000 C CNN
	1    3300 1600
	0    1    1    0   
$EndComp
Wire Wire Line
	3300 1400 3100 1400
Wire Wire Line
	3100 1600 3300 1600
Entry Wire Line
	6300 750  6400 650 
Wire Wire Line
	6400 650  8900 650 
Wire Wire Line
	9150 900  9500 900 
Text Label 6450 650  0    60   ~ 0
XTI
Wire Wire Line
	8900 650  9150 900 
Text Label 6450 7100 0    60   ~ 0
TH_WARb
Text Label 6450 7200 0    60   ~ 0
PWD_516b
Text Label 6450 7300 0    60   ~ 0
DQb
Wire Wire Line
	6400 7000 7100 7000
Wire Wire Line
	6400 6900 7100 6900
Wire Wire Line
	6400 6800 7100 6800
Entry Bus Bus
	10100 5100 10200 5000
Wire Bus Line
	10200 4000 10200 5000
Text Label 13000 1500 2    60   ~ 0
OUT1L
Text Label 13000 1400 2    60   ~ 0
OUT1R
Text Label 13000 1700 2    60   ~ 0
OUT2L
Text Label 13000 1600 2    60   ~ 0
OUT2R
Text Label 13000 1100 2    60   ~ 0
OUT3L
Text Label 13000 1000 2    60   ~ 0
OUT3R
Text Label 13000 1300 2    60   ~ 0
OUT4L
Text Label 13000 1200 2    60   ~ 0
OUT4R
Entry Wire Line
	6300 5500 6400 5600
Entry Wire Line
	6300 5600 6400 5700
Entry Wire Line
	6300 5700 6400 5800
Entry Wire Line
	6300 5800 6400 5900
Entry Wire Line
	6300 5900 6400 6000
Entry Wire Line
	6300 6000 6400 6100
Entry Wire Line
	6300 6100 6400 6200
Entry Wire Line
	6300 6200 6400 6300
Entry Wire Line
	6300 6300 6400 6400
Entry Wire Line
	6300 6400 6400 6500
Entry Wire Line
	6300 6500 6400 6600
Entry Wire Line
	6300 6600 6400 6700
Entry Wire Line
	6300 6700 6400 6800
Entry Wire Line
	6300 6800 6400 6900
Entry Wire Line
	6300 6900 6400 7000
Entry Wire Line
	6300 7000 6400 7100
Entry Wire Line
	6300 7100 6400 7200
Entry Wire Line
	6300 7200 6400 7300
Entry Wire Line
	6300 7300 6400 7400
Entry Wire Line
	6300 7400 6400 7500
$Comp
L +5V #PWR019
U 1 1 53F55473
P 6800 7700
F 0 "#PWR019" H 6800 7790 20  0001 C CNN
F 1 "+5V" H 6800 7790 30  0000 C CNN
F 2 "" H 6800 7700 60  0000 C CNN
F 3 "" H 6800 7700 60  0000 C CNN
	1    6800 7700
	0    -1   -1   0   
$EndComp
$Comp
L GND #PWR020
U 1 1 53F57637
P 6900 7600
F 0 "#PWR020" H 6900 7600 30  0001 C CNN
F 1 "GND" H 6900 7530 30  0001 C CNN
F 2 "" H 6900 7600 60  0000 C CNN
F 3 "" H 6900 7600 60  0000 C CNN
	1    6900 7600
	0    1    1    0   
$EndComp
Wire Wire Line
	6800 7700 7100 7700
Wire Wire Line
	6900 7600 7100 7600
$Comp
L CONN_10X2 P4
U 1 1 53F41AD7
P 12200 1350
F 0 "P4" H 12200 1900 60  0000 C CNN
F 1 "CONN_10X2" V 12200 1250 50  0000 C CNN
F 2 "connect:pin_header_straight_2x10" H 12200 1350 60  0001 C CNN
F 3 "" H 12200 1350 60  0000 C CNN
F 4 "CNC Tech" H 12200 1350 60  0001 C CNN "Manufacturer"
F 5 "3020-20-0100-00" H 12200 1350 60  0001 C CNN "Manufacturer Part Number"
F 6 "1175-1612-ND" H 12200 1350 60  0001 C CNN "Digi-Key Part Number"
F 7 "IDC BOX HEADER .100\" 20POS" H 12200 1350 60  0001 C CNN "Description"
	1    12200 1350
	1    0    0    -1  
$EndComp
Text Label 13000 900  2    60   ~ 0
AGND
$Comp
L +5V #PWR021
U 1 1 53F4902B
P 12800 1900
F 0 "#PWR021" H 12800 1990 20  0001 C CNN
F 1 "+5V" H 12800 1990 30  0000 C CNN
F 2 "" H 12800 1900 60  0000 C CNN
F 3 "" H 12800 1900 60  0000 C CNN
	1    12800 1900
	-1   0    0    1   
$EndComp
$Comp
L GND #PWR022
U 1 1 53F4B30E
P 11600 1900
F 0 "#PWR022" H 11600 1900 30  0001 C CNN
F 1 "GND" H 11600 1830 30  0001 C CNN
F 2 "" H 11600 1900 60  0000 C CNN
F 3 "" H 11600 1900 60  0000 C CNN
	1    11600 1900
	1    0    0    -1  
$EndComp
Wire Wire Line
	13000 900  12600 900 
Wire Wire Line
	13000 1000 12600 1000
Wire Wire Line
	13000 1100 12600 1100
Wire Wire Line
	13000 1200 12600 1200
Wire Wire Line
	13000 1500 12600 1500
Wire Wire Line
	13000 1600 12600 1600
Wire Wire Line
	13000 1700 12600 1700
Wire Wire Line
	12600 1300 13000 1300
Wire Wire Line
	12600 1400 13000 1400
Wire Wire Line
	10900 900  10400 900 
Wire Wire Line
	10900 1000 10400 1000
Wire Wire Line
	10900 1100 10400 1100
Wire Wire Line
	10900 1200 10400 1200
Wire Wire Line
	10900 1300 10400 1300
Wire Wire Line
	10900 1400 10400 1400
Wire Wire Line
	10900 1500 10400 1500
Wire Wire Line
	10900 1600 10400 1600
Wire Wire Line
	10900 1800 10400 1800
$Comp
L +3.3V #PWR023
U 1 1 53F58D35
P 6900 5500
F 0 "#PWR023" H 6900 5460 30  0001 C CNN
F 1 "+3.3V" H 6900 5610 30  0000 C CNN
F 2 "" H 6900 5500 60  0000 C CNN
F 3 "" H 6900 5500 60  0000 C CNN
	1    6900 5500
	0    -1   -1   0   
$EndComp
$Comp
L +5V #PWR024
U 1 1 53F58D3B
P 6800 5400
F 0 "#PWR024" H 6800 5490 20  0001 C CNN
F 1 "+5V" H 6800 5490 30  0000 C CNN
F 2 "" H 6800 5400 60  0000 C CNN
F 3 "" H 6800 5400 60  0000 C CNN
	1    6800 5400
	0    -1   -1   0   
$EndComp
$Comp
L GND #PWR025
U 1 1 53F58D41
P 6900 5300
F 0 "#PWR025" H 6900 5300 30  0001 C CNN
F 1 "GND" H 6900 5230 30  0001 C CNN
F 2 "" H 6900 5300 60  0000 C CNN
F 3 "" H 6900 5300 60  0000 C CNN
	1    6900 5300
	0    1    1    0   
$EndComp
Wire Wire Line
	6900 5500 7100 5500
Wire Wire Line
	6800 5400 7100 5400
Wire Wire Line
	6900 5300 7100 5300
Wire Bus Line
	8900 6300 8900 5200
Wire Bus Line
	10100 5100 6400 5100
$Comp
L +3.3V #PWR026
U 1 1 53F59716
P 6900 7800
F 0 "#PWR026" H 6900 7760 30  0001 C CNN
F 1 "+3.3V" H 6900 7910 30  0000 C CNN
F 2 "" H 6900 7800 60  0000 C CNN
F 3 "" H 6900 7800 60  0000 C CNN
	1    6900 7800
	0    -1   -1   0   
$EndComp
Wire Wire Line
	6900 7800 7100 7800
Wire Bus Line
	6300 750  6300 7400
$Comp
L CONN_26 P11
U 1 1 53F5D41E
P 7450 6550
F 0 "P11" V 7425 6550 60  0000 C CNN
F 1 "CONN_26" V 7525 6550 60  0000 C CNN
F 2 "connect:pin_header_straight_1x26" H 7450 6600 60  0001 C CNN
F 3 "" H 7450 6600 60  0000 C CNN
F 4 "Sullins Connector Solutions" V 7450 6550 60  0001 C CNN "Manufacturer"
F 5 "PRPC026SAAN-RC" V 7450 6550 60  0001 C CNN "Manufacturer Part Number"
F 6 "S1011EC-26-ND" V 7450 6550 60  0001 C CNN "Digi-Key Part Number"
F 7 "CONN HEADER .100\" SNGL STR 26POS" V 7450 6550 60  0001 C CNN "Description"
	1    7450 6550
	1    0    0    -1  
$EndComp
Wire Wire Line
	11800 900  11600 900 
Wire Wire Line
	11600 900  11600 1900
Wire Wire Line
	11800 1800 11600 1800
Connection ~ 11600 1800
Wire Wire Line
	11800 1700 11600 1700
Connection ~ 11600 1700
Wire Wire Line
	11800 1600 11600 1600
Connection ~ 11600 1600
Wire Wire Line
	11800 1500 11600 1500
Connection ~ 11600 1500
Wire Wire Line
	11800 1400 11600 1400
Connection ~ 11600 1400
Wire Wire Line
	11800 1300 11600 1300
Connection ~ 11600 1300
Wire Wire Line
	11800 1200 11600 1200
Connection ~ 11600 1200
Wire Wire Line
	11800 1100 11600 1100
Connection ~ 11600 1100
Wire Wire Line
	11800 1000 11600 1000
Connection ~ 11600 1000
Wire Wire Line
	12600 1800 12800 1800
Wire Wire Line
	12800 1800 12800 1900
$Comp
L +5V #PWR027
U 1 1 53FD75E2
P 9400 4600
F 0 "#PWR027" H 9400 4690 20  0001 C CNN
F 1 "+5V" H 9400 4690 30  0000 C CNN
F 2 "" H 9400 4600 60  0000 C CNN
F 3 "" H 9400 4600 60  0000 C CNN
	1    9400 4600
	0    -1   -1   0   
$EndComp
$Comp
L +5V #PWR028
U 1 1 53FD8378
P 10700 4600
F 0 "#PWR028" H 10700 4690 20  0001 C CNN
F 1 "+5V" H 10700 4690 30  0000 C CNN
F 2 "" H 10700 4600 60  0000 C CNN
F 3 "" H 10700 4600 60  0000 C CNN
	1    10700 4600
	0    -1   -1   0   
$EndComp
$Comp
L GND #PWR029
U 1 1 53FD9642
P 9400 4800
F 0 "#PWR029" H 9400 4800 30  0001 C CNN
F 1 "GND" H 9400 4730 30  0001 C CNN
F 2 "" H 9400 4800 60  0000 C CNN
F 3 "" H 9400 4800 60  0000 C CNN
	1    9400 4800
	0    1    1    0   
$EndComp
$Comp
L GND #PWR030
U 1 1 53FD99C1
P 9400 4400
F 0 "#PWR030" H 9400 4400 30  0001 C CNN
F 1 "GND" H 9400 4330 30  0001 C CNN
F 2 "" H 9400 4400 60  0000 C CNN
F 3 "" H 9400 4400 60  0000 C CNN
	1    9400 4400
	0    1    1    0   
$EndComp
$Comp
L GND #PWR031
U 1 1 53FD99E3
P 9400 4100
F 0 "#PWR031" H 9400 4100 30  0001 C CNN
F 1 "GND" H 9400 4030 30  0001 C CNN
F 2 "" H 9400 4100 60  0000 C CNN
F 3 "" H 9400 4100 60  0000 C CNN
	1    9400 4100
	0    1    1    0   
$EndComp
$Comp
L GND #PWR032
U 1 1 53FD9A05
P 10700 4100
F 0 "#PWR032" H 10700 4100 30  0001 C CNN
F 1 "GND" H 10700 4030 30  0001 C CNN
F 2 "" H 10700 4100 60  0000 C CNN
F 3 "" H 10700 4100 60  0000 C CNN
	1    10700 4100
	0    1    1    0   
$EndComp
$Comp
L GND #PWR033
U 1 1 53FD9A27
P 10700 4400
F 0 "#PWR033" H 10700 4400 30  0001 C CNN
F 1 "GND" H 10700 4330 30  0001 C CNN
F 2 "" H 10700 4400 60  0000 C CNN
F 3 "" H 10700 4400 60  0000 C CNN
	1    10700 4400
	0    1    1    0   
$EndComp
$Comp
L GND #PWR034
U 1 1 53FD9A49
P 10700 4800
F 0 "#PWR034" H 10700 4800 30  0001 C CNN
F 1 "GND" H 10700 4730 30  0001 C CNN
F 2 "" H 10700 4800 60  0000 C CNN
F 3 "" H 10700 4800 60  0000 C CNN
	1    10700 4800
	0    1    1    0   
$EndComp
Wire Wire Line
	10700 4100 10800 4100
Wire Wire Line
	10800 4400 10700 4400
Wire Wire Line
	10800 4800 10700 4800
Wire Wire Line
	10700 4600 10800 4600
Wire Wire Line
	9500 4800 9400 4800
Wire Wire Line
	9500 4600 9400 4600
Wire Wire Line
	9400 4400 9500 4400
Wire Wire Line
	9500 4100 9400 4100
$Comp
L TORX178 U4
U 1 1 541E3BC4
P 1200 4100
F 0 "U4" H 1200 4475 60  0000 C CNN
F 1 "TORX178" H 1200 3725 60  0000 C CNN
F 2 "_toshiba:TORX178" H 1625 3850 30  0001 C CNN
F 3 "" H 1200 4100 60  0000 C CNN
F 4 "Toshiba" H 1200 4100 60  0001 C CNN "Manufacturer"
F 5 "TORX178" H 1200 4100 60  0001 C CNN "Manufacturer Part Number"
	1    1200 4100
	-1   0    0    -1  
$EndComp
$Comp
L TORX178 U6
U 1 1 541E52C3
P 1200 5500
F 0 "U6" H 1200 5875 60  0000 C CNN
F 1 "TORX178" H 1200 5125 60  0000 C CNN
F 2 "_toshiba:TORX178" H 1625 5250 30  0001 C CNN
F 3 "" H 1200 5500 60  0000 C CNN
F 4 "Toshiba" H 1200 5500 60  0001 C CNN "Manufacturer"
F 5 "TORX178" H 1200 5500 60  0001 C CNN "Manufacturer Part Number"
	1    1200 5500
	-1   0    0    -1  
$EndComp
$Comp
L GND #PWR?
U 1 1 541E5AFF
P 1900 5800
F 0 "#PWR?" H 1900 5800 30  0001 C CNN
F 1 "GND" H 1900 5730 30  0001 C CNN
F 2 "" H 1900 5800 60  0000 C CNN
F 3 "" H 1900 5800 60  0000 C CNN
	1    1900 5800
	1    0    0    -1  
$EndComp
Wire Wire Line
	1800 4300 1900 4300
Wire Wire Line
	1900 4300 1900 4400
Wire Wire Line
	1800 5700 1900 5700
Wire Wire Line
	1900 5700 1900 5800
$EndSCHEMATC
