(module PowerSO36 (layer F.Cu) (tedit 53D265C7)
  (fp_text reference PowerSO36 (at 0 -8.125) (layer F.SilkS)
    (effects (font (size 1 1) (thickness 0.15)))
  )
  (fp_text value VAL** (at 0 6.175) (layer F.SilkS) hide
    (effects (font (size 1 1) (thickness 0.15)))
  )
  (fp_circle (center 5.525 -6.5) (end 5.85 -6.5) (layer F.SilkS) (width 0.15))
  (fp_line (start -6.5 5.85) (end -6.5 7.15) (layer F.SilkS) (width 0.15))
  (fp_line (start -6.5 7.15) (end 6.5 7.15) (layer F.SilkS) (width 0.15))
  (fp_line (start 6.5 7.15) (end 6.5 6.175) (layer F.SilkS) (width 0.15))
  (fp_line (start 6.5 -5.85) (end 6.5 -6.5) (layer F.SilkS) (width 0.15))
  (fp_line (start 6.5 -6.5) (end 5.85 -7.15) (layer F.SilkS) (width 0.15))
  (fp_line (start 5.85 -7.15) (end -6.5 -7.15) (layer F.SilkS) (width 0.15))
  (fp_line (start -6.5 -7.15) (end -6.5 -5.85) (layer F.SilkS) (width 0.15))
  (pad GP thru_hole circle (at -0.975 4.225) (size 1.5 1.5) (drill 0.6) (layers *.Cu *.Mask F.SilkS))
  (pad GP thru_hole circle (at -0.975 2.6) (size 1.5 1.5) (drill 0.6) (layers *.Cu *.Mask F.SilkS))
  (pad GP thru_hole circle (at -0.975 0.975) (size 1.5 1.5) (drill 0.6) (layers *.Cu *.Mask F.SilkS))
  (pad GP thru_hole circle (at -0.975 -4.225) (size 1.5 1.5) (drill 0.6) (layers *.Cu *.Mask F.SilkS))
  (pad GP thru_hole circle (at -0.975 -2.6) (size 1.5 1.5) (drill 0.6) (layers *.Cu *.Mask F.SilkS))
  (pad GP thru_hole circle (at -0.975 -0.975) (size 1.5 1.5) (drill 0.6) (layers *.Cu *.Mask F.SilkS))
  (pad 10 smd rect (at 7.1 0.325) (size 1.6 0.4) (layers F.Cu F.Paste F.Mask))
  (pad 11 smd rect (at 7.1 0.975) (size 1.6 0.4) (layers F.Cu F.Paste F.Mask))
  (pad 12 smd rect (at 7.1 1.625) (size 1.6 0.4) (layers F.Cu F.Paste F.Mask))
  (pad 13 smd rect (at 7.1 2.275) (size 1.6 0.4) (layers F.Cu F.Paste F.Mask))
  (pad 14 smd rect (at 7.1 2.925) (size 1.6 0.4) (layers F.Cu F.Paste F.Mask))
  (pad 15 smd rect (at 7.1 3.575) (size 1.6 0.4) (layers F.Cu F.Paste F.Mask))
  (pad 16 smd rect (at 7.1 4.225) (size 1.6 0.4) (layers F.Cu F.Paste F.Mask))
  (pad 17 smd rect (at 7.1 4.875) (size 1.6 0.4) (layers F.Cu F.Paste F.Mask))
  (pad 18 smd rect (at 7.1 5.525) (size 1.6 0.4) (layers F.Cu F.Paste F.Mask))
  (pad 19 smd rect (at -7.1 5.525) (size 1.6 0.4) (layers F.Cu F.Paste F.Mask))
  (pad 20 smd rect (at -7.1 4.875) (size 1.6 0.4) (layers F.Cu F.Paste F.Mask))
  (pad 21 smd rect (at -7.1 4.225) (size 1.6 0.4) (layers F.Cu F.Paste F.Mask))
  (pad 22 smd rect (at -7.1 3.575) (size 1.6 0.4) (layers F.Cu F.Paste F.Mask))
  (pad 23 smd rect (at -7.1 2.925) (size 1.6 0.4) (layers F.Cu F.Paste F.Mask))
  (pad 24 smd rect (at -7.1 2.275) (size 1.6 0.4) (layers F.Cu F.Paste F.Mask))
  (pad 25 smd rect (at -7.1 1.625) (size 1.6 0.4) (layers F.Cu F.Paste F.Mask))
  (pad 26 smd rect (at -7.1 0.975) (size 1.6 0.4) (layers F.Cu F.Paste F.Mask))
  (pad 27 smd rect (at -7.1 0.325) (size 1.6 0.4) (layers F.Cu F.Paste F.Mask))
  (pad 28 smd rect (at -7.1 -0.325) (size 1.6 0.4) (layers F.Cu F.Paste F.Mask))
  (pad 29 smd rect (at -7.1 -0.975) (size 1.6 0.4) (layers F.Cu F.Paste F.Mask))
  (pad 30 smd rect (at -7.1 -1.625) (size 1.6 0.4) (layers F.Cu F.Paste F.Mask))
  (pad 31 smd rect (at -7.1 -2.275) (size 1.6 0.4) (layers F.Cu F.Paste F.Mask))
  (pad 32 smd rect (at -7.1 -2.925) (size 1.6 0.4) (layers F.Cu F.Paste F.Mask))
  (pad 33 smd rect (at -7.1 -3.575) (size 1.6 0.4) (layers F.Cu F.Paste F.Mask))
  (pad 34 smd rect (at -7.1 -4.225) (size 1.6 0.4) (layers F.Cu F.Paste F.Mask))
  (pad 35 smd rect (at -7.1 -4.875) (size 1.6 0.4) (layers F.Cu F.Paste F.Mask))
  (pad 36 smd rect (at -7.1 -5.525) (size 1.6 0.4) (layers F.Cu F.Paste F.Mask))
  (pad GP smd rect (at 0 0) (size 4 10.6) (layers F.Cu F.Paste F.Mask))
  (pad 1 smd rect (at 7.1 -5.525) (size 1.6 0.4) (layers F.Cu F.Paste F.Mask))
  (pad 2 smd rect (at 7.1 -4.875) (size 1.6 0.4) (layers F.Cu F.Paste F.Mask))
  (pad 3 smd rect (at 7.1 -4.225) (size 1.6 0.4) (layers F.Cu F.Paste F.Mask))
  (pad 4 smd rect (at 7.1 -3.575) (size 1.6 0.4) (layers F.Cu F.Paste F.Mask))
  (pad 5 smd rect (at 7.1 -2.925) (size 1.6 0.4) (layers F.Cu F.Paste F.Mask))
  (pad 6 smd rect (at 7.1 -2.275) (size 1.6 0.4) (layers F.Cu F.Paste F.Mask))
  (pad 7 smd rect (at 7.1 -1.625) (size 1.6 0.4) (layers F.Cu F.Paste F.Mask))
  (pad 8 smd rect (at 7.1 -0.975) (size 1.6 0.4) (layers F.Cu F.Paste F.Mask))
  (pad 9 smd rect (at 7.1 -0.325) (size 1.6 0.4) (layers F.Cu F.Paste F.Mask))
  (pad GP thru_hole circle (at 0.975 -0.975) (size 1.5 1.5) (drill 0.6) (layers *.Cu *.Mask F.SilkS))
  (pad GP thru_hole circle (at 0.975 -2.6) (size 1.5 1.5) (drill 0.6) (layers *.Cu *.Mask F.SilkS))
  (pad GP thru_hole circle (at 0.975 -4.225) (size 1.5 1.5) (drill 0.6) (layers *.Cu *.Mask F.SilkS))
  (pad GP thru_hole circle (at 0.975 0.975) (size 1.5 1.5) (drill 0.6) (layers *.Cu *.Mask F.SilkS))
  (pad GP thru_hole circle (at 0.975 2.6) (size 1.5 1.5) (drill 0.6) (layers *.Cu *.Mask F.SilkS))
  (pad GP thru_hole circle (at 0.975 4.225) (size 1.5 1.5) (drill 0.6) (layers *.Cu *.Mask F.SilkS))
)
