(module bnc (layer F.Cu)
  (at 0 0)
  (fp_text reference J*** (at -2.54 -10.16) (layer F.SilkS)
    (effects (font (thickness 0.3048)))
  )
  (fp_text value BNC (at -3.81 11.43) (layer F.SilkS)
    (effects (font (thickness 0.3048)))
  )
  (fp_line (start 7.62 3.81) (end 13.97 3.81) (layer F.SilkS) (width 0.3048))
  (fp_line (start 13.97 3.81) (end 16.51 1.27) (layer F.SilkS) (width 0.3048))
  (fp_line (start 16.51 1.27) (end 16.51 -1.27) (layer F.SilkS) (width 0.3048))
  (fp_line (start 16.51 -1.27) (end 13.97 -3.81) (layer F.SilkS) (width 0.3048))
  (fp_line (start 13.97 -3.81) (end 7.62 -3.81) (layer F.SilkS) (width 0.3048))
  (fp_circle (center 0 0) (end 7.62 3.81) (layer F.SilkS) (width 0.381))
  (pad 2 thru_hole circle (at 0 0) (size 15.24 15.24) (drill 9.652) (layers *.Cu *.Mask F.SilkS))
  (pad 1 thru_hole circle (at 12.7 0) (size 5.08 5.08) (drill 2.54) (layers *.Cu *.Mask F.SilkS))
  (model Device/bnc.wrl
    (at (xyz 0 0 0))
    (scale (xyz 2 2 2))
    (rotate (xyz 0 0 0))
  )
)