#VRML V2.0 utf8
#Exported from Wings 3D 0.99.02
DEF cube8_copy9 Transform {
  children [
    Shape {
      appearance Appearance {
        material DEF color_256_256_256 Material {
          diffuseColor 1.00000 1.00000 1.00000
          emissiveColor 0.00000e+0 0.00000e+0 0.00000e+0
          specularColor 1.00000 1.00000 1.00000
          ambientIntensity 1.00000
          transparency 0.00000e+0
          shininess 1.00000
        }
      }
      geometry IndexedFaceSet {
        normalPerVertex TRUE
        coord Coordinate { point [
          -0.792548 -0.220388 2.14294,
          -1.20632 0.214116 2.14294,
          -1.13390 0.283077 2.14294,
          -0.720131 -0.151426 2.14294,
          -0.792548 -0.220388 2.04294,
          -1.20632 0.214116 2.04294,
          -1.13390 0.283077 2.04294,
          -0.720131 -0.151426 2.04294 ] }
        coordIndex [
          0, 1, 5, 4, -1,
          0, 3, 2, 1, -1,
          0, 4, 7, 3, -1,
          1, 2, 6, 5, -1,
          2, 3, 7, 6, -1,
          4, 5, 6, 7, -1 ]
        normal Normal { vector [
          -1.99488e-2 -0.816253 0.577350,
          -0.816253 1.99488e-2 0.577350,
          1.99488e-2 0.816253 0.577350,
          0.816253 -1.99488e-2 0.577350,
          -1.99488e-2 -0.816253 -0.577350,
          -0.816253 1.99488e-2 -0.577350,
          1.99488e-2 0.816253 -0.577350,
          0.816253 -1.99488e-2 -0.577350 ] }
        normalIndex [
          0, 1, 5, 4, -1,
          0, 3, 2, 1, -1,
          0, 4, 7, 3, -1,
          1, 2, 6, 5, -1,
          2, 3, 7, 6, -1,
          4, 5, 6, 7, -1 ]
      }
    }
  ]
}

DEF cube8 Transform {
  children [
    Shape {
      appearance Appearance {
        material USE color_256_256_256
      }
      geometry IndexedFaceSet {
        normalPerVertex TRUE
        coord Coordinate { point [
          1.18681 -0.229174 2.10840,
          0.761511 0.194052 2.10840,
          0.832048 0.264935 2.10840,
          1.25735 -0.158291 2.10840,
          1.18681 -0.229174 2.00840,
          0.761511 0.194052 2.00840,
          0.832048 0.264935 2.00840,
          1.25735 -0.158291 2.00840 ] }
        coordIndex [
          0, 1, 5, 4, -1,
          0, 3, 2, 1, -1,
          0, 4, 7, 3, -1,
          1, 2, 6, 5, -1,
          2, 3, 7, 6, -1,
          4, 5, 6, 7, -1 ]
        normal Normal { vector [
          1.99508e-3 -0.816494 0.577350,
          -0.816494 -1.99508e-3 0.577350,
          -1.99508e-3 0.816494 0.577350,
          0.816494 1.99508e-3 0.577350,
          1.99508e-3 -0.816494 -0.577350,
          -0.816494 -1.99508e-3 -0.577350,
          -1.99508e-3 0.816494 -0.577350,
          0.816494 1.99508e-3 -0.577350 ] }
        normalIndex [
          0, 1, 5, 4, -1,
          0, 3, 2, 1, -1,
          0, 4, 7, 3, -1,
          1, 2, 6, 5, -1,
          2, 3, 7, 6, -1,
          4, 5, 6, 7, -1 ]
      }
    }
  ]
}

DEF cylinder6_copy7 Transform {
  children [
    Shape {
      appearance Appearance {
        material USE color_256_256_256
      }
      geometry IndexedFaceSet {
        normalPerVertex TRUE
        coord Coordinate { point [
          1.50000 -0.555276 1.000000,
          1.46194 -0.555276 1.19134,
          1.35355 -0.555276 1.35355,
          1.19134 -0.555276 1.46194,
          1.00000 -0.555276 1.50000,
          0.808658 -0.555276 1.46194,
          0.646447 -0.555276 1.35355,
          0.538060 -0.555276 1.19134,
          0.500000 -0.555276 1.000000,
          0.538060 -0.555276 0.808658,
          0.646447 -0.555276 0.646447,
          0.808658 -0.555276 0.538060,
          1.00000 -0.555276 0.500000,
          1.19134 -0.555276 0.538060,
          1.35355 -0.555276 0.646447,
          1.46194 -0.555276 0.808658,
          1.50000 -1.05528 1.000000,
          1.46194 -1.05528 1.19134,
          1.35355 -1.05528 1.35355,
          1.19134 -1.05528 1.46194,
          1.00000 -1.05528 1.50000,
          0.808658 -1.05528 1.46194,
          0.646447 -1.05528 1.35355,
          0.538060 -1.05528 1.19134,
          0.500000 -1.05528 1.000000,
          0.538060 -1.05528 0.808658,
          0.646447 -1.05528 0.646447,
          0.808658 -1.05528 0.538060,
          1.00000 -1.05528 0.500000,
          1.19134 -1.05528 0.538060,
          1.35355 -1.05528 0.646447,
          1.46194 -1.05528 0.808658 ] }
        coordIndex [
          0, 1, 17, 16, -1,
          0, 15, 14, 13, 12, 11, 10, 9, 8, 7, 6, 5, 4, 3, 2, 1, -1,
          0, 16, 31, 15, -1,
          1, 2, 18, 17, -1,
          2, 3, 19, 18, -1,
          3, 4, 20, 19, -1,
          4, 5, 21, 20, -1,
          5, 6, 22, 21, -1,
          6, 7, 23, 22, -1,
          7, 8, 24, 23, -1,
          8, 9, 25, 24, -1,
          9, 10, 26, 25, -1,
          10, 11, 27, 26, -1,
          11, 12, 28, 27, -1,
          12, 13, 29, 28, -1,
          13, 14, 30, 29, -1,
          14, 15, 31, 30, -1,
          16, 17, 18, 19, 20, 21, 22, 23, 24, 25, 26, 27, 28, 29, 30, 31, -1 ]
        normal Normal { vector [
          0.890909 0.454182 1.38667e-16,
          0.823093 0.454182 0.340936,
          0.629968 0.454182 0.629968,
          0.340936 0.454182 0.823093,
          -1.00849e-16 0.454182 0.890909,
          -0.340936 0.454182 0.823093,
          -0.629968 0.454182 0.629968,
          -0.823093 0.454182 0.340936,
          -0.890909 0.454182 -2.52121e-17,
          -0.823093 0.454182 -0.340936,
          -0.629968 0.454182 -0.629968,
          -0.340936 0.454182 -0.823093,
          -3.15152e-16 0.454182 -0.890909,
          0.340936 0.454182 -0.823093,
          0.629968 0.454182 -0.629968,
          0.823093 0.454182 -0.340936,
          0.890909 -0.454182 6.30304e-17,
          0.823093 -0.454182 0.340936,
          0.629968 -0.454182 0.629968,
          0.340936 -0.454182 0.823093,
          -1.00849e-16 -0.454182 0.890909,
          -0.340936 -0.454182 0.823093,
          -0.629968 -0.454182 0.629968,
          -0.823093 -0.454182 0.340936,
          -0.890909 -0.454182 -1.00849e-16,
          -0.823093 -0.454182 -0.340936,
          -0.629968 -0.454182 -0.629968,
          -0.340936 -0.454182 -0.823093,
          -3.15152e-16 -0.454182 -0.890909,
          0.340936 -0.454182 -0.823093,
          0.629968 -0.454182 -0.629968,
          0.823093 -0.454182 -0.340936 ] }
        normalIndex [
          0, 1, 17, 16, -1,
          0, 15, 14, 13, 12, 11, 10, 9, 8, 7, 6, 5, 4, 3, 2, 1, -1,
          0, 16, 31, 15, -1,
          1, 2, 18, 17, -1,
          2, 3, 19, 18, -1,
          3, 4, 20, 19, -1,
          4, 5, 21, 20, -1,
          5, 6, 22, 21, -1,
          6, 7, 23, 22, -1,
          7, 8, 24, 23, -1,
          8, 9, 25, 24, -1,
          9, 10, 26, 25, -1,
          10, 11, 27, 26, -1,
          11, 12, 28, 27, -1,
          12, 13, 29, 28, -1,
          13, 14, 30, 29, -1,
          14, 15, 31, 30, -1,
          16, 17, 18, 19, 20, 21, 22, 23, 24, 25, 26, 27, 28, 29, 30, 31, -1 ]
      }
    }
  ]
}

DEF cylinder6 Transform {
  children [
    Shape {
      appearance Appearance {
        material USE color_256_256_256
      }
      geometry IndexedFaceSet {
        normalPerVertex TRUE
        coord Coordinate { point [
          -0.500000 -0.555276 1.000000,
          -0.538060 -0.555276 1.19134,
          -0.646447 -0.555276 1.35355,
          -0.808658 -0.555276 1.46194,
          -1.00000 -0.555276 1.50000,
          -1.19134 -0.555276 1.46194,
          -1.35355 -0.555276 1.35355,
          -1.46194 -0.555276 1.19134,
          -1.50000 -0.555276 1.000000,
          -1.46194 -0.555276 0.808658,
          -1.35355 -0.555276 0.646447,
          -1.19134 -0.555276 0.538060,
          -1.00000 -0.555276 0.500000,
          -0.808658 -0.555276 0.538060,
          -0.646447 -0.555276 0.646447,
          -0.538060 -0.555276 0.808658,
          -0.500000 -1.05528 1.000000,
          -0.538060 -1.05528 1.19134,
          -0.646447 -1.05528 1.35355,
          -0.808658 -1.05528 1.46194,
          -1.00000 -1.05528 1.50000,
          -1.19134 -1.05528 1.46194,
          -1.35355 -1.05528 1.35355,
          -1.46194 -1.05528 1.19134,
          -1.50000 -1.05528 1.000000,
          -1.46194 -1.05528 0.808658,
          -1.35355 -1.05528 0.646447,
          -1.19134 -1.05528 0.538060,
          -1.00000 -1.05528 0.500000,
          -0.808658 -1.05528 0.538060,
          -0.646447 -1.05528 0.646447,
          -0.538060 -1.05528 0.808658 ] }
        coordIndex [
          0, 1, 17, 16, -1,
          0, 15, 14, 13, 12, 11, 10, 9, 8, 7, 6, 5, 4, 3, 2, 1, -1,
          0, 16, 31, 15, -1,
          1, 2, 18, 17, -1,
          2, 3, 19, 18, -1,
          3, 4, 20, 19, -1,
          4, 5, 21, 20, -1,
          5, 6, 22, 21, -1,
          6, 7, 23, 22, -1,
          7, 8, 24, 23, -1,
          8, 9, 25, 24, -1,
          9, 10, 26, 25, -1,
          10, 11, 27, 26, -1,
          11, 12, 28, 27, -1,
          12, 13, 29, 28, -1,
          13, 14, 30, 29, -1,
          14, 15, 31, 30, -1,
          16, 17, 18, 19, 20, 21, 22, 23, 24, 25, 26, 27, 28, 29, 30, 31, -1 ]
        normal Normal { vector [
          0.890909 0.454182 -1.00849e-16,
          0.823093 0.454182 0.340936,
          0.629968 0.454182 0.629968,
          0.340936 0.454182 0.823093,
          0.00000e+0 0.454182 0.890909,
          -0.340936 0.454182 0.823093,
          -0.629968 0.454182 0.629968,
          -0.823093 0.454182 0.340936,
          -0.890909 0.454182 0.00000e+0,
          -0.823093 0.454182 -0.340936,
          -0.629968 0.454182 -0.629968,
          -0.340936 0.454182 -0.823093,
          -2.39515e-16 0.454182 -0.890909,
          0.340936 0.454182 -0.823093,
          0.629968 0.454182 -0.629968,
          0.823093 0.454182 -0.340936,
          0.890909 -0.454182 -7.56364e-17,
          0.823093 -0.454182 0.340936,
          0.629968 -0.454182 0.629968,
          0.340936 -0.454182 0.823093,
          0.00000e+0 -0.454182 0.890909,
          -0.340936 -0.454182 0.823093,
          -0.629968 -0.454182 0.629968,
          -0.823093 -0.454182 0.340936,
          -0.890909 -0.454182 2.52121e-17,
          -0.823093 -0.454182 -0.340936,
          -0.629968 -0.454182 -0.629968,
          -0.340936 -0.454182 -0.823093,
          -2.39515e-16 -0.454182 -0.890909,
          0.340936 -0.454182 -0.823093,
          0.629968 -0.454182 -0.629968,
          0.823093 -0.454182 -0.340936 ] }
        normalIndex [
          0, 1, 17, 16, -1,
          0, 15, 14, 13, 12, 11, 10, 9, 8, 7, 6, 5, 4, 3, 2, 1, -1,
          0, 16, 31, 15, -1,
          1, 2, 18, 17, -1,
          2, 3, 19, 18, -1,
          3, 4, 20, 19, -1,
          4, 5, 21, 20, -1,
          5, 6, 22, 21, -1,
          6, 7, 23, 22, -1,
          7, 8, 24, 23, -1,
          8, 9, 25, 24, -1,
          9, 10, 26, 25, -1,
          10, 11, 27, 26, -1,
          11, 12, 28, 27, -1,
          12, 13, 29, 28, -1,
          13, 14, 30, 29, -1,
          14, 15, 31, 30, -1,
          16, 17, 18, 19, 20, 21, 22, 23, 24, 25, 26, 27, 28, 29, 30, 31, -1 ]
      }
    }
  ]
}

DEF cube1_copy5 Transform {
  children [
    Shape {
      appearance Appearance {
        material DEF color_000_000_000 Material {
          diffuseColor 0.00000e+0 0.00000e+0 0.00000e+0
          emissiveColor 0.00000e+0 0.00000e+0 0.00000e+0
          specularColor 1.00000 1.00000 1.00000
          ambientIntensity 1.00000
          transparency 0.00000e+0
          shininess 1.00000
        }
      }
      geometry IndexedFaceSet {
        normalPerVertex TRUE
        coord Coordinate { point [
          1.00000 0.310000 2.10380,
          1.11480 0.287164 2.10380,
          1.21213 0.222132 2.10380,
          1.27716 0.124805 2.10380,
          1.30000 9.99960e-3 2.10380,
          1.27716 -0.104805 2.10380,
          1.21213 -0.202132 2.10380,
          1.11480 -0.267164 2.10380,
          0.999999 -0.290000 2.10380,
          0.885194 -0.267164 2.10380,
          0.787868 -0.202132 2.10380,
          0.722836 -0.104805 2.10380,
          0.700000 1.00004e-2 2.10380,
          0.722836 0.124805 2.10380,
          0.787868 0.222132 2.10380,
          0.885195 0.287164 2.10380,
          1.00000 0.310000 1.89620,
          1.11481 0.287164 1.89620,
          1.21213 0.222132 1.89620,
          1.27716 0.124805 1.89620,
          1.30000 9.99960e-3 1.89620,
          1.27716 -0.104805 1.89620,
          1.21213 -0.202132 1.89620,
          1.11480 -0.267164 1.89620,
          1.00000 -0.290000 1.89620,
          0.885195 -0.267164 1.89620,
          0.787868 -0.202132 1.89620,
          0.722837 -0.104805 1.89620,
          0.700001 1.00004e-2 1.89620,
          0.722837 0.124805 1.89620,
          0.787869 0.222132 1.89620,
          0.885196 0.287164 1.89620 ] }
        coordIndex [
          0, 1, 17, 16, -1,
          0, 15, 14, 13, 12, 11, 10, 9, 8, 7, 6, 5, 4, 3, 2, 1, -1,
          0, 16, 31, 15, -1,
          1, 2, 18, 17, -1,
          2, 3, 19, 18, -1,
          3, 4, 20, 19, -1,
          4, 5, 21, 20, -1,
          5, 6, 22, 21, -1,
          6, 7, 23, 22, -1,
          7, 8, 24, 23, -1,
          8, 9, 25, 24, -1,
          9, 10, 26, 25, -1,
          10, 11, 27, 26, -1,
          11, 12, 28, 27, -1,
          12, 13, 29, 28, -1,
          13, 14, 30, 29, -1,
          14, 15, 31, 30, -1,
          16, 17, 18, 19, 20, 21, 22, 23, 24, 25, 26, 27, 28, 29, 30, 31, -1 ]
        normal Normal { vector [
          1.10631e-6 0.890909 0.454182,
          0.340937 0.823092 0.454183,
          0.629968 0.629966 0.454183,
          0.823092 0.340934 0.454184,
          0.890908 -1.18205e-6 0.454184,
          0.823091 -0.340936 0.454184,
          0.629967 -0.629968 0.454183,
          0.340935 -0.823093 0.454183,
          -1.25780e-6 -0.890909 0.454182,
          -0.340938 -0.823093 0.454181,
          -0.629970 -0.629967 0.454180,
          -0.823095 -0.340935 0.454179,
          -0.890911 1.18205e-6 0.454179,
          -0.823094 0.340937 0.454179,
          -0.629968 0.629969 0.454180,
          -0.340936 0.823093 0.454181,
          1.25780e-6 0.890909 -0.454182,
          0.340938 0.823093 -0.454181,
          0.629970 0.629967 -0.454180,
          0.823095 0.340935 -0.454179,
          0.890911 -1.18205e-6 -0.454179,
          0.823094 -0.340937 -0.454179,
          0.629968 -0.629969 -0.454180,
          0.340936 -0.823093 -0.454181,
          -1.10631e-6 -0.890909 -0.454182,
          -0.340937 -0.823092 -0.454183,
          -0.629968 -0.629966 -0.454183,
          -0.823092 -0.340934 -0.454184,
          -0.890908 1.18205e-6 -0.454184,
          -0.823091 0.340936 -0.454184,
          -0.629967 0.629968 -0.454183,
          -0.340935 0.823093 -0.454183 ] }
        normalIndex [
          0, 1, 17, 16, -1,
          0, 15, 14, 13, 12, 11, 10, 9, 8, 7, 6, 5, 4, 3, 2, 1, -1,
          0, 16, 31, 15, -1,
          1, 2, 18, 17, -1,
          2, 3, 19, 18, -1,
          3, 4, 20, 19, -1,
          4, 5, 21, 20, -1,
          5, 6, 22, 21, -1,
          6, 7, 23, 22, -1,
          7, 8, 24, 23, -1,
          8, 9, 25, 24, -1,
          9, 10, 26, 25, -1,
          10, 11, 27, 26, -1,
          11, 12, 28, 27, -1,
          12, 13, 29, 28, -1,
          13, 14, 30, 29, -1,
          14, 15, 31, 30, -1,
          16, 17, 18, 19, 20, 21, 22, 23, 24, 25, 26, 27, 28, 29, 30, 31, -1 ]
      }
    }
  ]
}

DEF cube1_copy4 Transform {
  children [
    Shape {
      appearance Appearance {
        material USE color_000_000_000
      }
      geometry IndexedFaceSet {
        normalPerVertex TRUE
        coord Coordinate { point [
          -0.978653 0.312434 2.12674,
          -0.863849 0.289598 2.12674,
          -0.766522 0.224566 2.12674,
          -0.701490 0.127239 2.12674,
          -0.678654 1.24339e-2 2.12674,
          -0.701491 -0.102371 2.12674,
          -0.766522 -0.199698 2.12674,
          -0.863849 -0.264730 2.12674,
          -0.978654 -0.287566 2.12674,
          -1.09346 -0.264729 2.12674,
          -1.19079 -0.199697 2.12674,
          -1.25582 -0.102370 2.12674,
          -1.27865 1.24347e-2 2.12674,
          -1.25582 0.127240 2.12674,
          -1.19079 0.224567 2.12674,
          -1.09346 0.289598 2.12674,
          -0.978653 0.312434 1.91914,
          -0.863848 0.289598 1.91914,
          -0.766521 0.224566 1.91914,
          -0.701489 0.127239 1.91914,
          -0.678653 1.24339e-2 1.91914,
          -0.701490 -0.102371 1.91914,
          -0.766522 -0.199698 1.91914,
          -0.863849 -0.264730 1.91914,
          -0.978653 -0.287566 1.91914,
          -1.09346 -0.264729 1.91914,
          -1.19079 -0.199697 1.91914,
          -1.25582 -0.102370 1.91914,
          -1.27865 1.24347e-2 1.91914,
          -1.25582 0.127240 1.91914,
          -1.19078 0.224567 1.91914,
          -1.09346 0.289598 1.91914 ] }
        coordIndex [
          0, 1, 17, 16, -1,
          0, 15, 14, 13, 12, 11, 10, 9, 8, 7, 6, 5, 4, 3, 2, 1, -1,
          0, 16, 31, 15, -1,
          1, 2, 18, 17, -1,
          2, 3, 19, 18, -1,
          3, 4, 20, 19, -1,
          4, 5, 21, 20, -1,
          5, 6, 22, 21, -1,
          6, 7, 23, 22, -1,
          7, 8, 24, 23, -1,
          8, 9, 25, 24, -1,
          9, 10, 26, 25, -1,
          10, 11, 27, 26, -1,
          11, 12, 28, 27, -1,
          12, 13, 29, 28, -1,
          13, 14, 30, 29, -1,
          14, 15, 31, 30, -1,
          16, 17, 18, 19, 20, 21, 22, 23, 24, 25, 26, 27, 28, 29, 30, 31, -1 ]
        normal Normal { vector [
          1.10631e-6 0.890909 0.454182,
          0.340937 0.823092 0.454183,
          0.629968 0.629966 0.454183,
          0.823092 0.340934 0.454184,
          0.890908 -1.18205e-6 0.454184,
          0.823091 -0.340936 0.454184,
          0.629967 -0.629968 0.454183,
          0.340935 -0.823093 0.454183,
          -1.25780e-6 -0.890909 0.454182,
          -0.340938 -0.823093 0.454181,
          -0.629970 -0.629967 0.454180,
          -0.823095 -0.340935 0.454179,
          -0.890911 1.18205e-6 0.454179,
          -0.823094 0.340937 0.454179,
          -0.629968 0.629969 0.454180,
          -0.340936 0.823093 0.454181,
          1.25780e-6 0.890909 -0.454182,
          0.340938 0.823093 -0.454181,
          0.629970 0.629967 -0.454180,
          0.823095 0.340935 -0.454179,
          0.890911 -1.18205e-6 -0.454179,
          0.823094 -0.340937 -0.454179,
          0.629968 -0.629969 -0.454180,
          0.340936 -0.823093 -0.454181,
          -1.10631e-6 -0.890909 -0.454182,
          -0.340937 -0.823092 -0.454183,
          -0.629968 -0.629966 -0.454183,
          -0.823092 -0.340934 -0.454184,
          -0.890908 1.18205e-6 -0.454184,
          -0.823091 0.340936 -0.454184,
          -0.629967 0.629968 -0.454183,
          -0.340935 0.823093 -0.454183 ] }
        normalIndex [
          0, 1, 17, 16, -1,
          0, 15, 14, 13, 12, 11, 10, 9, 8, 7, 6, 5, 4, 3, 2, 1, -1,
          0, 16, 31, 15, -1,
          1, 2, 18, 17, -1,
          2, 3, 19, 18, -1,
          3, 4, 20, 19, -1,
          4, 5, 21, 20, -1,
          5, 6, 22, 21, -1,
          6, 7, 23, 22, -1,
          7, 8, 24, 23, -1,
          8, 9, 25, 24, -1,
          9, 10, 26, 25, -1,
          10, 11, 27, 26, -1,
          11, 12, 28, 27, -1,
          12, 13, 29, 28, -1,
          13, 14, 30, 29, -1,
          14, 15, 31, 30, -1,
          16, 17, 18, 19, 20, 21, 22, 23, 24, 25, 26, 27, 28, 29, 30, 31, -1 ]
      }
    }
  ]
}

DEF cube1_sep12 Transform {
  children [
    Shape {
      appearance Appearance {
        material DEF body Material {
          diffuseColor 0.333333 0.773333 0.166667
          emissiveColor 0.00000e+0 0.00000e+0 0.00000e+0
          specularColor 1.00000 1.00000 1.00000
          ambientIntensity 1.00000
          transparency 0.00000e+0
          shininess 1.00000
        }
      }
      geometry IndexedFaceSet {
        normalPerVertex TRUE
        coord Coordinate { point [
          1.97940 -0.987572 3.00000e-2,
          -2.02671 -0.987557 3.00000e-2,
          -2.02670 1.01244 3.00000e-2,
          1.97940 1.01243 3.00000e-2,
          1.97928 -0.965897 1.62838,
          -2.02659 -1.00923 1.62838,
          1.97940 -0.547572 2.03000,
          -2.02671 -0.547557 2.03000,
          -2.02670 1.01244 1.03000,
          1.97940 1.01243 1.03000,
          1.97940 0.840695 2.03000,
          -2.02670 0.840710 2.03000 ] }
        coordIndex [
          0, 1, 2, 3, -1,
          0, 3, 9, 10, 6, 4, -1,
          0, 4, 5, 1, -1,
          1, 5, 7, 11, 8, 2, -1,
          2, 8, 9, 3, -1,
          4, 6, 7, 5, -1,
          6, 10, 11, 7, -1,
          8, 11, 10, 9, -1 ]
        normal Normal { vector [
          0.579424 -0.576318 -0.576304,
          -0.575262 -0.578398 -0.578385,
          -0.577356 0.577341 -0.577354,
          0.577359 0.577339 -0.577353,
          0.482885 -0.801183 0.353452,
          -0.476200 -0.804525 0.354927,
          0.473939 -0.318365 0.820991,
          -0.471264 -0.318883 0.822329,
          -0.448512 0.890547 7.59167e-2,
          0.448518 0.890544 7.59167e-2,
          0.547303 0.539387 0.639938,
          -0.547300 0.539389 0.639939 ] }
        normalIndex [
          0, 1, 2, 3, -1,
          0, 3, 9, 10, 6, 4, -1,
          0, 4, 5, 1, -1,
          1, 5, 7, 11, 8, 2, -1,
          2, 8, 9, 3, -1,
          4, 6, 7, 5, -1,
          6, 10, 11, 7, -1,
          8, 11, 10, 9, -1 ]
      }
    }
  ]
}

DEF cube1_sep8 Transform {
  children [
    Shape {
      appearance Appearance {
        material DEF pins Material {
          diffuseColor 0.760000 0.760000 0.760000
          emissiveColor 0.00000e+0 0.00000e+0 0.00000e+0
          specularColor 1.00000 1.00000 1.00000
          ambientIntensity 1.00000
          transparency 0.00000e+0
          shininess 1.00000
        }
      }
      geometry IndexedFaceSet {
        normalPerVertex TRUE
        coord Coordinate { point [
          0.995347 0.194432 1.60000e-2,
          1.06499 0.180578 1.60001e-2,
          1.12404 0.141125 1.60002e-2,
          1.16349 8.20798e-2 1.60002e-2,
          1.17735 1.24314e-2 1.60002e-2,
          1.16349 -5.72169e-2 1.60002e-2,
          1.12404 -0.116262 1.60002e-2,
          1.06499 -0.155714 1.60001e-2,
          0.995346 -0.169568 1.60000e-2,
          0.925698 -0.155714 1.59999e-2,
          0.866653 -0.116262 1.59998e-2,
          0.827200 -5.72165e-2 1.59998e-2,
          0.813346 1.24319e-2 1.59998e-2,
          0.827200 8.20803e-2 1.59998e-2,
          0.866653 0.141125 1.59998e-2,
          0.925698 0.180578 1.59999e-2,
          0.995347 0.194432 -0.986000,
          1.06500 0.180578 -0.986000,
          1.12404 0.141125 -0.986000,
          1.16349 8.20798e-2 -0.986000,
          1.17735 1.24314e-2 -0.986000,
          1.16349 -5.72169e-2 -0.986000,
          1.12404 -0.116262 -0.986000,
          1.06499 -0.155714 -0.986000,
          0.995347 -0.169568 -0.986000,
          0.925698 -0.155714 -0.986000,
          0.866653 -0.116262 -0.986000,
          0.827201 -5.72165e-2 -0.986000,
          0.813347 1.24319e-2 -0.986000,
          0.827201 8.20803e-2 -0.986000,
          0.866654 0.141125 -0.986000,
          0.925699 0.180578 -0.986000 ] }
        coordIndex [
          0, 1, 17, 16, -1,
          0, 15, 14, 13, 12, 11, 10, 9, 8, 7, 6, 5, 4, 3, 2, 1, -1,
          0, 16, 31, 15, -1,
          1, 2, 18, 17, -1,
          2, 3, 19, 18, -1,
          3, 4, 20, 19, -1,
          4, 5, 21, 20, -1,
          5, 6, 22, 21, -1,
          6, 7, 23, 22, -1,
          7, 8, 24, 23, -1,
          8, 9, 25, 24, -1,
          9, 10, 26, 25, -1,
          10, 11, 27, 26, -1,
          11, 12, 28, 27, -1,
          12, 13, 29, 28, -1,
          13, 14, 30, 29, -1,
          14, 15, 31, 30, -1,
          16, 17, 18, 19, 20, 21, 22, 23, 24, 25, 26, 27, 28, 29, 30, 31, -1 ]
        normal Normal { vector [
          5.79448e-7 0.890909 0.454182,
          0.340937 0.823092 0.454182,
          0.629968 0.629967 0.454182,
          0.823093 0.340935 0.454182,
          0.890909 -1.18205e-6 0.454182,
          0.823092 -0.340937 0.454182,
          0.629967 -0.629969 0.454182,
          0.340935 -0.823093 0.454182,
          -1.78466e-6 -0.890909 0.454182,
          -0.340938 -0.823092 0.454181,
          -0.629969 -0.629967 0.454181,
          -0.823094 -0.340935 0.454181,
          -0.890909 1.18205e-6 0.454181,
          -0.823093 0.340937 0.454181,
          -0.629968 0.629969 0.454181,
          -0.340936 0.823093 0.454181,
          1.78466e-6 0.890909 -0.454182,
          0.340938 0.823092 -0.454181,
          0.629969 0.629967 -0.454181,
          0.823094 0.340935 -0.454181,
          0.890909 -1.18205e-6 -0.454181,
          0.823093 -0.340937 -0.454181,
          0.629968 -0.629969 -0.454181,
          0.340936 -0.823093 -0.454181,
          -5.79448e-7 -0.890909 -0.454182,
          -0.340937 -0.823092 -0.454182,
          -0.629968 -0.629967 -0.454182,
          -0.823093 -0.340935 -0.454182,
          -0.890909 1.18205e-6 -0.454182,
          -0.823092 0.340937 -0.454182,
          -0.629967 0.629969 -0.454182,
          -0.340935 0.823093 -0.454182 ] }
        normalIndex [
          0, 1, 17, 16, -1,
          0, 15, 14, 13, 12, 11, 10, 9, 8, 7, 6, 5, 4, 3, 2, 1, -1,
          0, 16, 31, 15, -1,
          1, 2, 18, 17, -1,
          2, 3, 19, 18, -1,
          3, 4, 20, 19, -1,
          4, 5, 21, 20, -1,
          5, 6, 22, 21, -1,
          6, 7, 23, 22, -1,
          7, 8, 24, 23, -1,
          8, 9, 25, 24, -1,
          9, 10, 26, 25, -1,
          10, 11, 27, 26, -1,
          11, 12, 28, 27, -1,
          12, 13, 29, 28, -1,
          13, 14, 30, 29, -1,
          14, 15, 31, 30, -1,
          16, 17, 18, 19, 20, 21, 22, 23, 24, 25, 26, 27, 28, 29, 30, 31, -1 ]
      }
    }
  ]
}

DEF cube1 Transform {
  children [
    Shape {
      appearance Appearance {
        material USE pins
      }
      geometry IndexedFaceSet {
        normalPerVertex TRUE
        coord Coordinate { point [
          -0.978653 0.194434 1.60000e-2,
          -0.909005 0.180580 1.60001e-2,
          -0.849960 0.141128 1.60002e-2,
          -0.810508 8.20825e-2 1.60002e-2,
          -0.796654 1.24341e-2 1.60002e-2,
          -0.810508 -5.72143e-2 1.60002e-2,
          -0.849960 -0.116259 1.60002e-2,
          -0.909006 -0.155712 1.60001e-2,
          -0.978654 -0.169566 1.60000e-2,
          -1.04830 -0.155712 1.59999e-2,
          -1.10735 -0.116259 1.59998e-2,
          -1.14680 -5.72139e-2 1.59998e-2,
          -1.16065 1.24345e-2 1.59998e-2,
          -1.14680 8.20829e-2 1.59998e-2,
          -1.10735 0.141128 1.59998e-2,
          -1.04830 0.180580 1.59999e-2,
          -0.978653 0.194434 -0.986000,
          -0.909005 0.180580 -0.986000,
          -0.849960 0.141128 -0.986000,
          -0.810507 8.20825e-2 -0.986000,
          -0.796653 1.24341e-2 -0.986000,
          -0.810507 -5.72143e-2 -0.986000,
          -0.849960 -0.116259 -0.986000,
          -0.909005 -0.155712 -0.986000,
          -0.978653 -0.169566 -0.986000,
          -1.04830 -0.155712 -0.986000,
          -1.10735 -0.116259 -0.986000,
          -1.14680 -5.72139e-2 -0.986000,
          -1.16065 1.24345e-2 -0.986000,
          -1.14680 8.20829e-2 -0.986000,
          -1.10735 0.141128 -0.986000,
          -1.04830 0.180580 -0.986000 ] }
        coordIndex [
          0, 1, 17, 16, -1,
          0, 15, 14, 13, 12, 11, 10, 9, 8, 7, 6, 5, 4, 3, 2, 1, -1,
          0, 16, 31, 15, -1,
          1, 2, 18, 17, -1,
          2, 3, 19, 18, -1,
          3, 4, 20, 19, -1,
          4, 5, 21, 20, -1,
          5, 6, 22, 21, -1,
          6, 7, 23, 22, -1,
          7, 8, 24, 23, -1,
          8, 9, 25, 24, -1,
          9, 10, 26, 25, -1,
          10, 11, 27, 26, -1,
          11, 12, 28, 27, -1,
          12, 13, 29, 28, -1,
          13, 14, 30, 29, -1,
          14, 15, 31, 30, -1,
          16, 17, 18, 19, 20, 21, 22, 23, 24, 25, 26, 27, 28, 29, 30, 31, -1 ]
        normal Normal { vector [
          5.79448e-7 0.890909 0.454182,
          0.340937 0.823092 0.454182,
          0.629968 0.629967 0.454182,
          0.823093 0.340935 0.454182,
          0.890909 -1.18205e-6 0.454182,
          0.823092 -0.340937 0.454182,
          0.629967 -0.629969 0.454182,
          0.340935 -0.823093 0.454182,
          -1.78466e-6 -0.890909 0.454182,
          -0.340938 -0.823092 0.454181,
          -0.629969 -0.629967 0.454181,
          -0.823094 -0.340935 0.454181,
          -0.890909 1.18205e-6 0.454181,
          -0.823093 0.340937 0.454181,
          -0.629968 0.629969 0.454181,
          -0.340936 0.823093 0.454181,
          1.78466e-6 0.890909 -0.454182,
          0.340938 0.823092 -0.454181,
          0.629969 0.629967 -0.454181,
          0.823094 0.340935 -0.454181,
          0.890909 -1.18205e-6 -0.454181,
          0.823093 -0.340937 -0.454181,
          0.629968 -0.629969 -0.454181,
          0.340936 -0.823093 -0.454181,
          -5.79448e-7 -0.890909 -0.454182,
          -0.340937 -0.823092 -0.454182,
          -0.629968 -0.629967 -0.454182,
          -0.823093 -0.340935 -0.454182,
          -0.890909 1.18205e-6 -0.454182,
          -0.823092 0.340937 -0.454182,
          -0.629967 0.629969 -0.454182,
          -0.340935 0.823093 -0.454182 ] }
        normalIndex [
          0, 1, 17, 16, -1,
          0, 15, 14, 13, 12, 11, 10, 9, 8, 7, 6, 5, 4, 3, 2, 1, -1,
          0, 16, 31, 15, -1,
          1, 2, 18, 17, -1,
          2, 3, 19, 18, -1,
          3, 4, 20, 19, -1,
          4, 5, 21, 20, -1,
          5, 6, 22, 21, -1,
          6, 7, 23, 22, -1,
          7, 8, 24, 23, -1,
          8, 9, 25, 24, -1,
          9, 10, 26, 25, -1,
          10, 11, 27, 26, -1,
          11, 12, 28, 27, -1,
          12, 13, 29, 28, -1,
          13, 14, 30, 29, -1,
          14, 15, 31, 30, -1,
          16, 17, 18, 19, 20, 21, 22, 23, 24, 25, 26, 27, 28, 29, 30, 31, -1 ]
      }
    }
  ]
}

