(module SIL-3 (layer F.Cu) (tedit 53D6E048)
  (descr "Connecteur 3 pins")
  (tags "CONN DEV")
  (fp_text reference SIL-3 (at 0 -2.54) (layer F.SilkS)
    (effects (font (size 1.7907 1.07696) (thickness 0.3048)))
  )
  (fp_text value Val** (at 0 -2.54) (layer F.SilkS) hide
    (effects (font (size 1.524 1.016) (thickness 0.3048)))
  )
  (fp_line (start -3.81 1.27) (end -3.81 -1.27) (layer F.SilkS) (width 0.3048))
  (fp_line (start -3.81 -1.27) (end 3.81 -1.27) (layer F.SilkS) (width 0.3048))
  (fp_line (start 3.81 -1.27) (end 3.81 1.27) (layer F.SilkS) (width 0.3048))
  (fp_line (start 3.81 1.27) (end -3.81 1.27) (layer F.SilkS) (width 0.3048))
  (fp_line (start -1.27 -1.27) (end -1.27 1.27) (layer F.SilkS) (width 0.3048))
  (pad 1 thru_hole rect (at -2.54 0) (size 1.397 1.397) (drill 0.8128) (layers *.Cu *.Mask F.SilkS))
  (pad 2 thru_hole circle (at 0 0) (size 1.397 1.397) (drill 0.8128) (layers *.Cu *.Mask F.SilkS))
  (pad 3 thru_hole circle (at 2.54 0) (size 1.397 1.397) (drill 0.8128) (layers *.Cu *.Mask F.SilkS))
  (model _modules/Connect.pretty/SIL-3.wrl
    (at (xyz 0 0 0))
    (scale (xyz 1 1 1))
    (rotate (xyz 0 0 0))
  )
)
