(module HE_Series_7dot5 (layer F.Cu) (tedit 53D39528)
  (fp_text reference HE_Series_7dot5 (at 0 -9.5) (layer F.SilkS)
    (effects (font (size 1 1) (thickness 0.15)))
  )
  (fp_text value VAL** (at 0 9.5) (layer F.SilkS) hide
    (effects (font (size 1 1) (thickness 0.15)))
  )
  (fp_text user - (at 4 -3) (layer F.SilkS)
    (effects (font (size 2 2) (thickness 0.3)))
  )
  (fp_text user + (at -4 3) (layer F.SilkS)
    (effects (font (size 2 2) (thickness 0.3)))
  )
  (fp_circle (center 0 0) (end 8.25 0) (layer F.SilkS) (width 0.15))
  (pad 1 thru_hole circle (at -3.75 0) (size 2.2 2.2) (drill 1.2) (layers *.Cu *.Mask F.SilkS))
  (pad 2 thru_hole rect (at 3.75 0) (size 2.2 2.2) (drill 1.2) (layers *.Cu *.Mask F.SilkS))
)
