(module DEx-Series (layer F.Cu) (tedit 53D3238F)
  (fp_text reference DEx-Series (at 0 -2.5) (layer F.SilkS)
    (effects (font (size 1 1) (thickness 0.15)))
  )
  (fp_text value VAL** (at 0 2.5) (layer F.SilkS) hide
    (effects (font (size 1 1) (thickness 0.15)))
  )
  (fp_line (start -4 -1) (end -3.5 -1.5) (layer F.SilkS) (width 0.15))
  (fp_line (start -3.5 -1.5) (end 3.5 -1.5) (layer F.SilkS) (width 0.15))
  (fp_line (start 3.5 -1.5) (end 4 -1) (layer F.SilkS) (width 0.15))
  (fp_line (start 4 -1) (end 4 1) (layer F.SilkS) (width 0.15))
  (fp_line (start 4 1) (end 3.5 1.5) (layer F.SilkS) (width 0.15))
  (fp_line (start 3.5 1.5) (end -3.5 1.5) (layer F.SilkS) (width 0.15))
  (fp_line (start -3.5 1.5) (end -4 1) (layer F.SilkS) (width 0.15))
  (fp_line (start -4 1) (end -4 -1) (layer F.SilkS) (width 0.15))
  (pad 1 thru_hole circle (at -2.5 0) (size 2 2) (drill 1) (layers *.Cu *.Mask F.SilkS))
  (pad 2 thru_hole circle (at 2.5 0) (size 2 2) (drill 1) (layers *.Cu *.Mask F.SilkS))
)
