EESchema Schematic File Version 2
LIBS:_ams-reg
LIBS:_cirrus-logic
LIBS:conn
LIBS:device
LIBS:_maxim
LIBS:power
LIBS:_ptc
LIBS:regul
LIBS:_st-audio
LIBS:_switchcraft
LIBS:_ti-reg
LIBS:_wolfson
LIBS:_wurth
LIBS:_toshiba
LIBS:sta308a-ev-rev-c-cache
EELAYER 24 0
EELAYER END
$Descr USLegal 14000 8500
encoding utf-8
Sheet 4 7
Title "S/P DIF Section"
Date ""
Rev "0.1"
Comp ""
Comment1 ""
Comment2 ""
Comment3 ""
Comment4 ""
$EndDescr
Text HLabel 4400 3500 0    60   Input ~ 0
SPDifPortIn_0
Text HLabel 4400 3600 0    60   Input ~ 0
SPDifPortIn_1
Text HLabel 4400 3700 0    60   Input ~ 0
SPDifPortIn_2
$Comp
L INDUCTOR_SMALL L14
U 1 1 53CF241A
P 3850 1500
F 0 "L14" H 3850 1600 50  0000 C CNN
F 1 "Ferrite" H 3850 1450 50  0000 C CNN
F 2 "smd_packages:l_0805" H 3850 1500 60  0001 C CNN
F 3 "" H 3850 1500 60  0000 C CNN
F 4 "TDK Corporation" H 3850 1500 60  0001 C CNN "Manufacturer"
F 5 "MMZ2012R121A" H 3850 1500 60  0001 C CNN "Manufacturer Part Number"
F 6 "445-2190-1-ND" H 3850 1500 60  0001 C CNN "Digi-Key Part Number"
F 7 "FERRITE CHIP 120 OHM 800MA 0805" H 3850 1500 60  0001 C CNN "Description"
	1    3850 1500
	1    0    0    -1  
$EndComp
$Comp
L C C34
U 1 1 53CF2425
P 4700 1800
F 0 "C34" V 4550 1750 40  0000 L CNN
F 1 "100n" V 4850 1750 40  0000 L CNN
F 2 "smd_packages:c_0603" H 4738 1650 30  0001 C CNN
F 3 "" H 4700 1800 60  0000 C CNN
F 4 "TDK Corporation" H 4700 1800 60  0001 C CNN "Manufacturer"
F 5 "C1608X7R1E104K080AA" H 4700 1800 60  0001 C CNN "Manufacturer Part Number"
F 6 "445-1316-1-ND" H 4700 1800 60  0001 C CNN "Digi-Key Part Number"
F 7 "CAP CER 0.1UF 25V 10% X7R 0603" H 4700 1800 60  0001 C CNN "Description"
	1    4700 1800
	1    0    0    -1  
$EndComp
$Comp
L C C35
U 1 1 53CF2459
P 5600 1800
F 0 "C35" V 5450 1750 40  0000 L CNN
F 1 "100n" V 5750 1750 40  0000 L CNN
F 2 "smd_packages:c_0603" H 5638 1650 30  0001 C CNN
F 3 "" H 5600 1800 60  0000 C CNN
F 4 "TDK Corporation" H 5600 1800 60  0001 C CNN "Manufacturer"
F 5 "C1608X7R1E104K080AA" H 5600 1800 60  0001 C CNN "Manufacturer Part Number"
F 6 "445-1316-1-ND" H 5600 1800 60  0001 C CNN "Digi-Key Part Number"
F 7 "CAP CER 0.1UF 25V 10% X7R 0603" H 5600 1800 60  0001 C CNN "Description"
	1    5600 1800
	1    0    0    -1  
$EndComp
$Comp
L C C36
U 1 1 53CF2484
P 7200 2700
F 0 "C36" V 7050 2650 40  0000 L CNN
F 1 "100n" V 7350 2650 40  0000 L CNN
F 2 "smd_packages:c_0603" H 7238 2550 30  0001 C CNN
F 3 "" H 7200 2700 60  0000 C CNN
F 4 "TDK Corporation" H 7200 2700 60  0001 C CNN "Manufacturer"
F 5 "C1608X7R1E104K080AA" H 7200 2700 60  0001 C CNN "Manufacturer Part Number"
F 6 "445-1316-1-ND" H 7200 2700 60  0001 C CNN "Digi-Key Part Number"
F 7 "CAP CER 0.1UF 25V 10% X7R 0603" H 7200 2700 60  0001 C CNN "Description"
	1    7200 2700
	1    0    0    -1  
$EndComp
$Comp
L CS8416-CSZ U12
U 1 1 53CFCB15
P 5600 4100
F 0 "U12" H 5000 5300 60  0000 C CNN
F 1 "CS8416-CSZ" H 4950 2900 60  0000 C CNN
F 2 "smd_packages:so28" H 5100 3100 60  0001 C CNN
F 3 "" H 5700 4300 60  0000 C CNN
F 4 "Cirrus Logic Inc" H 5600 4100 60  0001 C CNN "Manufacturer"
F 5 "CS8416-CSZ" H 5600 4100 60  0001 C CNN "Manufacturer Part Number"
F 6 "598-1123-5-ND" H 5600 4100 60  0001 C CNN "Digi-Key Part Number"
F 7 "IC RCVR DGTL 192KHZ 28SOIC COMM" H 5600 4100 60  0001 C CNN "Description"
	1    5600 4100
	1    0    0    -1  
$EndComp
$Comp
L CP1 C33
U 1 1 53CFD759
P 4300 1800
F 0 "C33" H 4050 1800 50  0000 L CNN
F 1 "10u/16V" H 3900 1650 50  0000 L CNN
F 2 "smd_packages:c_elec_4x5_7" H 4300 1800 60  0001 C CNN
F 3 "" H 4300 1800 60  0000 C CNN
F 4 "Panasonic Electronic Components" H 4300 1800 60  0001 C CNN "Manufacturer"
F 5 "EEE-1CA100SR" H 4300 1800 60  0001 C CNN "Manufacturer Part Number"
F 6 "PCE3878CT-ND" H 4300 1800 60  0001 C CNN "Digi-Key Part Number"
F 7 "CAP ALUM 10UF 16V 20% SMD" H 4300 1800 60  0001 C CNN "Description"
	1    4300 1800
	1    0    0    -1  
$EndComp
$Comp
L +3.3V #PWR072
U 1 1 53CFFF0A
P 5600 1500
F 0 "#PWR072" H 5600 1460 30  0001 C CNN
F 1 "+3.3V" H 5600 1610 30  0000 C CNN
F 2 "" H 5600 1500 60  0000 C CNN
F 3 "" H 5600 1500 60  0000 C CNN
	1    5600 1500
	1    0    0    -1  
$EndComp
$Comp
L +3.3V #PWR073
U 1 1 53CFFF1E
P 5600 2600
F 0 "#PWR073" H 5600 2560 30  0001 C CNN
F 1 "+3.3V" H 5600 2710 30  0000 C CNN
F 2 "" H 5600 2600 60  0000 C CNN
F 3 "" H 5600 2600 60  0000 C CNN
	1    5600 2600
	1    0    0    -1  
$EndComp
$Comp
L VPP #PWR66
U 1 1 53D00144
P 3400 1400
F 0 "#PWR66" H 3400 1600 40  0001 C CNN
F 1 "VPP" H 3400 1550 40  0000 C CNN
F 2 "" H 3400 1400 60  0000 C CNN
F 3 "" H 3400 1400 60  0000 C CNN
	1    3400 1400
	1    0    0    -1  
$EndComp
$Comp
L GND #PWR074
U 1 1 53D001D3
P 5600 2100
F 0 "#PWR074" H 5600 2100 30  0001 C CNN
F 1 "GND" H 5600 2030 30  0001 C CNN
F 2 "" H 5600 2100 60  0000 C CNN
F 3 "" H 5600 2100 60  0000 C CNN
	1    5600 2100
	1    0    0    -1  
$EndComp
$Comp
L GND #PWR075
U 1 1 53D001E7
P 4700 2100
F 0 "#PWR075" H 4700 2100 30  0001 C CNN
F 1 "GND" H 4700 2030 30  0001 C CNN
F 2 "" H 4700 2100 60  0000 C CNN
F 3 "" H 4700 2100 60  0000 C CNN
	1    4700 2100
	1    0    0    -1  
$EndComp
$Comp
L GND #PWR076
U 1 1 53D00210
P 4300 2100
F 0 "#PWR076" H 4300 2100 30  0001 C CNN
F 1 "GND" H 4300 2030 30  0001 C CNN
F 2 "" H 4300 2100 60  0000 C CNN
F 3 "" H 4300 2100 60  0000 C CNN
	1    4300 2100
	1    0    0    -1  
$EndComp
$Comp
L GND #PWR077
U 1 1 53D00224
P 7200 3000
F 0 "#PWR077" H 7200 3000 30  0001 C CNN
F 1 "GND" H 7200 2930 30  0001 C CNN
F 2 "" H 7200 3000 60  0000 C CNN
F 3 "" H 7200 3000 60  0000 C CNN
	1    7200 3000
	1    0    0    -1  
$EndComp
$Comp
L C C37
U 1 1 53D0026A
P 4200 3100
F 0 "C37" V 4050 3050 40  0000 L CNN
F 1 "100n" V 4350 3050 40  0000 L CNN
F 2 "smd_packages:c_0603" H 4238 2950 30  0001 C CNN
F 3 "" H 4200 3100 60  0000 C CNN
F 4 "TDK Corporation" H 4200 3100 60  0001 C CNN "Manufacturer"
F 5 "C1608X7R1E104K080AA" H 4200 3100 60  0001 C CNN "Manufacturer Part Number"
F 6 "445-1316-1-ND" H 4200 3100 60  0001 C CNN "Digi-Key Part Number"
F 7 "CAP CER 0.1UF 25V 10% X7R 0603" H 4200 3100 60  0001 C CNN "Description"
	1    4200 3100
	0    1    1    0   
$EndComp
$Comp
L R RFLT1
U 1 1 53D00540
P 5700 6150
F 0 "RFLT1" V 5780 6150 40  0000 C CNN
F 1 "3K0" V 5707 6151 40  0000 C CNN
F 2 "smd_packages:r_0603" V 5630 6150 30  0001 C CNN
F 3 "" H 5700 6150 30  0000 C CNN
F 4 "Vishay Dale" V 5700 6150 60  0001 C CNN "Manufacturer"
F 5 "CRCW06033K00FKEA" V 5700 6150 60  0001 C CNN "Manufacturer Part Number"
F 6 "541-3.00KHCT-ND" V 5700 6150 60  0001 C CNN "Digi-Key Part Number"
F 7 "RES 3.00K OHM 1/10W 1% 0603 SMD" V 5700 6150 60  0001 C CNN "Description"
	1    5700 6150
	1    0    0    -1  
$EndComp
$Comp
L C CFLT1
U 1 1 53D0057B
P 5700 6700
F 0 "CFLT1" H 5700 6800 40  0000 L CNN
F 1 "22n" H 5706 6615 40  0000 L CNN
F 2 "smd_packages:c_0603" H 5738 6550 30  0001 C CNN
F 3 "" H 5700 6700 60  0000 C CNN
F 4 "TDK Corporation" H 5700 6700 60  0001 C CNN "Manufacturer"
F 5 "C1608X7R1H223K080AA" H 5700 6700 60  0001 C CNN "Manufacturer Part Number"
F 6 "445-1312-1-ND" H 5700 6700 60  0001 C CNN "Digi-Key Part Number"
F 7 "CAP CER 0.022UF 50V 10% X7R 0603" H 5700 6700 60  0001 C CNN "Description"
	1    5700 6700
	1    0    0    -1  
$EndComp
$Comp
L C CRIP1
U 1 1 53D005A6
P 6000 6400
F 0 "CRIP1" H 6000 6500 40  0000 L CNN
F 1 "1n" H 6006 6315 40  0000 L CNN
F 2 "smd_packages:c_0603" H 6038 6250 30  0001 C CNN
F 3 "" H 6000 6400 60  0000 C CNN
F 4 "TDK Corporation" H 6000 6400 60  0001 C CNN "Manufacturer"
F 5 "C1608C0G1H102G080AA" H 6000 6400 60  0001 C CNN "Manufacturer Part Number"
F 6 "445-5377-1-ND" H 6000 6400 60  0001 C CNN "Digi-Key Part Number"
F 7 "CAP CER 1000PF 50V 2% NP0 0603" H 6000 6400 60  0001 C CNN "Description"
	1    6000 6400
	1    0    0    -1  
$EndComp
$Comp
L GND #PWR078
U 1 1 53D00615
P 6000 5600
F 0 "#PWR078" H 6000 5600 30  0001 C CNN
F 1 "GND" H 6000 5530 30  0001 C CNN
F 2 "" H 6000 5600 60  0000 C CNN
F 3 "" H 6000 5600 60  0000 C CNN
	1    6000 5600
	1    0    0    -1  
$EndComp
$Comp
L GND #PWR079
U 1 1 53D00629
P 5400 5600
F 0 "#PWR079" H 5400 5600 30  0001 C CNN
F 1 "GND" H 5400 5530 30  0001 C CNN
F 2 "" H 5400 5600 60  0000 C CNN
F 3 "" H 5400 5600 60  0000 C CNN
	1    5400 5600
	1    0    0    -1  
$EndComp
$Comp
L GND #PWR080
U 1 1 53D006B4
P 5700 7100
F 0 "#PWR080" H 5700 7100 30  0001 C CNN
F 1 "GND" H 5700 7030 30  0001 C CNN
F 2 "" H 5700 7100 60  0000 C CNN
F 3 "" H 5700 7100 60  0000 C CNN
	1    5700 7100
	1    0    0    -1  
$EndComp
NoConn ~ 6600 4500
Wire Wire Line
	6000 2700 6000 2400
Wire Wire Line
	7200 2300 7200 2500
Wire Wire Line
	6800 2500 6800 2400
Wire Wire Line
	4400 3100 4500 3100
Wire Wire Line
	4500 3100 4500 3300
Wire Wire Line
	4500 3300 4600 3300
Wire Wire Line
	4600 3500 4400 3500
Wire Wire Line
	4400 3600 4600 3600
Wire Wire Line
	4600 3700 4400 3700
Wire Wire Line
	6000 5800 6000 6200
Wire Wire Line
	5700 5800 6000 5800
Wire Wire Line
	5700 5500 5700 5900
Connection ~ 5700 5800
Wire Wire Line
	5700 6500 5700 6400
Wire Wire Line
	6000 7000 6000 6600
Wire Wire Line
	5700 7000 6000 7000
Wire Wire Line
	5700 6900 5700 7100
Connection ~ 5700 7000
Wire Wire Line
	5200 2700 5200 1500
Wire Wire Line
	5200 1500 4100 1500
Wire Wire Line
	4300 1600 4300 1500
Connection ~ 4300 1500
Wire Wire Line
	4700 1500 4700 1600
Connection ~ 4700 1500
Wire Wire Line
	4300 2000 4300 2100
Wire Wire Line
	4700 2000 4700 2100
Wire Wire Line
	3600 1500 3400 1500
Wire Wire Line
	3400 1500 3400 1400
Wire Wire Line
	5600 2600 5600 2700
Wire Wire Line
	5600 2000 5600 2100
Wire Wire Line
	5600 1600 5600 1500
Wire Wire Line
	5400 5500 5400 5600
Wire Wire Line
	6000 5500 6000 5600
Wire Wire Line
	7200 2900 7200 3000
$Comp
L R R11
U 1 1 53D00D47
P 6800 2750
F 0 "R11" V 6880 2750 40  0000 C CNN
F 1 "47K" V 6807 2751 40  0000 C CNN
F 2 "smd_packages:r_0603" V 6730 2750 30  0001 C CNN
F 3 "" H 6800 2750 30  0000 C CNN
F 4 "Vishay Dale" V 6800 2750 60  0001 C CNN "Manufacturer"
F 5 "CRCW060347K0FKEA" V 6800 2750 60  0001 C CNN "Manufacturer Part Number"
F 6 "541-47.0KHCT-ND" V 6800 2750 60  0001 C CNN "Digi-Key Part Number"
F 7 "RES 47.0K OHM 1/10W 1% 0603 SMD" V 6800 2750 60  0001 C CNN "Description"
	1    6800 2750
	1    0    0    -1  
$EndComp
Text HLabel 7000 3300 2    60   Output ~ 0
SDOUT
Text HLabel 7000 3400 2    60   BiDi ~ 0
OLRCK
Text HLabel 7000 3500 2    60   BiDi ~ 0
OSCLK
Text HLabel 7000 3800 2    60   Output ~ 0
RMCK
Wire Wire Line
	6000 2400 7200 2400
Connection ~ 6800 2400
$Comp
L +3.3V #PWR081
U 1 1 53D01063
P 7200 2300
F 0 "#PWR081" H 7200 2260 30  0001 C CNN
F 1 "+3.3V" H 7200 2410 30  0000 C CNN
F 2 "" H 7200 2300 60  0000 C CNN
F 3 "" H 7200 2300 60  0000 C CNN
	1    7200 2300
	1    0    0    -1  
$EndComp
Connection ~ 7200 2400
Wire Wire Line
	6800 3000 6800 3300
Wire Wire Line
	6600 3300 7000 3300
Connection ~ 6800 3300
Wire Wire Line
	7000 3400 6600 3400
Wire Wire Line
	6600 3500 7000 3500
Wire Wire Line
	7000 3800 6600 3800
$Comp
L GND #PWR082
U 1 1 53D01C4B
P 4400 4350
F 0 "#PWR082" H 4400 4350 30  0001 C CNN
F 1 "GND" H 4400 4280 30  0001 C CNN
F 2 "" H 4400 4350 60  0000 C CNN
F 3 "" H 4400 4350 60  0000 C CNN
	1    4400 4350
	-1   0    0    1   
$EndComp
$Comp
L GND #PWR083
U 1 1 53D01CA3
P 6800 4650
F 0 "#PWR083" H 6800 4650 30  0001 C CNN
F 1 "GND" H 6800 4580 30  0001 C CNN
F 2 "" H 6800 4650 60  0000 C CNN
F 3 "" H 6800 4650 60  0000 C CNN
	1    6800 4650
	1    0    0    -1  
$EndComp
Wire Wire Line
	6600 4600 6800 4600
Wire Wire Line
	6800 4600 6800 4650
Wire Wire Line
	4600 4400 4400 4400
Wire Wire Line
	4400 4350 4400 4500
Wire Wire Line
	4400 4500 4600 4500
Connection ~ 4400 4400
Text HLabel 4300 4600 0    60   Input ~ 0
SCL
Text HLabel 4300 4700 0    60   BiDi ~ 0
SDA
Text HLabel 4300 4800 0    60   Input ~ 0
RST
Wire Wire Line
	4300 4600 4600 4600
Wire Wire Line
	4600 4700 4300 4700
Wire Wire Line
	4300 4800 4600 4800
$Comp
L R R10
U 1 1 53D03C20
P 7150 4400
F 0 "R10" V 7230 4400 40  0000 C CNN
F 1 "1K0" V 7157 4401 40  0000 C CNN
F 2 "smd_packages:r_0603" V 7080 4400 30  0001 C CNN
F 3 "" H 7150 4400 30  0000 C CNN
F 4 "Vishay Dale" V 7150 4400 60  0001 C CNN "Manufacturer"
F 5 "CRCW06031K00FKEA" V 7150 4400 60  0001 C CNN "Manufacturer Part Number"
F 6 "541-1.00KHCT-ND" V 7150 4400 60  0001 C CNN "Digi-Key Part Number"
F 7 "RES 1.00K OHM 1/10W 1% 0603 SMD" V 7150 4400 60  0001 C CNN "Description"
	1    7150 4400
	0    -1   -1   0   
$EndComp
$Comp
L LED D1
U 1 1 53D03D1C
P 7700 4400
F 0 "D1" H 7700 4500 50  0000 C CNN
F 1 "LED" H 7700 4300 50  0001 C CNN
F 2 "smd_packages:led-0805" H 7700 4400 60  0001 C CNN
F 3 "" H 7700 4400 60  0000 C CNN
F 4 "Lite-On Inc" H 7700 4400 60  0001 C CNN "Manufacturer"
F 5 "LTST-C170TBKT" H 7700 4400 60  0001 C CNN "Manufacturer Part Number"
F 6 "160-1579-1-ND" H 7700 4400 60  0001 C CNN "Digi-Key Part Number"
F 7 "LED BLUE CLEAR 0805 SMD" H 7700 4400 60  0001 C CNN "Description"
	1    7700 4400
	1    0    0    -1  
$EndComp
$Comp
L GND #PWR084
U 1 1 53D03FD0
P 8000 4500
F 0 "#PWR084" H 8000 4500 30  0001 C CNN
F 1 "GND" H 8000 4430 30  0001 C CNN
F 2 "" H 8000 4500 60  0000 C CNN
F 3 "" H 8000 4500 60  0000 C CNN
	1    8000 4500
	1    0    0    -1  
$EndComp
Wire Wire Line
	7900 4400 8000 4400
Wire Wire Line
	8000 4400 8000 4500
Wire Wire Line
	7500 4400 7400 4400
Wire Wire Line
	6600 4400 6900 4400
NoConn ~ 4600 3900
NoConn ~ 4600 4000
NoConn ~ 4600 4100
NoConn ~ 4600 4200
Text HLabel 3800 3100 0    60   Input ~ 0
SPDifPortIn_N
Wire Wire Line
	3800 3100 4000 3100
Text HLabel 7000 4000 2    60   Input ~ 0
OMCK
Wire Wire Line
	6600 4000 7000 4000
Text HLabel 4400 3800 0    60   Input ~ 0
SPDifPortIn_3
Wire Wire Line
	4600 3800 4400 3800
$EndSCHEMATC
