EESchema Schematic File Version 2
LIBS:_ams-reg
LIBS:_cirrus-logic
LIBS:conn
LIBS:device
LIBS:_maxim
LIBS:power
LIBS:_ptc
LIBS:regul
LIBS:_st-audio
LIBS:_switchcraft
LIBS:_ti-reg
LIBS:_wolfson
LIBS:_wurth
LIBS:_toshiba
LIBS:sta308a-ev-rev-c-cache
EELAYER 24 0
EELAYER END
$Descr USLegal 14000 8500
encoding utf-8
Sheet 7 7
Title ""
Date ""
Rev ""
Comp ""
Comment1 ""
Comment2 ""
Comment3 ""
Comment4 ""
$EndDescr
$Comp
L STA516B U8
U 1 1 53F2D880
P 5700 3650
F 0 "U8" H 5700 5950 60  0000 C CNN
F 1 "STA516B" H 5200 1350 60  0000 C CNN
F 2 "_st:powerso36" H 5700 3650 60  0001 C CNN
F 3 "" H 5700 3650 60  0000 C CNN
F 4 "STMicroelectronics" H 5700 3650 60  0001 C CNN "Manufacturer"
F 5 "STA516B13TR" H 5700 3650 60  0001 C CNN "Manufacturer Part Number"
F 6 "497-11459-1-ND" H 5700 3650 60  0001 C CNN "Digi-Key Part Number"
F 7 "IC QUAD HALF BRIDGE AMP PWRS036" H 5700 3650 60  0001 C CNN "Description"
	1    5700 3650
	1    0    0    -1  
$EndComp
Text HLabel 4300 1400 0    60   Input ~ 0
IN3A
Text HLabel 4300 1500 0    60   Input ~ 0
IN3B
$Comp
L GND #PWR0132
U 1 1 53F2D895
P 3900 4900
F 0 "#PWR0132" H 3900 4900 30  0001 C CNN
F 1 "GND" H 3900 4830 30  0001 C CNN
F 2 "" H 3900 4900 60  0000 C CNN
F 3 "" H 3900 4900 60  0000 C CNN
	1    3900 4900
	1    0    0    -1  
$EndComp
$Comp
L GND #PWR0133
U 1 1 53F2D8A3
P 4500 5450
F 0 "#PWR0133" H 4500 5450 30  0001 C CNN
F 1 "GND" H 4500 5380 30  0001 C CNN
F 2 "" H 4500 5450 60  0000 C CNN
F 3 "" H 4500 5450 60  0000 C CNN
	1    4500 5450
	1    0    0    -1  
$EndComp
$Comp
L GND #PWR0134
U 1 1 53F2D8A9
P 4500 5650
F 0 "#PWR0134" H 4500 5650 30  0001 C CNN
F 1 "GND" H 4500 5580 30  0001 C CNN
F 2 "" H 4500 5650 60  0000 C CNN
F 3 "" H 4500 5650 60  0000 C CNN
	1    4500 5650
	1    0    0    -1  
$EndComp
$Comp
L GND #PWR0135
U 1 1 53F2D8B3
P 4500 2150
F 0 "#PWR0135" H 4500 2150 30  0001 C CNN
F 1 "GND" H 4500 2080 30  0001 C CNN
F 2 "" H 4500 2150 60  0000 C CNN
F 3 "" H 4500 2150 60  0000 C CNN
	1    4500 2150
	1    0    0    -1  
$EndComp
Text HLabel 4200 2300 0    60   Input ~ 0
PWD_516b
$Comp
L GND #PWR0136
U 1 1 53F2D8C5
P 4300 3600
F 0 "#PWR0136" H 4300 3600 30  0001 C CNN
F 1 "GND" H 4300 3530 30  0001 C CNN
F 2 "" H 4300 3600 60  0000 C CNN
F 3 "" H 4300 3600 60  0000 C CNN
	1    4300 3600
	1    0    0    -1  
$EndComp
$Comp
L +3.3V #PWR0137
U 1 1 53F2D8D0
P 3500 1800
F 0 "#PWR0137" H 3500 1760 30  0001 C CNN
F 1 "+3.3V" H 3500 1910 30  0000 C CNN
F 2 "" H 3500 1800 60  0000 C CNN
F 3 "" H 3500 1800 60  0000 C CNN
	1    3500 1800
	1    0    0    -1  
$EndComp
Text HLabel 3400 3800 0    60   Output ~ 0
TH_WARb
$Comp
L C C95
U 1 1 53F2D8DD
P 4300 3300
F 0 "C95" H 4150 3400 40  0000 L CNN
F 1 "100n" H 4100 3200 40  0000 L CNN
F 2 "smd_packages:c_0603" H 4338 3150 30  0001 C CNN
F 3 "" H 4300 3300 60  0000 C CNN
F 4 "TDK Corporation" H 4300 3300 60  0001 C CNN "Manufacturer"
F 5 "C1608X7R1E104K080AA" H 4300 3300 60  0001 C CNN "Manufacturer Part Number"
F 6 "445-1316-1-ND" H 4300 3300 60  0001 C CNN "Digi-Key Part Number"
F 7 "CAP CER 0.1UF 25V 10% X7R 0603" H 4300 3300 60  0001 C CNN "Description"
	1    4300 3300
	1    0    0    -1  
$EndComp
$Comp
L C C104
U 1 1 53F2D8E8
P 4300 4600
F 0 "C104" H 4150 4700 40  0000 L CNN
F 1 "100n" H 4100 4500 40  0000 L CNN
F 2 "smd_packages:c_0603" H 4338 4450 30  0001 C CNN
F 3 "" H 4300 4600 60  0000 C CNN
F 4 "TDK Corporation" H 4300 4600 60  0001 C CNN "Manufacturer"
F 5 "C1608X7R1E104K080AA" H 4300 4600 60  0001 C CNN "Manufacturer Part Number"
F 6 "445-1316-1-ND" H 4300 4600 60  0001 C CNN "Digi-Key Part Number"
F 7 "CAP CER 0.1UF 25V 10% X7R 0603" H 4300 4600 60  0001 C CNN "Description"
	1    4300 4600
	1    0    0    -1  
$EndComp
$Comp
L C C103
U 1 1 53F2D8F3
P 3900 4600
F 0 "C103" H 3750 4700 40  0000 L CNN
F 1 "100n" H 3700 4500 40  0000 L CNN
F 2 "smd_packages:c_0603" H 3938 4450 30  0001 C CNN
F 3 "" H 3900 4600 60  0000 C CNN
F 4 "TDK Corporation" H 3900 4600 60  0001 C CNN "Manufacturer"
F 5 "C1608X7R1E104K080AA" H 3900 4600 60  0001 C CNN "Manufacturer Part Number"
F 6 "445-1316-1-ND" H 3900 4600 60  0001 C CNN "Digi-Key Part Number"
F 7 "CAP CER 0.1UF 25V 10% X7R 0603" H 3900 4600 60  0001 C CNN "Description"
	1    3900 4600
	1    0    0    -1  
$EndComp
$Comp
L C C102
U 1 1 53F2D8FE
P 3500 4600
F 0 "C102" H 3350 4700 40  0000 L CNN
F 1 "100n" H 3300 4500 40  0000 L CNN
F 2 "smd_packages:c_0603" H 3538 4450 30  0001 C CNN
F 3 "" H 3500 4600 60  0000 C CNN
F 4 "TDK Corporation" H 3500 4600 60  0001 C CNN "Manufacturer"
F 5 "C1608X7R1E104K080AA" H 3500 4600 60  0001 C CNN "Manufacturer Part Number"
F 6 "445-1316-1-ND" H 3500 4600 60  0001 C CNN "Digi-Key Part Number"
F 7 "CAP CER 0.1UF 25V 10% X7R 0603" H 3500 4600 60  0001 C CNN "Description"
	1    3500 4600
	1    0    0    -1  
$EndComp
$Comp
L R R23
U 1 1 53F2D909
P 3500 2850
F 0 "R23" V 3580 2850 40  0000 C CNN
F 1 "10K" V 3507 2851 40  0000 C CNN
F 2 "smd_packages:r_0603" V 3430 2850 30  0001 C CNN
F 3 "" H 3500 2850 30  0000 C CNN
F 4 "Vishay Dale" V 3500 2850 60  0001 C CNN "Manufacturer"
F 5 "CRCW060310K0FKEA" V 3500 2850 60  0001 C CNN "Manufacturer Part Number"
F 6 "541-10.0KHCT-ND" V 3500 2850 60  0001 C CNN "Digi-Key Part Number"
F 7 "RES 10.0K OHM 1/10W 1% 0603 SMD" V 3500 2850 60  0001 C CNN "Description"
	1    3500 2850
	-1   0    0    1   
$EndComp
$Comp
L R R9
U 1 1 53F2D914
P 4300 2650
F 0 "R9" V 4380 2650 40  0000 C CNN
F 1 "10K" V 4307 2651 40  0000 C CNN
F 2 "smd_packages:r_0603" V 4230 2650 30  0001 C CNN
F 3 "" H 4300 2650 30  0000 C CNN
F 4 "Vishay Dale" V 4300 2650 60  0001 C CNN "Manufacturer"
F 5 "CRCW060310K0FKEA" V 4300 2650 60  0001 C CNN "Manufacturer Part Number"
F 6 "541-10.0KHCT-ND" V 4300 2650 60  0001 C CNN "Digi-Key Part Number"
F 7 "RES 10.0K OHM 1/10W 1% 0603 SMD" V 4300 2650 60  0001 C CNN "Description"
	1    4300 2650
	-1   0    0    1   
$EndComp
$Comp
L GND #PWR0138
U 1 1 53F2D91B
P 5700 6400
F 0 "#PWR0138" H 5700 6400 30  0001 C CNN
F 1 "GND" H 5700 6330 30  0001 C CNN
F 2 "" H 5700 6400 60  0000 C CNN
F 3 "" H 5700 6400 60  0000 C CNN
	1    5700 6400
	1    0    0    -1  
$EndComp
$Comp
L INDUCTOR L12
U 1 1 53F2D92B
P 8600 1800
F 0 "L12" V 8550 1800 40  0000 C CNN
F 1 "22uH" V 8700 1800 40  0000 C CNN
F 2 "_wurth:7447017" H 8600 1800 60  0001 C CNN
F 3 "" H 8600 1800 60  0000 C CNN
F 4 "Wurth Electronics Inc" V 8600 1800 60  0001 C CNN "Manufacturer"
F 5 "7447017" V 8600 1800 60  0001 C CNN "Manufacturer Part Number"
F 6 "732-1418-ND" V 8600 1800 60  0001 C CNN "Digi-Key Part Number"
F 7 "CHOKE TOROID 22UH 5.0A VERT" V 8600 1800 60  0001 C CNN "Description"
	1    8600 1800
	0    -1   -1   0   
$EndComp
$Comp
L R R8
U 1 1 53F2D941
P 9000 2500
F 0 "R8" V 9100 2400 40  0000 C CNN
F 1 "6R" V 9007 2501 40  0000 C CNN
F 2 "_ohmite:tww-series-5w" V 8930 2500 30  0001 C CNN
F 3 "" H 9000 2500 30  0000 C CNN
F 4 "Ohmite" V 9000 2500 60  0001 C CNN "Manufacturer"
F 5 "TWW5J5R6E" V 9000 2500 60  0001 C CNN "Manufacturer Part Number"
F 6 "TWW5J5R6E-ND" V 9000 2500 60  0001 C CNN "Digi-Key Part Number"
F 7 "RES 5.6 OHM 5W 5% RADIAL" V 9000 2500 60  0001 C CNN "Description"
	1    9000 2500
	0    -1   -1   0   
$EndComp
$Comp
L C C89
U 1 1 53F2D952
P 9000 2100
F 0 "C89" H 9000 2200 40  0000 L CNN
F 1 "100n" H 9006 2015 40  0000 L CNN
F 2 "_epcos:b32620" H 9038 1950 30  0001 C CNN
F 3 "" H 9000 2100 60  0000 C CNN
F 4 "EPCOS Inc" H 9000 2100 60  0001 C CNN "Manufacturer"
F 5 "B32620A3104J" H 9000 2100 60  0001 C CNN "Manufacturer Part Number"
F 6 "495-1294-ND" H 9000 2100 60  0001 C CNN "Digi-Key Part Number"
F 7 "CAP FILM 0.1UF 250VDC RADIAL" H 9000 2100 60  0001 C CNN "Description"
	1    9000 2100
	1    0    0    -1  
$EndComp
$Comp
L C C91
U 1 1 53F2D973
P 8200 2200
F 0 "C91" H 8200 2300 40  0000 L CNN
F 1 "330p" H 8206 2115 40  0000 L CNN
F 2 "_murata:dex-series" H 8238 2050 30  0001 C CNN
F 3 "" H 8200 2200 60  0000 C CNN
F 4 "Murata Electronics North America" H 8200 2200 60  0001 C CNN "Manufacturer"
F 5 "DEA1X3A331JA2B" H 8200 2200 60  0001 C CNN "Manufacturer Part Number"
F 6 "490-4158-ND" H 8200 2200 60  0001 C CNN "Digi-Key Part Number"
F 7 "CAP CER 330PF 1KV 5% RADIAL" H 8200 2200 60  0001 C CNN "Description"
	1    8200 2200
	1    0    0    -1  
$EndComp
$Comp
L R R6
U 1 1 53F2D97E
P 7900 2150
F 0 "R6" V 7980 2150 40  0000 C CNN
F 1 "20R" V 7907 2151 40  0000 C CNN
F 2 "_ohmite:tww-series-5w" V 7830 2150 30  0001 C CNN
F 3 "" H 7900 2150 30  0000 C CNN
F 4 "Ohmite" V 7900 2150 60  0001 C CNN "Manufacturer"
F 5 "TWW5J20RE" V 7900 2150 60  0001 C CNN "Manufacturer Part Number"
F 6 "TWW5J20RE-ND" V 7900 2150 60  0001 C CNN "Digi-Key Part Number"
F 7 "RES 20 OHM 5W 5% RADIAL" V 7900 2150 60  0001 C CNN "Description"
	1    7900 2150
	-1   0    0    1   
$EndComp
$Comp
L GND #PWR0139
U 1 1 53F2D9A6
P 7500 2500
F 0 "#PWR0139" H 7500 2500 30  0001 C CNN
F 1 "GND" H 7500 2430 30  0001 C CNN
F 2 "" H 7500 2500 60  0000 C CNN
F 3 "" H 7500 2500 60  0000 C CNN
	1    7500 2500
	-1   0    0    1   
$EndComp
$Comp
L GND #PWR0140
U 1 1 53F2D9AC
P 7500 1400
F 0 "#PWR0140" H 7500 1400 30  0001 C CNN
F 1 "GND" H 7500 1330 30  0001 C CNN
F 2 "" H 7500 1400 60  0000 C CNN
F 3 "" H 7500 1400 60  0000 C CNN
	1    7500 1400
	-1   0    0    1   
$EndComp
$Comp
L GND #PWR0141
U 1 1 53F2D9B2
P 6900 2300
F 0 "#PWR0141" H 6900 2300 30  0001 C CNN
F 1 "GND" H 6900 2230 30  0001 C CNN
F 2 "" H 6900 2300 60  0000 C CNN
F 3 "" H 6900 2300 60  0000 C CNN
	1    6900 2300
	1    0    0    -1  
$EndComp
$Comp
L GND #PWR0142
U 1 1 53F2D9B8
P 6900 3400
F 0 "#PWR0142" H 6900 3400 30  0001 C CNN
F 1 "GND" H 6900 3330 30  0001 C CNN
F 2 "" H 6900 3400 60  0000 C CNN
F 3 "" H 6900 3400 60  0000 C CNN
	1    6900 3400
	1    0    0    -1  
$EndComp
$Comp
L CP1 C92
U 1 1 53F2D9D0
P 7100 2600
F 0 "C92" V 7200 2350 50  0000 L CNN
F 1 "1000u" V 7000 2200 50  0000 L CNN
F 2 "_nichicon:he_series_7dot5" H 7100 2600 60  0001 C CNN
F 3 "" H 7100 2600 60  0000 C CNN
F 4 "Nichicon" V 7100 2600 60  0001 C CNN "Manufacturer"
F 5 "UHE1J102MHD" V 7100 2600 60  0001 C CNN "Manufacturer Part Number"
F 6 "493-1654-ND" V 7100 2600 60  0001 C CNN "Digi-Key Part Number"
F 7 "CAP ALUM 1000UF 63V 20% RADIAL" V 7100 2600 60  0001 C CNN "Description"
	1    7100 2600
	0    -1   -1   0   
$EndComp
$Comp
L CP1 C87
U 1 1 53F2D9DD
P 7100 1500
F 0 "C87" V 7200 1250 50  0000 L CNN
F 1 "1000u" V 7000 1100 50  0000 L CNN
F 2 "_nichicon:he_series_7dot5" H 7100 1500 60  0001 C CNN
F 3 "" H 7100 1500 60  0000 C CNN
F 4 "Nichicon" V 7100 1500 60  0001 C CNN "Manufacturer"
F 5 "UHE1J102MHD" V 7100 1500 60  0001 C CNN "Manufacturer Part Number"
F 6 "493-1654-ND" V 7100 1500 60  0001 C CNN "Digi-Key Part Number"
F 7 "CAP ALUM 1000UF 63V 20% RADIAL" V 7100 1500 60  0001 C CNN "Description"
	1    7100 1500
	0    -1   -1   0   
$EndComp
$Comp
L C C93
U 1 1 53F2D9F3
P 9000 2650
F 0 "C93" V 8950 2500 40  0000 L CNN
F 1 "100n" V 9050 2450 40  0000 L CNN
F 2 "_epcos:b32620" H 9038 2500 30  0001 C CNN
F 3 "" H 9000 2650 60  0000 C CNN
F 4 "EPCOS Inc" H 9000 2650 60  0001 C CNN "Manufacturer"
F 5 "B32620A3104J" H 9000 2650 60  0001 C CNN "Manufacturer Part Number"
F 6 "495-1294-ND" H 9000 2650 60  0001 C CNN "Digi-Key Part Number"
F 7 "CAP FILM 0.1UF 250VDC RADIAL" H 9000 2650 60  0001 C CNN "Description"
	1    9000 2650
	0    1    1    0   
$EndComp
$Comp
L C C90
U 1 1 53F2D9FE
P 9900 2150
F 0 "C90" H 9900 2250 40  0000 L CNN
F 1 "1u" H 9906 2065 40  0000 L CNN
F 2 "_epcos:b32522" H 9938 2000 30  0001 C CNN
F 3 "" H 9900 2150 60  0000 C CNN
F 4 "EPCOS Inc" H 9900 2150 60  0001 C CNN "Manufacturer"
F 5 "B32522N3105K" H 9900 2150 60  0001 C CNN "Manufacturer Part Number"
F 6 "495-4181-ND" H 9900 2150 60  0001 C CNN "Digi-Key Part Number"
F 7 "CAP FILM 1UF 250VDC RADIAL" H 9900 2150 60  0001 C CNN "Description"
	1    9900 2150
	1    0    0    -1  
$EndComp
$Comp
L GND #PWR0143
U 1 1 53F2DA95
P 7500 5000
F 0 "#PWR0143" H 7500 5000 30  0001 C CNN
F 1 "GND" H 7500 4930 30  0001 C CNN
F 2 "" H 7500 5000 60  0000 C CNN
F 3 "" H 7500 5000 60  0000 C CNN
	1    7500 5000
	-1   0    0    1   
$EndComp
$Comp
L GND #PWR0144
U 1 1 53F2DA9B
P 7500 3900
F 0 "#PWR0144" H 7500 3900 30  0001 C CNN
F 1 "GND" H 7500 3830 30  0001 C CNN
F 2 "" H 7500 3900 60  0000 C CNN
F 3 "" H 7500 3900 60  0000 C CNN
	1    7500 3900
	-1   0    0    1   
$EndComp
$Comp
L GND #PWR0145
U 1 1 53F2DAA1
P 6900 4800
F 0 "#PWR0145" H 6900 4800 30  0001 C CNN
F 1 "GND" H 6900 4730 30  0001 C CNN
F 2 "" H 6900 4800 60  0000 C CNN
F 3 "" H 6900 4800 60  0000 C CNN
	1    6900 4800
	1    0    0    -1  
$EndComp
$Comp
L GND #PWR0146
U 1 1 53F2DAA7
P 6900 5900
F 0 "#PWR0146" H 6900 5900 30  0001 C CNN
F 1 "GND" H 6900 5830 30  0001 C CNN
F 2 "" H 6900 5900 60  0000 C CNN
F 3 "" H 6900 5900 60  0000 C CNN
	1    6900 5900
	1    0    0    -1  
$EndComp
$Comp
L CP1 C108
U 1 1 53F2DABF
P 7100 5100
F 0 "C108" V 7200 4850 50  0000 L CNN
F 1 "1000u" V 7000 4700 50  0000 L CNN
F 2 "_nichicon:he_series_7dot5" H 7100 5100 60  0001 C CNN
F 3 "" H 7100 5100 60  0000 C CNN
F 4 "Nichicon" V 7100 5100 60  0001 C CNN "Manufacturer"
F 5 "UHE1J102MHD" V 7100 5100 60  0001 C CNN "Manufacturer Part Number"
F 6 "493-1654-ND" V 7100 5100 60  0001 C CNN "Digi-Key Part Number"
F 7 "CAP ALUM 1000UF 63V 20% RADIAL" V 7100 5100 60  0001 C CNN "Description"
	1    7100 5100
	0    -1   -1   0   
$EndComp
$Comp
L CP1 C100
U 1 1 53F2DACC
P 7100 4000
F 0 "C100" V 7200 3750 50  0000 L CNN
F 1 "1000u" V 7000 3600 50  0000 L CNN
F 2 "_nichicon:he_series_7dot5" H 7100 4000 60  0001 C CNN
F 3 "" H 7100 4000 60  0000 C CNN
F 4 "Nichicon" V 7100 4000 60  0001 C CNN "Manufacturer"
F 5 "UHE1J102MHD" V 7100 4000 60  0001 C CNN "Manufacturer Part Number"
F 6 "493-1654-ND" V 7100 4000 60  0001 C CNN "Digi-Key Part Number"
F 7 "CAP ALUM 1000UF 63V 20% RADIAL" V 7100 4000 60  0001 C CNN "Description"
	1    7100 4000
	0    -1   -1   0   
$EndComp
Text HLabel 4300 1600 0    60   Input ~ 0
IN4A
Text HLabel 4300 1700 0    60   Input ~ 0
IN4B
Text HLabel 7000 1100 2    60   Input ~ 0
PWR
$Comp
L DS18B20Z U9
U 1 1 53F2DB0B
P 5000 6500
F 0 "U9" H 5000 6775 60  0000 C CNN
F 1 "DS18B20Z" V 5375 6500 40  0000 C CNN
F 2 "smd_packages:so8n" H 4875 6325 60  0001 C CNN
F 3 "" H 5000 6500 60  0000 C CNN
F 4 "Maxim Integrated" H 5000 6500 60  0001 C CNN "Manufacturer"
F 5 "DS18B20Z+" H 5000 6500 60  0001 C CNN "Manufacturer Part Number"
F 6 "DS18B20Z+-ND" H 5000 6500 60  0001 C CNN "Digi-Key Part Number"
F 7 "IC THERM MICROLAN PROG-RES 8SOIC" H 5000 6500 60  0001 C CNN "Description"
	1    5000 6500
	1    0    0    -1  
$EndComp
$Comp
L +3.3V #PWR0147
U 1 1 53F2DB12
P 4500 6300
F 0 "#PWR0147" H 4500 6260 30  0001 C CNN
F 1 "+3.3V" H 4500 6410 30  0000 C CNN
F 2 "" H 4500 6300 60  0000 C CNN
F 3 "" H 4500 6300 60  0000 C CNN
	1    4500 6300
	1    0    0    -1  
$EndComp
$Comp
L GND #PWR0148
U 1 1 53F2DB18
P 4500 6700
F 0 "#PWR0148" H 4500 6700 30  0001 C CNN
F 1 "GND" H 4500 6630 30  0001 C CNN
F 2 "" H 4500 6700 60  0000 C CNN
F 3 "" H 4500 6700 60  0000 C CNN
	1    4500 6700
	1    0    0    -1  
$EndComp
Text HLabel 4300 6500 0    60   BiDi ~ 0
DQb
Text Notes 5200 6200 0    30   ~ 0
near to...
$Comp
L GND #PWR0149
U 1 1 53F2F2B7
P 8200 1950
F 0 "#PWR0149" H 8200 1950 30  0001 C CNN
F 1 "GND" H 8200 1880 30  0001 C CNN
F 2 "" H 8200 1950 60  0000 C CNN
F 3 "" H 8200 1950 60  0000 C CNN
	1    8200 1950
	-1   0    0    1   
$EndComp
$Comp
L R R5
U 1 1 53F3012E
P 9350 1700
F 0 "R5" V 9430 1700 40  0000 C CNN
F 1 "5K" V 9357 1701 40  0000 C CNN
F 2 "_ohmite:to-126" V 9280 1700 30  0001 C CNN
F 3 "" H 9350 1700 30  0000 C CNN
F 4 "Ohmite" V 9350 1700 60  0001 C CNN "Manufacturer"
F 5 "PF1262-5KF1" V 9350 1700 60  0001 C CNN "Manufacturer Part Number"
F 6 "696-1155-ND" V 9350 1700 60  0001 C CNN "Digi-Key Part Number"
F 7 "RES 5K OHM 20W 1% TO126" V 9350 1700 60  0001 C CNN "Description"
	1    9350 1700
	0    -1   -1   0   
$EndComp
$Comp
L GND #PWR0150
U 1 1 53F302DD
P 9300 2700
F 0 "#PWR0150" H 9300 2700 30  0001 C CNN
F 1 "GND" H 9300 2630 30  0001 C CNN
F 2 "" H 9300 2700 60  0000 C CNN
F 3 "" H 9300 2700 60  0000 C CNN
	1    9300 2700
	1    0    0    -1  
$EndComp
$Comp
L GND #PWR0151
U 1 1 53F30CB4
P 9600 2500
F 0 "#PWR0151" H 9600 2500 30  0001 C CNN
F 1 "GND" H 9600 2430 30  0001 C CNN
F 2 "" H 9600 2500 60  0000 C CNN
F 3 "" H 9600 2500 60  0000 C CNN
	1    9600 2500
	1    0    0    -1  
$EndComp
$Comp
L GND #PWR0152
U 1 1 53F30CE5
P 9900 2450
F 0 "#PWR0152" H 9900 2450 30  0001 C CNN
F 1 "GND" H 9900 2380 30  0001 C CNN
F 2 "" H 9900 2450 60  0000 C CNN
F 3 "" H 9900 2450 60  0000 C CNN
	1    9900 2450
	1    0    0    -1  
$EndComp
$Comp
L CP1 C88
U 1 1 53F30D40
P 10300 1800
F 0 "C88" V 10500 1750 50  0000 L CNN
F 1 "820u" V 10100 1700 50  0000 L CNN
F 2 "_nichicon:he_series_7dot5" H 10300 1800 60  0001 C CNN
F 3 "" H 10300 1800 60  0000 C CNN
F 4 "Nichicon" V 10300 1800 60  0001 C CNN "Manufacturer"
F 5 "UHE1J821MHD" V 10300 1800 60  0001 C CNN "Manufacturer Part Number"
F 6 "493-1652-ND" V 10300 1800 60  0001 C CNN "Digi-Key Part Number"
F 7 "CAP ALUM 820UF 63V 20% RADIAL" V 10300 1800 60  0001 C CNN "Description"
	1    10300 1800
	0    -1   -1   0   
$EndComp
$Comp
L GND #PWR0153
U 1 1 53F317B7
P 10600 2100
F 0 "#PWR0153" H 10600 2100 30  0001 C CNN
F 1 "GND" H 10600 2030 30  0001 C CNN
F 2 "" H 10600 2100 60  0000 C CNN
F 3 "" H 10600 2100 60  0000 C CNN
	1    10600 2100
	1    0    0    -1  
$EndComp
$Comp
L R R7
U 1 1 53F334B7
P 9600 2150
F 0 "R7" V 9680 2150 40  0000 C CNN
F 1 "5K" V 9607 2151 40  0000 C CNN
F 2 "_ohmite:to-126" V 9530 2150 30  0001 C CNN
F 3 "" H 9600 2150 30  0000 C CNN
F 4 "Ohmite" V 9600 2150 60  0001 C CNN "Manufacturer"
F 5 "PF1262-5KF1" V 9600 2150 60  0001 C CNN "Manufacturer Part Number"
F 6 "696-1155-ND" V 9600 2150 60  0001 C CNN "Digi-Key Part Number"
F 7 "RES 5K OHM 20W 1% TO126" V 9600 2150 60  0001 C CNN "Description"
	1    9600 2150
	1    0    0    -1  
$EndComp
$Comp
L PWR_FLAG #FLG0154
U 1 1 53F3378B
P 6800 1000
F 0 "#FLG0154" H 6800 1095 30  0001 C CNN
F 1 "PWR_FLAG" H 6800 1180 30  0000 C CNN
F 2 "" H 6800 1000 100 0000 C CNN
F 3 "" H 6800 1000 100 0000 C CNN
	1    6800 1000
	1    0    0    -1  
$EndComp
$Comp
L PWR_FLAG #FLG0155
U 1 1 53F33FE2
P 9700 1600
F 0 "#FLG0155" H 9700 1695 30  0001 C CNN
F 1 "PWR_FLAG" H 9700 1780 30  0000 C CNN
F 2 "" H 9700 1600 100 0000 C CNN
F 3 "" H 9700 1600 100 0000 C CNN
	1    9700 1600
	1    0    0    -1  
$EndComp
$Comp
L INDUCTOR L13
U 1 1 53F3447D
P 8600 3000
F 0 "L13" V 8550 3000 40  0000 C CNN
F 1 "22uH" V 8700 3000 40  0000 C CNN
F 2 "_wurth:7447017" H 8600 3000 60  0001 C CNN
F 3 "" H 8600 3000 60  0000 C CNN
F 4 "Wurth Electronics Inc" V 8600 3000 60  0001 C CNN "Manufacturer"
F 5 "7447017" V 8600 3000 60  0001 C CNN "Manufacturer Part Number"
F 6 "732-1418-ND" V 8600 3000 60  0001 C CNN "Digi-Key Part Number"
F 7 "CHOKE TOROID 22UH 5.0A VERT" V 8600 3000 60  0001 C CNN "Description"
	1    8600 3000
	0    -1   -1   0   
$EndComp
$Comp
L R R27
U 1 1 53F34487
P 9000 3700
F 0 "R27" V 9100 3600 40  0000 C CNN
F 1 "6R" V 9007 3701 40  0000 C CNN
F 2 "_ohmite:tww-series-5w" V 8930 3700 30  0001 C CNN
F 3 "" H 9000 3700 30  0000 C CNN
F 4 "Ohmite" V 9000 3700 60  0001 C CNN "Manufacturer"
F 5 "TWW5J5R6E" V 9000 3700 60  0001 C CNN "Manufacturer Part Number"
F 6 "TWW5J5R6E-ND" V 9000 3700 60  0001 C CNN "Digi-Key Part Number"
F 7 "RES 5.6 OHM 5W 5% RADIAL" V 9000 3700 60  0001 C CNN "Description"
	1    9000 3700
	0    -1   -1   0   
$EndComp
$Comp
L C C96
U 1 1 53F34491
P 9000 3300
F 0 "C96" H 9000 3400 40  0000 L CNN
F 1 "100n" H 9006 3215 40  0000 L CNN
F 2 "_epcos:b32620" H 9038 3150 30  0001 C CNN
F 3 "" H 9000 3300 60  0000 C CNN
F 4 "EPCOS Inc" H 9000 3300 60  0001 C CNN "Manufacturer"
F 5 "B32620A3104J" H 9000 3300 60  0001 C CNN "Manufacturer Part Number"
F 6 "495-1294-ND" H 9000 3300 60  0001 C CNN "Digi-Key Part Number"
F 7 "CAP FILM 0.1UF 250VDC RADIAL" H 9000 3300 60  0001 C CNN "Description"
	1    9000 3300
	1    0    0    -1  
$EndComp
$Comp
L C C98
U 1 1 53F3449B
P 8200 3400
F 0 "C98" H 8200 3500 40  0000 L CNN
F 1 "330p" H 8206 3315 40  0000 L CNN
F 2 "_murata:dex-series" H 8238 3250 30  0001 C CNN
F 3 "" H 8200 3400 60  0000 C CNN
F 4 "Murata Electronics North America" H 8200 3400 60  0001 C CNN "Manufacturer"
F 5 "DEA1X3A331JA2B" H 8200 3400 60  0001 C CNN "Manufacturer Part Number"
F 6 "490-4158-ND" H 8200 3400 60  0001 C CNN "Digi-Key Part Number"
F 7 "CAP CER 330PF 1KV 5% RADIAL" H 8200 3400 60  0001 C CNN "Description"
	1    8200 3400
	1    0    0    -1  
$EndComp
$Comp
L R R25
U 1 1 53F344A5
P 7900 3350
F 0 "R25" V 7980 3350 40  0000 C CNN
F 1 "20R" V 7907 3351 40  0000 C CNN
F 2 "_ohmite:tww-series-5w" V 7830 3350 30  0001 C CNN
F 3 "" H 7900 3350 30  0000 C CNN
F 4 "Ohmite" V 7900 3350 60  0001 C CNN "Manufacturer"
F 5 "TWW5J20RE" V 7900 3350 60  0001 C CNN "Manufacturer Part Number"
F 6 "TWW5J20RE-ND" V 7900 3350 60  0001 C CNN "Digi-Key Part Number"
F 7 "RES 20 OHM 5W 5% RADIAL" V 7900 3350 60  0001 C CNN "Description"
	1    7900 3350
	-1   0    0    1   
$EndComp
$Comp
L C C99
U 1 1 53F344AF
P 9000 3850
F 0 "C99" V 8950 3700 40  0000 L CNN
F 1 "100n" V 9050 3650 40  0000 L CNN
F 2 "_epcos:b32620" H 9038 3700 30  0001 C CNN
F 3 "" H 9000 3850 60  0000 C CNN
F 4 "EPCOS Inc" H 9000 3850 60  0001 C CNN "Manufacturer"
F 5 "B32620A3104J" H 9000 3850 60  0001 C CNN "Manufacturer Part Number"
F 6 "495-1294-ND" H 9000 3850 60  0001 C CNN "Digi-Key Part Number"
F 7 "CAP FILM 0.1UF 250VDC RADIAL" H 9000 3850 60  0001 C CNN "Description"
	1    9000 3850
	0    1    1    0   
$EndComp
$Comp
L C C97
U 1 1 53F344B9
P 9900 3350
F 0 "C97" H 9900 3450 40  0000 L CNN
F 1 "1u" H 9906 3265 40  0000 L CNN
F 2 "_epcos:b32522" H 9938 3200 30  0001 C CNN
F 3 "" H 9900 3350 60  0000 C CNN
F 4 "EPCOS Inc" H 9900 3350 60  0001 C CNN "Manufacturer"
F 5 "B32522N3105K" H 9900 3350 60  0001 C CNN "Manufacturer Part Number"
F 6 "495-4181-ND" H 9900 3350 60  0001 C CNN "Digi-Key Part Number"
F 7 "CAP FILM 1UF 250VDC RADIAL" H 9900 3350 60  0001 C CNN "Description"
	1    9900 3350
	1    0    0    -1  
$EndComp
$Comp
L GND #PWR0156
U 1 1 53F344BF
P 8200 3150
F 0 "#PWR0156" H 8200 3150 30  0001 C CNN
F 1 "GND" H 8200 3080 30  0001 C CNN
F 2 "" H 8200 3150 60  0000 C CNN
F 3 "" H 8200 3150 60  0000 C CNN
	1    8200 3150
	-1   0    0    1   
$EndComp
$Comp
L R R24
U 1 1 53F344C9
P 9350 2900
F 0 "R24" V 9430 2900 40  0000 C CNN
F 1 "5K" V 9357 2901 40  0000 C CNN
F 2 "_ohmite:to-126" V 9280 2900 30  0001 C CNN
F 3 "" H 9350 2900 30  0000 C CNN
F 4 "Ohmite" V 9350 2900 60  0001 C CNN "Manufacturer"
F 5 "PF1262-5KF1" V 9350 2900 60  0001 C CNN "Manufacturer Part Number"
F 6 "696-1155-ND" V 9350 2900 60  0001 C CNN "Digi-Key Part Number"
F 7 "RES 5K OHM 20W 1% TO126" V 9350 2900 60  0001 C CNN "Description"
	1    9350 2900
	0    -1   -1   0   
$EndComp
$Comp
L GND #PWR0157
U 1 1 53F344CF
P 9300 3900
F 0 "#PWR0157" H 9300 3900 30  0001 C CNN
F 1 "GND" H 9300 3830 30  0001 C CNN
F 2 "" H 9300 3900 60  0000 C CNN
F 3 "" H 9300 3900 60  0000 C CNN
	1    9300 3900
	1    0    0    -1  
$EndComp
$Comp
L GND #PWR0158
U 1 1 53F344E6
P 9600 3700
F 0 "#PWR0158" H 9600 3700 30  0001 C CNN
F 1 "GND" H 9600 3630 30  0001 C CNN
F 2 "" H 9600 3700 60  0000 C CNN
F 3 "" H 9600 3700 60  0000 C CNN
	1    9600 3700
	1    0    0    -1  
$EndComp
$Comp
L GND #PWR0159
U 1 1 53F344EC
P 9900 3650
F 0 "#PWR0159" H 9900 3650 30  0001 C CNN
F 1 "GND" H 9900 3580 30  0001 C CNN
F 2 "" H 9900 3650 60  0000 C CNN
F 3 "" H 9900 3650 60  0000 C CNN
	1    9900 3650
	1    0    0    -1  
$EndComp
$Comp
L CP1 C94
U 1 1 53F344F6
P 10300 3000
F 0 "C94" V 10500 2950 50  0000 L CNN
F 1 "820u" V 10100 2900 50  0000 L CNN
F 2 "_nichicon:he_series_7dot5" H 10300 3000 60  0001 C CNN
F 3 "" H 10300 3000 60  0000 C CNN
F 4 "Nichicon" V 10300 3000 60  0001 C CNN "Manufacturer"
F 5 "UHE1J821MHD" V 10300 3000 60  0001 C CNN "Manufacturer Part Number"
F 6 "493-1652-ND" V 10300 3000 60  0001 C CNN "Digi-Key Part Number"
F 7 "CAP ALUM 820UF 63V 20% RADIAL" V 10300 3000 60  0001 C CNN "Description"
	1    10300 3000
	0    -1   -1   0   
$EndComp
$Comp
L GND #PWR0160
U 1 1 53F34506
P 10600 3300
F 0 "#PWR0160" H 10600 3300 30  0001 C CNN
F 1 "GND" H 10600 3230 30  0001 C CNN
F 2 "" H 10600 3300 60  0000 C CNN
F 3 "" H 10600 3300 60  0000 C CNN
	1    10600 3300
	1    0    0    -1  
$EndComp
$Comp
L R R26
U 1 1 53F3451C
P 9600 3350
F 0 "R26" V 9680 3350 40  0000 C CNN
F 1 "5K" V 9607 3351 40  0000 C CNN
F 2 "_ohmite:to-126" V 9530 3350 30  0001 C CNN
F 3 "" H 9600 3350 30  0000 C CNN
F 4 "Ohmite" V 9600 3350 60  0001 C CNN "Manufacturer"
F 5 "PF1262-5KF1" V 9600 3350 60  0001 C CNN "Manufacturer Part Number"
F 6 "696-1155-ND" V 9600 3350 60  0001 C CNN "Digi-Key Part Number"
F 7 "RES 5K OHM 20W 1% TO126" V 9600 3350 60  0001 C CNN "Description"
	1    9600 3350
	1    0    0    -1  
$EndComp
$Comp
L PWR_FLAG #FLG0161
U 1 1 53F34522
P 9700 2800
F 0 "#FLG0161" H 9700 2895 30  0001 C CNN
F 1 "PWR_FLAG" H 9700 2980 30  0000 C CNN
F 2 "" H 9700 2800 100 0000 C CNN
F 3 "" H 9700 2800 100 0000 C CNN
	1    9700 2800
	1    0    0    -1  
$EndComp
$Comp
L INDUCTOR L19
U 1 1 53F351C4
P 8600 4300
F 0 "L19" V 8550 4300 40  0000 C CNN
F 1 "22uH" V 8700 4300 40  0000 C CNN
F 2 "_wurth:7447017" H 8600 4300 60  0001 C CNN
F 3 "" H 8600 4300 60  0000 C CNN
F 4 "Wurth Electronics Inc" V 8600 4300 60  0001 C CNN "Manufacturer"
F 5 "7447017" V 8600 4300 60  0001 C CNN "Manufacturer Part Number"
F 6 "732-1418-ND" V 8600 4300 60  0001 C CNN "Digi-Key Part Number"
F 7 "CHOKE TOROID 22UH 5.0A VERT" V 8600 4300 60  0001 C CNN "Description"
	1    8600 4300
	0    -1   -1   0   
$EndComp
$Comp
L R R31
U 1 1 53F351CE
P 9000 5000
F 0 "R31" V 9100 4900 40  0000 C CNN
F 1 "6R" V 9007 5001 40  0000 C CNN
F 2 "_ohmite:tww-series-5w" V 8930 5000 30  0001 C CNN
F 3 "" H 9000 5000 30  0000 C CNN
F 4 "Ohmite" V 9000 5000 60  0001 C CNN "Manufacturer"
F 5 "TWW5J5R6E" V 9000 5000 60  0001 C CNN "Manufacturer Part Number"
F 6 "TWW5J5R6E-ND" V 9000 5000 60  0001 C CNN "Digi-Key Part Number"
F 7 "RES 5.6 OHM 5W 5% RADIAL" V 9000 5000 60  0001 C CNN "Description"
	1    9000 5000
	0    -1   -1   0   
$EndComp
$Comp
L C C105
U 1 1 53F351D8
P 9000 4600
F 0 "C105" H 9000 4700 40  0000 L CNN
F 1 "100n" H 9006 4515 40  0000 L CNN
F 2 "_epcos:b32620" H 9038 4450 30  0001 C CNN
F 3 "" H 9000 4600 60  0000 C CNN
F 4 "EPCOS Inc" H 9000 4600 60  0001 C CNN "Manufacturer"
F 5 "B32620A3104J" H 9000 4600 60  0001 C CNN "Manufacturer Part Number"
F 6 "495-1294-ND" H 9000 4600 60  0001 C CNN "Digi-Key Part Number"
F 7 "CAP FILM 0.1UF 250VDC RADIAL" H 9000 4600 60  0001 C CNN "Description"
	1    9000 4600
	1    0    0    -1  
$EndComp
$Comp
L C C107
U 1 1 53F351E2
P 8200 4700
F 0 "C107" H 8200 4800 40  0000 L CNN
F 1 "330p" H 8206 4615 40  0000 L CNN
F 2 "_murata:dex-series" H 8238 4550 30  0001 C CNN
F 3 "" H 8200 4700 60  0000 C CNN
F 4 "Murata Electronics North America" H 8200 4700 60  0001 C CNN "Manufacturer"
F 5 "DEA1X3A331JA2B" H 8200 4700 60  0001 C CNN "Manufacturer Part Number"
F 6 "490-4158-ND" H 8200 4700 60  0001 C CNN "Digi-Key Part Number"
F 7 "CAP CER 330PF 1KV 5% RADIAL" H 8200 4700 60  0001 C CNN "Description"
	1    8200 4700
	1    0    0    -1  
$EndComp
$Comp
L R R29
U 1 1 53F351EC
P 7900 4650
F 0 "R29" V 7980 4650 40  0000 C CNN
F 1 "20R" V 7907 4651 40  0000 C CNN
F 2 "_ohmite:tww-series-5w" V 7830 4650 30  0001 C CNN
F 3 "" H 7900 4650 30  0000 C CNN
F 4 "Ohmite" V 7900 4650 60  0001 C CNN "Manufacturer"
F 5 "TWW5J20RE" V 7900 4650 60  0001 C CNN "Manufacturer Part Number"
F 6 "TWW5J20RE-ND" V 7900 4650 60  0001 C CNN "Digi-Key Part Number"
F 7 "RES 20 OHM 5W 5% RADIAL" V 7900 4650 60  0001 C CNN "Description"
	1    7900 4650
	-1   0    0    1   
$EndComp
$Comp
L C C109
U 1 1 53F351F6
P 9000 5150
F 0 "C109" V 8950 5000 40  0000 L CNN
F 1 "100n" V 9050 4950 40  0000 L CNN
F 2 "_epcos:b32620" H 9038 5000 30  0001 C CNN
F 3 "" H 9000 5150 60  0000 C CNN
F 4 "EPCOS Inc" H 9000 5150 60  0001 C CNN "Manufacturer"
F 5 "B32620A3104J" H 9000 5150 60  0001 C CNN "Manufacturer Part Number"
F 6 "495-1294-ND" H 9000 5150 60  0001 C CNN "Digi-Key Part Number"
F 7 "CAP FILM 0.1UF 250VDC RADIAL" H 9000 5150 60  0001 C CNN "Description"
	1    9000 5150
	0    1    1    0   
$EndComp
$Comp
L C C106
U 1 1 53F35200
P 9900 4650
F 0 "C106" H 9900 4750 40  0000 L CNN
F 1 "1u" H 9906 4565 40  0000 L CNN
F 2 "_epcos:b32522" H 9938 4500 30  0001 C CNN
F 3 "" H 9900 4650 60  0000 C CNN
F 4 "EPCOS Inc" H 9900 4650 60  0001 C CNN "Manufacturer"
F 5 "B32522N3105K" H 9900 4650 60  0001 C CNN "Manufacturer Part Number"
F 6 "495-4181-ND" H 9900 4650 60  0001 C CNN "Digi-Key Part Number"
F 7 "CAP FILM 1UF 250VDC RADIAL" H 9900 4650 60  0001 C CNN "Description"
	1    9900 4650
	1    0    0    -1  
$EndComp
$Comp
L GND #PWR0162
U 1 1 53F35206
P 8200 4450
F 0 "#PWR0162" H 8200 4450 30  0001 C CNN
F 1 "GND" H 8200 4380 30  0001 C CNN
F 2 "" H 8200 4450 60  0000 C CNN
F 3 "" H 8200 4450 60  0000 C CNN
	1    8200 4450
	-1   0    0    1   
$EndComp
$Comp
L R R28
U 1 1 53F35210
P 9350 4200
F 0 "R28" V 9430 4200 40  0000 C CNN
F 1 "5K" V 9357 4201 40  0000 C CNN
F 2 "_ohmite:to-126" V 9280 4200 30  0001 C CNN
F 3 "" H 9350 4200 30  0000 C CNN
F 4 "Ohmite" V 9350 4200 60  0001 C CNN "Manufacturer"
F 5 "PF1262-5KF1" V 9350 4200 60  0001 C CNN "Manufacturer Part Number"
F 6 "696-1155-ND" V 9350 4200 60  0001 C CNN "Digi-Key Part Number"
F 7 "RES 5K OHM 20W 1% TO126" V 9350 4200 60  0001 C CNN "Description"
	1    9350 4200
	0    -1   -1   0   
$EndComp
$Comp
L GND #PWR0163
U 1 1 53F35216
P 9300 5200
F 0 "#PWR0163" H 9300 5200 30  0001 C CNN
F 1 "GND" H 9300 5130 30  0001 C CNN
F 2 "" H 9300 5200 60  0000 C CNN
F 3 "" H 9300 5200 60  0000 C CNN
	1    9300 5200
	1    0    0    -1  
$EndComp
$Comp
L GND #PWR0164
U 1 1 53F3522D
P 9600 5000
F 0 "#PWR0164" H 9600 5000 30  0001 C CNN
F 1 "GND" H 9600 4930 30  0001 C CNN
F 2 "" H 9600 5000 60  0000 C CNN
F 3 "" H 9600 5000 60  0000 C CNN
	1    9600 5000
	1    0    0    -1  
$EndComp
$Comp
L GND #PWR0165
U 1 1 53F35233
P 9900 4950
F 0 "#PWR0165" H 9900 4950 30  0001 C CNN
F 1 "GND" H 9900 4880 30  0001 C CNN
F 2 "" H 9900 4950 60  0000 C CNN
F 3 "" H 9900 4950 60  0000 C CNN
	1    9900 4950
	1    0    0    -1  
$EndComp
$Comp
L CP1 C101
U 1 1 53F3523D
P 10300 4300
F 0 "C101" V 10500 4250 50  0000 L CNN
F 1 "820u" V 10100 4200 50  0000 L CNN
F 2 "_nichicon:he_series_7dot5" H 10300 4300 60  0001 C CNN
F 3 "" H 10300 4300 60  0000 C CNN
F 4 "Nichicon" V 10300 4300 60  0001 C CNN "Manufacturer"
F 5 "UHE1J821MHD" V 10300 4300 60  0001 C CNN "Manufacturer Part Number"
F 6 "493-1652-ND" V 10300 4300 60  0001 C CNN "Digi-Key Part Number"
F 7 "CAP ALUM 820UF 63V 20% RADIAL" V 10300 4300 60  0001 C CNN "Description"
	1    10300 4300
	0    -1   -1   0   
$EndComp
$Comp
L GND #PWR0166
U 1 1 53F3524D
P 10600 4600
F 0 "#PWR0166" H 10600 4600 30  0001 C CNN
F 1 "GND" H 10600 4530 30  0001 C CNN
F 2 "" H 10600 4600 60  0000 C CNN
F 3 "" H 10600 4600 60  0000 C CNN
	1    10600 4600
	1    0    0    -1  
$EndComp
$Comp
L R R30
U 1 1 53F35263
P 9600 4650
F 0 "R30" V 9680 4650 40  0000 C CNN
F 1 "5K" V 9607 4651 40  0000 C CNN
F 2 "_ohmite:to-126" V 9530 4650 30  0001 C CNN
F 3 "" H 9600 4650 30  0000 C CNN
F 4 "Ohmite" V 9600 4650 60  0001 C CNN "Manufacturer"
F 5 "PF1262-5KF1" V 9600 4650 60  0001 C CNN "Manufacturer Part Number"
F 6 "696-1155-ND" V 9600 4650 60  0001 C CNN "Digi-Key Part Number"
F 7 "RES 5K OHM 20W 1% TO126" V 9600 4650 60  0001 C CNN "Description"
	1    9600 4650
	1    0    0    -1  
$EndComp
$Comp
L PWR_FLAG #FLG0167
U 1 1 53F35269
P 9700 4100
F 0 "#FLG0167" H 9700 4195 30  0001 C CNN
F 1 "PWR_FLAG" H 9700 4280 30  0000 C CNN
F 2 "" H 9700 4100 100 0000 C CNN
F 3 "" H 9700 4100 100 0000 C CNN
	1    9700 4100
	1    0    0    -1  
$EndComp
$Comp
L INDUCTOR L20
U 1 1 53F35275
P 8600 5500
F 0 "L20" V 8550 5500 40  0000 C CNN
F 1 "22uH" V 8700 5500 40  0000 C CNN
F 2 "_wurth:7447017" H 8600 5500 60  0001 C CNN
F 3 "" H 8600 5500 60  0000 C CNN
F 4 "Wurth Electronics Inc" V 8600 5500 60  0001 C CNN "Manufacturer"
F 5 "7447017" V 8600 5500 60  0001 C CNN "Manufacturer Part Number"
F 6 "732-1418-ND" V 8600 5500 60  0001 C CNN "Digi-Key Part Number"
F 7 "CHOKE TOROID 22UH 5.0A VERT" V 8600 5500 60  0001 C CNN "Description"
	1    8600 5500
	0    -1   -1   0   
$EndComp
$Comp
L R R35
U 1 1 53F3527F
P 9000 6200
F 0 "R35" V 9100 6100 40  0000 C CNN
F 1 "6R" V 9007 6201 40  0000 C CNN
F 2 "_ohmite:tww-series-5w" V 8930 6200 30  0001 C CNN
F 3 "" H 9000 6200 30  0000 C CNN
F 4 "Ohmite" V 9000 6200 60  0001 C CNN "Manufacturer"
F 5 "TWW5J5R6E" V 9000 6200 60  0001 C CNN "Manufacturer Part Number"
F 6 "TWW5J5R6E-ND" V 9000 6200 60  0001 C CNN "Digi-Key Part Number"
F 7 "RES 5.6 OHM 5W 5% RADIAL" V 9000 6200 60  0001 C CNN "Description"
	1    9000 6200
	0    -1   -1   0   
$EndComp
$Comp
L C C111
U 1 1 53F35289
P 9000 5800
F 0 "C111" H 9000 5900 40  0000 L CNN
F 1 "100n" H 9006 5715 40  0000 L CNN
F 2 "_epcos:b32620" H 9038 5650 30  0001 C CNN
F 3 "" H 9000 5800 60  0000 C CNN
F 4 "EPCOS Inc" H 9000 5800 60  0001 C CNN "Manufacturer"
F 5 "B32620A3104J" H 9000 5800 60  0001 C CNN "Manufacturer Part Number"
F 6 "495-1294-ND" H 9000 5800 60  0001 C CNN "Digi-Key Part Number"
F 7 "CAP FILM 0.1UF 250VDC RADIAL" H 9000 5800 60  0001 C CNN "Description"
	1    9000 5800
	1    0    0    -1  
$EndComp
$Comp
L C C113
U 1 1 53F35293
P 8200 5900
F 0 "C113" H 8200 6000 40  0000 L CNN
F 1 "330p" H 8206 5815 40  0000 L CNN
F 2 "_murata:dex-series" H 8238 5750 30  0001 C CNN
F 3 "" H 8200 5900 60  0000 C CNN
F 4 "Murata Electronics North America" H 8200 5900 60  0001 C CNN "Manufacturer"
F 5 "DEA1X3A331JA2B" H 8200 5900 60  0001 C CNN "Manufacturer Part Number"
F 6 "490-4158-ND" H 8200 5900 60  0001 C CNN "Digi-Key Part Number"
F 7 "CAP CER 330PF 1KV 5% RADIAL" H 8200 5900 60  0001 C CNN "Description"
	1    8200 5900
	1    0    0    -1  
$EndComp
$Comp
L R R33
U 1 1 53F3529D
P 7900 5850
F 0 "R33" V 7980 5850 40  0000 C CNN
F 1 "20R" V 7907 5851 40  0000 C CNN
F 2 "_ohmite:tww-series-5w" V 7830 5850 30  0001 C CNN
F 3 "" H 7900 5850 30  0000 C CNN
F 4 "Ohmite" V 7900 5850 60  0001 C CNN "Manufacturer"
F 5 "TWW5J20RE" V 7900 5850 60  0001 C CNN "Manufacturer Part Number"
F 6 "TWW5J20RE-ND" V 7900 5850 60  0001 C CNN "Digi-Key Part Number"
F 7 "RES 20 OHM 5W 5% RADIAL" V 7900 5850 60  0001 C CNN "Description"
	1    7900 5850
	-1   0    0    1   
$EndComp
$Comp
L C C114
U 1 1 53F352A7
P 9000 6350
F 0 "C114" V 8950 6200 40  0000 L CNN
F 1 "100n" V 9050 6150 40  0000 L CNN
F 2 "_epcos:b32620" H 9038 6200 30  0001 C CNN
F 3 "" H 9000 6350 60  0000 C CNN
F 4 "EPCOS Inc" H 9000 6350 60  0001 C CNN "Manufacturer"
F 5 "B32620A3104J" H 9000 6350 60  0001 C CNN "Manufacturer Part Number"
F 6 "495-1294-ND" H 9000 6350 60  0001 C CNN "Digi-Key Part Number"
F 7 "CAP FILM 0.1UF 250VDC RADIAL" H 9000 6350 60  0001 C CNN "Description"
	1    9000 6350
	0    1    1    0   
$EndComp
$Comp
L C C112
U 1 1 53F352B1
P 9900 5850
F 0 "C112" H 9900 5950 40  0000 L CNN
F 1 "1u" H 9906 5765 40  0000 L CNN
F 2 "_epcos:b32522" H 9938 5700 30  0001 C CNN
F 3 "" H 9900 5850 60  0000 C CNN
F 4 "EPCOS Inc" H 9900 5850 60  0001 C CNN "Manufacturer"
F 5 "B32522N3105K" H 9900 5850 60  0001 C CNN "Manufacturer Part Number"
F 6 "495-4181-ND" H 9900 5850 60  0001 C CNN "Digi-Key Part Number"
F 7 "CAP FILM 1UF 250VDC RADIAL" H 9900 5850 60  0001 C CNN "Description"
	1    9900 5850
	1    0    0    -1  
$EndComp
$Comp
L GND #PWR0168
U 1 1 53F352B7
P 8200 5650
F 0 "#PWR0168" H 8200 5650 30  0001 C CNN
F 1 "GND" H 8200 5580 30  0001 C CNN
F 2 "" H 8200 5650 60  0000 C CNN
F 3 "" H 8200 5650 60  0000 C CNN
	1    8200 5650
	-1   0    0    1   
$EndComp
$Comp
L R R32
U 1 1 53F352C1
P 9350 5400
F 0 "R32" V 9430 5400 40  0000 C CNN
F 1 "5K" V 9357 5401 40  0000 C CNN
F 2 "_ohmite:to-126" V 9280 5400 30  0001 C CNN
F 3 "" H 9350 5400 30  0000 C CNN
F 4 "Ohmite" V 9350 5400 60  0001 C CNN "Manufacturer"
F 5 "PF1262-5KF1" V 9350 5400 60  0001 C CNN "Manufacturer Part Number"
F 6 "696-1155-ND" V 9350 5400 60  0001 C CNN "Digi-Key Part Number"
F 7 "RES 5K OHM 20W 1% TO126" V 9350 5400 60  0001 C CNN "Description"
	1    9350 5400
	0    -1   -1   0   
$EndComp
$Comp
L GND #PWR0169
U 1 1 53F352C7
P 9300 6400
F 0 "#PWR0169" H 9300 6400 30  0001 C CNN
F 1 "GND" H 9300 6330 30  0001 C CNN
F 2 "" H 9300 6400 60  0000 C CNN
F 3 "" H 9300 6400 60  0000 C CNN
	1    9300 6400
	1    0    0    -1  
$EndComp
$Comp
L GND #PWR0170
U 1 1 53F352DE
P 9600 6200
F 0 "#PWR0170" H 9600 6200 30  0001 C CNN
F 1 "GND" H 9600 6130 30  0001 C CNN
F 2 "" H 9600 6200 60  0000 C CNN
F 3 "" H 9600 6200 60  0000 C CNN
	1    9600 6200
	1    0    0    -1  
$EndComp
$Comp
L GND #PWR0171
U 1 1 53F352E4
P 9900 6150
F 0 "#PWR0171" H 9900 6150 30  0001 C CNN
F 1 "GND" H 9900 6080 30  0001 C CNN
F 2 "" H 9900 6150 60  0000 C CNN
F 3 "" H 9900 6150 60  0000 C CNN
	1    9900 6150
	1    0    0    -1  
$EndComp
$Comp
L CP1 C110
U 1 1 53F352EE
P 10300 5500
F 0 "C110" V 10500 5450 50  0000 L CNN
F 1 "820u" V 10100 5400 50  0000 L CNN
F 2 "_nichicon:he_series_7dot5" H 10300 5500 60  0001 C CNN
F 3 "" H 10300 5500 60  0000 C CNN
F 4 "Nichicon" V 10300 5500 60  0001 C CNN "Manufacturer"
F 5 "UHE1J821MHD" V 10300 5500 60  0001 C CNN "Manufacturer Part Number"
F 6 "493-1652-ND" V 10300 5500 60  0001 C CNN "Digi-Key Part Number"
F 7 "CAP ALUM 820UF 63V 20% RADIAL" V 10300 5500 60  0001 C CNN "Description"
	1    10300 5500
	0    -1   -1   0   
$EndComp
$Comp
L GND #PWR0172
U 1 1 53F352FE
P 10600 5800
F 0 "#PWR0172" H 10600 5800 30  0001 C CNN
F 1 "GND" H 10600 5730 30  0001 C CNN
F 2 "" H 10600 5800 60  0000 C CNN
F 3 "" H 10600 5800 60  0000 C CNN
	1    10600 5800
	1    0    0    -1  
$EndComp
$Comp
L R R34
U 1 1 53F35314
P 9600 5850
F 0 "R34" V 9680 5850 40  0000 C CNN
F 1 "5K" V 9607 5851 40  0000 C CNN
F 2 "_ohmite:to-126" V 9530 5850 30  0001 C CNN
F 3 "" H 9600 5850 30  0000 C CNN
F 4 "Ohmite" V 9600 5850 60  0001 C CNN "Manufacturer"
F 5 "PF1262-5KF1" V 9600 5850 60  0001 C CNN "Manufacturer Part Number"
F 6 "696-1155-ND" V 9600 5850 60  0001 C CNN "Digi-Key Part Number"
F 7 "RES 5K OHM 20W 1% TO126" V 9600 5850 60  0001 C CNN "Description"
	1    9600 5850
	1    0    0    -1  
$EndComp
$Comp
L PWR_FLAG #FLG0173
U 1 1 53F3531A
P 9700 5300
F 0 "#FLG0173" H 9700 5395 30  0001 C CNN
F 1 "PWR_FLAG" H 9700 5480 30  0000 C CNN
F 2 "" H 9700 5300 100 0000 C CNN
F 3 "" H 9700 5300 100 0000 C CNN
	1    9700 5300
	1    0    0    -1  
$EndComp
$Comp
L CONN_2 P7
U 1 1 53F4B2C7
P 11050 1900
F 0 "P7" V 11000 1900 40  0000 C CNN
F 1 "CONN_2" V 11100 1900 40  0000 C CNN
F 2 "connect:bornier2" H 11050 1900 60  0001 C CNN
F 3 "" H 11050 1900 60  0000 C CNN
F 4 "Weidmuller" V 11050 1900 60  0001 C CNN "Manufacturer"
F 5 "1760510000" V 11050 1900 60  0001 C CNN "Manufacturer Part Number"
F 6 "281-1882-ND" V 11050 1900 60  0001 C CNN "Digi-Key Part Number"
F 7 "TERM BLOCK PCB 2POS 5.08MM BLACK" V 11050 1900 60  0001 C CNN "Description"
	1    11050 1900
	1    0    0    1   
$EndComp
$Comp
L CONN_2 P8
U 1 1 53F4B513
P 11050 3100
F 0 "P8" V 11000 3100 40  0000 C CNN
F 1 "CONN_2" V 11100 3100 40  0000 C CNN
F 2 "connect:bornier2" H 11050 3100 60  0001 C CNN
F 3 "" H 11050 3100 60  0000 C CNN
F 4 "Weidmuller" V 11050 3100 60  0001 C CNN "Manufacturer"
F 5 "1760510000" V 11050 3100 60  0001 C CNN "Manufacturer Part Number"
F 6 "281-1882-ND" V 11050 3100 60  0001 C CNN "Digi-Key Part Number"
F 7 "TERM BLOCK PCB 2POS 5.08MM BLACK" V 11050 3100 60  0001 C CNN "Description"
	1    11050 3100
	1    0    0    1   
$EndComp
$Comp
L CONN_2 P9
U 1 1 53F4B67B
P 11050 4400
F 0 "P9" V 11000 4400 40  0000 C CNN
F 1 "CONN_2" V 11100 4400 40  0000 C CNN
F 2 "connect:bornier2" H 11050 4400 60  0001 C CNN
F 3 "" H 11050 4400 60  0000 C CNN
F 4 "Weidmuller" V 11050 4400 60  0001 C CNN "Manufacturer"
F 5 "1760510000" V 11050 4400 60  0001 C CNN "Manufacturer Part Number"
F 6 "281-1882-ND" V 11050 4400 60  0001 C CNN "Digi-Key Part Number"
F 7 "TERM BLOCK PCB 2POS 5.08MM BLACK" V 11050 4400 60  0001 C CNN "Description"
	1    11050 4400
	1    0    0    1   
$EndComp
$Comp
L CONN_2 P10
U 1 1 53F4B967
P 11050 5600
F 0 "P10" V 11000 5600 40  0000 C CNN
F 1 "CONN_2" V 11100 5600 40  0000 C CNN
F 2 "connect:bornier2" H 11050 5600 60  0001 C CNN
F 3 "" H 11050 5600 60  0000 C CNN
F 4 "Weidmuller" V 11050 5600 60  0001 C CNN "Manufacturer"
F 5 "1760510000" V 11050 5600 60  0001 C CNN "Manufacturer Part Number"
F 6 "281-1882-ND" V 11050 5600 60  0001 C CNN "Digi-Key Part Number"
F 7 "TERM BLOCK PCB 2POS 5.08MM BLACK" V 11050 5600 60  0001 C CNN "Description"
	1    11050 5600
	1    0    0    1   
$EndComp
Wire Wire Line
	4300 4900 4700 4900
Wire Wire Line
	4500 4900 4500 4800
Wire Wire Line
	4500 4800 4700 4800
Wire Wire Line
	4300 4800 4300 4900
Connection ~ 4500 4900
Wire Wire Line
	4700 4400 4500 4400
Wire Wire Line
	4500 4400 4500 4300
Wire Wire Line
	3900 4300 4700 4300
Wire Wire Line
	4300 4300 4300 4400
Connection ~ 4500 4300
Wire Wire Line
	3900 4300 3900 4400
Connection ~ 4300 4300
Wire Wire Line
	4700 4100 4500 4100
Wire Wire Line
	4500 4100 4500 4000
Wire Wire Line
	3500 4000 4700 4000
Wire Wire Line
	3500 4000 3500 4400
Connection ~ 4500 4000
Wire Wire Line
	3900 4800 3900 4900
Wire Wire Line
	4700 5200 3500 5200
Wire Wire Line
	3500 5200 3500 4800
Wire Wire Line
	4700 5400 4500 5400
Wire Wire Line
	4500 5400 4500 5450
Wire Wire Line
	4700 5600 4500 5600
Wire Wire Line
	4500 5600 4500 5650
Wire Wire Line
	4700 2100 4500 2100
Wire Wire Line
	4500 2100 4500 2150
Wire Wire Line
	4200 2300 4700 2300
Wire Wire Line
	4300 2400 4300 2300
Connection ~ 4300 2300
Wire Wire Line
	4700 3000 4300 3000
Wire Wire Line
	4300 2900 4300 3100
Connection ~ 4300 3000
Wire Wire Line
	4700 2900 4500 2900
Wire Wire Line
	4500 2900 4500 3000
Connection ~ 4500 3000
Wire Wire Line
	4300 3500 4300 3600
Wire Wire Line
	3500 1900 4700 1900
Wire Wire Line
	3500 3800 3500 3100
Wire Wire Line
	3500 1800 3500 2600
Wire Wire Line
	3400 3800 4700 3800
Connection ~ 3500 1900
Connection ~ 3500 3800
Wire Wire Line
	6700 3300 6900 3300
Wire Wire Line
	6900 3300 6900 3400
Wire Wire Line
	6700 1500 6900 1500
Wire Wire Line
	7300 1500 7500 1500
Wire Wire Line
	7500 1500 7500 1400
Wire Wire Line
	7300 2600 7500 2600
Wire Wire Line
	7500 2600 7500 2500
Wire Wire Line
	6900 2600 6700 2600
Wire Wire Line
	6700 2200 6900 2200
Wire Wire Line
	6900 2200 6900 2300
Wire Wire Line
	6700 5800 6900 5800
Wire Wire Line
	6900 5800 6900 5900
Wire Wire Line
	6700 4000 6900 4000
Wire Wire Line
	7300 4000 7500 4000
Wire Wire Line
	7500 4000 7500 3900
Wire Wire Line
	7300 5100 7500 5100
Wire Wire Line
	7500 5100 7500 5000
Wire Wire Line
	6900 5100 6700 5100
Wire Wire Line
	6700 4700 6900 4700
Wire Wire Line
	6900 4700 6900 4800
Wire Wire Line
	5700 6300 5700 6400
Wire Wire Line
	4700 1400 4300 1400
Wire Wire Line
	4300 1500 4700 1500
Wire Wire Line
	4700 1600 4300 1600
Wire Wire Line
	4300 1700 4700 1700
Wire Wire Line
	7000 1100 6800 1100
Wire Wire Line
	6800 1000 6800 5100
Connection ~ 6800 1500
Connection ~ 6800 2600
Wire Wire Line
	4700 6400 4500 6400
Wire Wire Line
	4500 6400 4500 6300
Wire Wire Line
	4700 6600 4500 6600
Wire Wire Line
	4500 6600 4500 6700
Wire Wire Line
	4300 6500 4700 6500
Connection ~ 6800 4000
Connection ~ 6800 5100
Wire Wire Line
	9250 2500 9300 2500
Wire Wire Line
	9300 2500 9300 2700
Wire Wire Line
	9200 2650 9300 2650
Connection ~ 9300 2650
Wire Wire Line
	8800 2650 8700 2650
Wire Wire Line
	8700 2650 8700 2400
Wire Wire Line
	8700 2400 9000 2400
Wire Wire Line
	9000 2400 9000 2300
Wire Wire Line
	9100 1700 9000 1700
Wire Wire Line
	9000 1700 9000 1900
Wire Wire Line
	8900 1800 10100 1800
Connection ~ 9000 1800
Wire Wire Line
	9600 1800 9600 1900
Wire Wire Line
	8200 2000 8200 1950
Wire Wire Line
	7900 2400 7900 2500
Wire Wire Line
	7900 2500 8200 2500
Wire Wire Line
	8200 2500 8200 2400
Wire Wire Line
	8750 2500 8700 2500
Connection ~ 8700 2500
Wire Wire Line
	9600 2500 9600 2400
Wire Wire Line
	9900 2450 9900 2350
Wire Wire Line
	9900 1800 9900 1950
Connection ~ 9600 1800
Connection ~ 9900 1800
Wire Wire Line
	10500 1800 10700 1800
Wire Wire Line
	10700 2000 10600 2000
Wire Wire Line
	10600 2000 10600 2100
Wire Wire Line
	6700 1800 8300 1800
Wire Wire Line
	7900 1800 7900 1900
Wire Wire Line
	9700 1600 9700 1700
Wire Wire Line
	9700 1700 9600 1700
Wire Wire Line
	9250 3700 9300 3700
Wire Wire Line
	9300 3700 9300 3900
Wire Wire Line
	9200 3850 9300 3850
Connection ~ 9300 3850
Wire Wire Line
	8800 3850 8700 3850
Wire Wire Line
	8700 3850 8700 3600
Wire Wire Line
	8700 3600 9000 3600
Wire Wire Line
	9000 3600 9000 3500
Wire Wire Line
	9100 2900 9000 2900
Wire Wire Line
	9000 2900 9000 3100
Wire Wire Line
	8900 3000 10100 3000
Connection ~ 9000 3000
Wire Wire Line
	9600 3000 9600 3100
Wire Wire Line
	8200 3200 8200 3150
Wire Wire Line
	7900 3600 7900 3700
Wire Wire Line
	7900 3700 8200 3700
Wire Wire Line
	8200 3700 8200 3600
Wire Wire Line
	8750 3700 8700 3700
Connection ~ 8700 3700
Wire Wire Line
	9600 3700 9600 3600
Wire Wire Line
	9900 3650 9900 3550
Wire Wire Line
	9900 3000 9900 3150
Connection ~ 9600 3000
Connection ~ 9900 3000
Wire Wire Line
	10500 3000 10700 3000
Wire Wire Line
	10700 3200 10600 3200
Wire Wire Line
	10600 3200 10600 3300
Wire Wire Line
	6700 3000 8300 3000
Wire Wire Line
	7900 3000 7900 3100
Wire Wire Line
	9700 2800 9700 2900
Wire Wire Line
	9700 2900 9600 2900
Wire Wire Line
	9250 5000 9300 5000
Wire Wire Line
	9300 5000 9300 5200
Wire Wire Line
	9200 5150 9300 5150
Connection ~ 9300 5150
Wire Wire Line
	8800 5150 8700 5150
Wire Wire Line
	8700 5150 8700 4900
Wire Wire Line
	8700 4900 9000 4900
Wire Wire Line
	9000 4900 9000 4800
Wire Wire Line
	9100 4200 9000 4200
Wire Wire Line
	9000 4200 9000 4400
Wire Wire Line
	8900 4300 10100 4300
Connection ~ 9000 4300
Wire Wire Line
	9600 4300 9600 4400
Wire Wire Line
	8200 4500 8200 4450
Wire Wire Line
	7900 4900 7900 5000
Wire Wire Line
	7900 5000 8200 5000
Wire Wire Line
	8200 5000 8200 4900
Wire Wire Line
	8750 5000 8700 5000
Connection ~ 8700 5000
Wire Wire Line
	9600 5000 9600 4900
Wire Wire Line
	9900 4950 9900 4850
Wire Wire Line
	9900 4300 9900 4450
Connection ~ 9600 4300
Connection ~ 9900 4300
Wire Wire Line
	10500 4300 10700 4300
Wire Wire Line
	10700 4500 10600 4500
Wire Wire Line
	10600 4500 10600 4600
Wire Wire Line
	6700 4300 8300 4300
Wire Wire Line
	7900 4300 7900 4400
Wire Wire Line
	9700 4100 9700 4200
Wire Wire Line
	9700 4200 9600 4200
Wire Wire Line
	9250 6200 9300 6200
Wire Wire Line
	9300 6200 9300 6400
Wire Wire Line
	9200 6350 9300 6350
Connection ~ 9300 6350
Wire Wire Line
	8800 6350 8700 6350
Wire Wire Line
	8700 6350 8700 6100
Wire Wire Line
	8700 6100 9000 6100
Wire Wire Line
	9000 6100 9000 6000
Wire Wire Line
	9100 5400 9000 5400
Wire Wire Line
	9000 5400 9000 5600
Wire Wire Line
	8900 5500 10100 5500
Connection ~ 9000 5500
Wire Wire Line
	9600 5500 9600 5600
Wire Wire Line
	8200 5700 8200 5650
Wire Wire Line
	7900 6100 7900 6200
Wire Wire Line
	7900 6200 8200 6200
Wire Wire Line
	8200 6200 8200 6100
Wire Wire Line
	8750 6200 8700 6200
Connection ~ 8700 6200
Wire Wire Line
	9600 6200 9600 6100
Wire Wire Line
	9900 6150 9900 6050
Wire Wire Line
	9900 5500 9900 5650
Connection ~ 9600 5500
Connection ~ 9900 5500
Wire Wire Line
	10500 5500 10700 5500
Wire Wire Line
	10700 5700 10600 5700
Wire Wire Line
	10600 5700 10600 5800
Wire Wire Line
	6700 5500 8300 5500
Wire Wire Line
	7900 5500 7900 5600
Wire Wire Line
	9700 5300 9700 5400
Wire Wire Line
	9700 5400 9600 5400
Connection ~ 7900 5500
Wire Wire Line
	6700 5400 7000 5400
Wire Wire Line
	7000 5400 7000 5500
Connection ~ 7000 5500
Connection ~ 7900 4300
Wire Wire Line
	6700 4400 7000 4400
Wire Wire Line
	7000 4400 7000 4300
Connection ~ 7000 4300
Connection ~ 7900 3000
Wire Wire Line
	6700 2900 7000 2900
Wire Wire Line
	7000 2900 7000 3000
Connection ~ 7000 3000
Connection ~ 7900 1800
Wire Wire Line
	6700 1900 7000 1900
Wire Wire Line
	7000 1900 7000 1800
Connection ~ 7000 1800
Connection ~ 6800 1100
$EndSCHEMATC
