%!PS-Adobe-3.0
%%Creator: PCBNEW
%%CreationDate: Sat Sep 20 17:42:20 2014
%%Title: /home/ajmv/Dropbox/Freelancer/sta308a-ev/circuit-rev-c/gerbers/sta308a-ev-rev-c-NPTH-drl_map.ps
%%Pages: 1
%%PageOrder: Ascend
%%BoundingBox: 0 0 596 842
%%DocumentMedia: A4 595 842 0 () ()
%%Orientation: Landscape
%%EndComments
%%BeginProlog
/line { newpath moveto lineto stroke } bind def
/cir0 { newpath 0 360 arc stroke } bind def
/cir1 { newpath 0 360 arc gsave fill grestore stroke } bind def
/cir2 { newpath 0 360 arc gsave fill grestore stroke } bind def
/arc0 { newpath arc stroke } bind def
/arc1 { newpath 4 index 4 index moveto arc closepath gsave fill
    grestore stroke } bind def
/arc2 { newpath 4 index 4 index moveto arc closepath gsave fill
    grestore stroke } bind def
/poly0 { stroke } bind def
/poly1 { closepath gsave fill grestore stroke } bind def
/poly2 { closepath gsave fill grestore stroke } bind def
/rect0 { rectstroke } bind def
/rect1 { rectfill } bind def
/rect2 { rectfill } bind def
/linemode0 { 0 setlinecap 0 setlinejoin 0 setlinewidth } bind def
/linemode1 { 1 setlinecap 1 setlinejoin } bind def
/dashedline { [200] 100 setdash } bind def
/solidline { [] 0 setdash } bind def
/phantomshow { moveto
    /KicadFont findfont 0.000001 scalefont setfont
    show } bind def
/textshow { gsave
    findfont exch scalefont setfont concat 1 scale 0 0 moveto show
    } bind def
/reencodefont {
  findfont dup length dict begin
  { 1 index /FID ne
    { def }
    { pop pop } ifelse
  } forall
  /Encoding ISOLatin1Encoding def
  currentdict
  end } bind def
/KicadFont /Helvetica reencodefont definefont pop
/KicadFont-Bold /Helvetica-Bold reencodefont definefont pop
/KicadFont-Oblique /Helvetica-Oblique reencodefont definefont pop
/KicadFont-BoldOblique /Helvetica-BoldOblique reencodefont definefont pop
%%EndProlog
%%Page: 1 1
%%BeginPageSetup
gsave
0.0072 0.0072 scale
linemode1
82680 0 translate 90 rotate
22.984 setlinewidth
%%EndPageSetup
0 0 0 setrgbcolor
18.0976 setlinewidth
newpath
70910.8 37018.1 moveto
46019.2 37018.1 lineto
stroke
0 0 0 setrgbcolor
newpath
46019.2 78733.9 moveto
70910.8 78733.9 lineto
stroke
0 0 0 setrgbcolor
newpath
71025.7 78619 moveto
71025.7 37133 lineto
stroke
0 0 0 setrgbcolor
newpath
45904.3 37133 moveto
45904.3 78619 lineto
stroke
0 0 0 setrgbcolor
newpath
71025.7 78619 moveto
70910.8 78733.9 lineto
stroke
0 0 0 setrgbcolor
newpath
45904.3 78619 moveto
46019.2 78733.9 lineto
stroke
0 0 0 setrgbcolor
newpath
70910.8 37018.1 moveto
71025.7 37133 lineto
stroke
0 0 0 setrgbcolor
newpath
45904.3 37133 moveto
46019.2 37018.1 lineto
stroke
78.7401 setlinewidth
newpath
47173.1 75519.3 moveto
47571.2 75121.1 lineto
stroke
newpath
47571.2 75519.3 moveto
47173.1 75121.1 lineto
stroke
newpath
48982.8 76876.6 moveto
49381 76478.4 lineto
stroke
newpath
49381 76876.6 moveto
48982.8 76478.4 lineto
stroke
47007.5 37822.5 271.441 cir0
47352.3 51153.2 271.441 cir0
47352.3 42419.3 271.441 cir0
50684.9 72413.4 271.441 cir0
51719.2 77584.7 271.441 cir0
57970.8 77607.7 271.441 cir0
65854.3 57243.9 271.441 cir0
68727.3 77469.8 271.441 cir0
68727.3 74022.2 271.441 cir0
70221.3 37822.5 271.441 cir0
70336.2 57243.9 271.441 cir0
newpath
48915.2 51424.7 moveto
48915.2 50881.7 lineto
stroke
newpath
48643.7 51153.2 moveto
49186.6 51153.2 lineto
stroke
newpath
48915.2 42690.8 moveto
48915.2 42147.8 lineto
stroke
newpath
48643.7 42419.3 moveto
49186.6 42419.3 lineto
stroke
newpath
52362.8 70271.5 moveto
52362.8 69728.6 lineto
stroke
newpath
52091.3 70000 moveto
52634.2 70000 lineto
stroke
newpath
52362.8 61537.6 moveto
52362.8 60994.7 lineto
stroke
newpath
52091.3 61266.1 moveto
52634.2 61266.1 lineto
stroke
newpath
58200.7 51424.7 moveto
58200.7 50881.7 lineto
stroke
newpath
57929.2 51153.2 moveto
58472.1 51153.2 lineto
stroke
newpath
58200.7 42690.8 moveto
58200.7 42147.8 lineto
stroke
newpath
57929.2 42419.3 moveto
58472.1 42419.3 lineto
stroke
newpath
61648.3 70271.5 moveto
61648.3 69728.6 lineto
stroke
newpath
61376.8 70000 moveto
61919.7 70000 lineto
stroke
newpath
61648.3 61537.6 moveto
61648.3 60994.7 lineto
stroke
newpath
61376.8 61266.1 moveto
61919.7 61266.1 lineto
stroke
newpath
47074.8 72690.8 moveto
47074.8 73113.1 lineto
46652.5 73113.1 lineto
46652.5 72690.8 lineto
47074.8 72690.8 lineto
poly0
newpath
47074.8 71311.8 moveto
47074.8 71734.1 lineto
46652.5 71734.1 lineto
46652.5 71311.8 lineto
47074.8 71311.8 lineto
poly0
newpath
47074.8 70392.4 moveto
47074.8 70814.7 lineto
46652.5 70814.7 lineto
46652.5 70392.4 lineto
47074.8 70392.4 lineto
poly0
newpath
47074.8 69013.4 moveto
47074.8 69435.7 lineto
46652.5 69435.7 lineto
46652.5 69013.4 lineto
47074.8 69013.4 lineto
poly0
118.11 setlinewidth
newpath
46963.8 35175.5 moveto
46963.8 36356.6 lineto
47245 36356.6 lineto
47413.8 36300.3 lineto
47526.3 36187.9 lineto
47582.5 36075.4 lineto
47638.7 35850.4 lineto
47638.7 35681.7 lineto
47582.5 35456.7 lineto
47526.3 35344.2 lineto
47413.8 35231.7 lineto
47245 35175.5 lineto
46963.8 35175.5 lineto
stroke
newpath
48144.9 35175.5 moveto
48144.9 35962.9 lineto
stroke
newpath
48144.9 35737.9 moveto
48201.2 35850.4 lineto
48257.4 35906.6 lineto
48369.9 35962.9 lineto
48482.4 35962.9 lineto
stroke
newpath
48876.1 35175.5 moveto
48876.1 35962.9 lineto
stroke
newpath
48876.1 36356.6 moveto
48819.9 36300.3 lineto
48876.1 36244.1 lineto
48932.3 36300.3 lineto
48876.1 36356.6 lineto
48876.1 36244.1 lineto
stroke
newpath
49607.3 35175.5 moveto
49494.8 35231.7 lineto
49438.5 35344.2 lineto
49438.5 36356.6 lineto
stroke
newpath
50225.9 35175.5 moveto
50113.4 35231.7 lineto
50057.2 35344.2 lineto
50057.2 36356.6 lineto
stroke
newpath
51575.8 35175.5 moveto
51575.8 36356.6 lineto
51969.5 35512.9 lineto
52363.2 36356.6 lineto
52363.2 35175.5 lineto
stroke
newpath
53431.8 35175.5 moveto
53431.8 35794.2 lineto
53375.5 35906.6 lineto
53263 35962.9 lineto
53038.1 35962.9 lineto
52925.6 35906.6 lineto
stroke
newpath
53431.8 35231.7 moveto
53319.3 35175.5 lineto
53038.1 35175.5 lineto
52925.6 35231.7 lineto
52869.3 35344.2 lineto
52869.3 35456.7 lineto
52925.6 35569.2 lineto
53038.1 35625.4 lineto
53319.3 35625.4 lineto
53431.8 35681.7 lineto
stroke
newpath
53994.2 35962.9 moveto
53994.2 34781.8 lineto
stroke
newpath
53994.2 35906.6 moveto
54106.7 35962.9 lineto
54331.7 35962.9 lineto
54444.1 35906.6 lineto
54500.4 35850.4 lineto
54556.6 35737.9 lineto
54556.6 35400.5 lineto
54500.4 35288 lineto
54444.1 35231.7 lineto
54331.7 35175.5 lineto
54106.7 35175.5 lineto
53994.2 35231.7 lineto
stroke
newpath
55062.8 35288 moveto
55119.1 35231.7 lineto
55062.8 35175.5 lineto
55006.6 35231.7 lineto
55062.8 35288 lineto
55062.8 35175.5 lineto
stroke
newpath
55062.8 35906.6 moveto
55119.1 35850.4 lineto
55062.8 35794.2 lineto
55006.6 35850.4 lineto
55062.8 35906.6 lineto
55062.8 35794.2 lineto
stroke
newpath
45497.1 33428.6 moveto
45895.2 33030.4 lineto
stroke
newpath
45895.2 33428.6 moveto
45497.1 33030.4 lineto
stroke
newpath
46907.6 33763.8 moveto
46963.8 33820 lineto
47076.3 33876.3 lineto
47357.5 33876.3 lineto
47470 33820 lineto
47526.3 33763.8 lineto
47582.5 33651.3 lineto
47582.5 33538.8 lineto
47526.3 33370.1 lineto
46851.3 32695.2 lineto
47582.5 32695.2 lineto
stroke
newpath
48088.7 32807.7 moveto
48144.9 32751.4 lineto
48088.7 32695.2 lineto
48032.5 32751.4 lineto
48088.7 32807.7 lineto
48088.7 32695.2 lineto
stroke
newpath
48594.9 33763.8 moveto
48651.1 33820 lineto
48763.6 33876.3 lineto
49044.8 33876.3 lineto
49157.3 33820 lineto
49213.6 33763.8 lineto
49269.8 33651.3 lineto
49269.8 33538.8 lineto
49213.6 33370.1 lineto
48538.6 32695.2 lineto
49269.8 32695.2 lineto
stroke
newpath
50001 33876.3 moveto
50113.4 33876.3 lineto
50225.9 33820 lineto
50282.2 33763.8 lineto
50338.4 33651.3 lineto
50394.7 33426.3 lineto
50394.7 33145.1 lineto
50338.4 32920.1 lineto
50282.2 32807.7 lineto
50225.9 32751.4 lineto
50113.4 32695.2 lineto
50001 32695.2 lineto
49888.5 32751.4 lineto
49832.2 32807.7 lineto
49776 32920.1 lineto
49719.7 33145.1 lineto
49719.7 33426.3 lineto
49776 33651.3 lineto
49832.2 33763.8 lineto
49888.5 33820 lineto
50001 33876.3 lineto
stroke
newpath
50900.8 32695.2 moveto
50900.8 33482.6 lineto
stroke
newpath
50900.8 33370.1 moveto
50957.1 33426.3 lineto
51069.6 33482.6 lineto
51238.3 33482.6 lineto
51350.8 33426.3 lineto
51407 33313.8 lineto
51407 32695.2 lineto
stroke
newpath
51407 33313.8 moveto
51463.3 33426.3 lineto
51575.8 33482.6 lineto
51744.5 33482.6 lineto
51857 33426.3 lineto
51913.2 33313.8 lineto
51913.2 32695.2 lineto
stroke
newpath
52475.6 32695.2 moveto
52475.6 33482.6 lineto
stroke
newpath
52475.6 33370.1 moveto
52531.9 33426.3 lineto
52644.4 33482.6 lineto
52813.1 33482.6 lineto
52925.6 33426.3 lineto
52981.8 33313.8 lineto
52981.8 32695.2 lineto
stroke
newpath
52981.8 33313.8 moveto
53038.1 33426.3 lineto
53150.6 33482.6 lineto
53319.3 33482.6 lineto
53431.8 33426.3 lineto
53488 33313.8 lineto
53488 32695.2 lineto
stroke
newpath
55794 33932.5 moveto
54781.6 32414 lineto
stroke
newpath
57312.5 33876.3 moveto
57425 33876.3 lineto
57537.5 33820 lineto
57593.8 33763.8 lineto
57650 33651.3 lineto
57706.2 33426.3 lineto
57706.2 33145.1 lineto
57650 32920.1 lineto
57593.8 32807.7 lineto
57537.5 32751.4 lineto
57425 32695.2 lineto
57312.5 32695.2 lineto
57200.1 32751.4 lineto
57143.8 32807.7 lineto
57087.6 32920.1 lineto
57031.3 33145.1 lineto
57031.3 33426.3 lineto
57087.6 33651.3 lineto
57143.8 33763.8 lineto
57200.1 33820 lineto
57312.5 33876.3 lineto
stroke
newpath
58212.4 32807.7 moveto
58268.7 32751.4 lineto
58212.4 32695.2 lineto
58156.2 32751.4 lineto
58212.4 32807.7 lineto
58212.4 32695.2 lineto
stroke
newpath
58999.8 33876.3 moveto
59112.3 33876.3 lineto
59224.8 33820 lineto
59281 33763.8 lineto
59337.3 33651.3 lineto
59393.5 33426.3 lineto
59393.5 33145.1 lineto
59337.3 32920.1 lineto
59281 32807.7 lineto
59224.8 32751.4 lineto
59112.3 32695.2 lineto
58999.8 32695.2 lineto
58887.3 32751.4 lineto
58831.1 32807.7 lineto
58774.9 32920.1 lineto
58718.6 33145.1 lineto
58718.6 33426.3 lineto
58774.9 33651.3 lineto
58831.1 33763.8 lineto
58887.3 33820 lineto
58999.8 33876.3 lineto
stroke
newpath
60068.4 33370.1 moveto
59956 33426.3 lineto
59899.7 33482.6 lineto
59843.5 33595.1 lineto
59843.5 33651.3 lineto
59899.7 33763.8 lineto
59956 33820 lineto
60068.4 33876.3 lineto
60293.4 33876.3 lineto
60405.9 33820 lineto
60462.1 33763.8 lineto
60518.4 33651.3 lineto
60518.4 33595.1 lineto
60462.1 33482.6 lineto
60405.9 33426.3 lineto
60293.4 33370.1 lineto
60068.4 33370.1 lineto
59956 33313.8 lineto
59899.7 33257.6 lineto
59843.5 33145.1 lineto
59843.5 32920.1 lineto
59899.7 32807.7 lineto
59956 32751.4 lineto
60068.4 32695.2 lineto
60293.4 32695.2 lineto
60405.9 32751.4 lineto
60462.1 32807.7 lineto
60518.4 32920.1 lineto
60518.4 33145.1 lineto
60462.1 33257.6 lineto
60405.9 33313.8 lineto
60293.4 33370.1 lineto
stroke
newpath
60912.1 33876.3 moveto
61699.5 33876.3 lineto
61193.3 32695.2 lineto
stroke
newpath
62093.2 33876.3 moveto
62093.2 33651.3 lineto
stroke
newpath
62543.1 33876.3 moveto
62543.1 33651.3 lineto
stroke
newpath
64286.7 32245.2 moveto
64230.4 32301.5 lineto
64117.9 32470.2 lineto
64061.7 32582.7 lineto
64005.5 32751.4 lineto
63949.2 33032.6 lineto
63949.2 33257.6 lineto
64005.5 33538.8 lineto
64061.7 33707.5 lineto
64117.9 33820 lineto
64230.4 33988.8 lineto
64286.7 34045 lineto
stroke
newpath
64680.4 33763.8 moveto
64736.6 33820 lineto
64849.1 33876.3 lineto
65130.3 33876.3 lineto
65242.8 33820 lineto
65299 33763.8 lineto
65355.3 33651.3 lineto
65355.3 33538.8 lineto
65299 33370.1 lineto
64624.1 32695.2 lineto
65355.3 32695.2 lineto
stroke
newpath
66761.4 32695.2 moveto
66761.4 33876.3 lineto
stroke
newpath
67267.5 32695.2 moveto
67267.5 33313.8 lineto
67211.3 33426.3 lineto
67098.8 33482.6 lineto
66930.1 33482.6 lineto
66817.6 33426.3 lineto
66761.4 33370.1 lineto
stroke
newpath
67998.7 32695.2 moveto
67886.2 32751.4 lineto
67830 32807.7 lineto
67773.7 32920.1 lineto
67773.7 33257.6 lineto
67830 33370.1 lineto
67886.2 33426.3 lineto
67998.7 33482.6 lineto
68167.4 33482.6 lineto
68279.9 33426.3 lineto
68336.2 33370.1 lineto
68392.4 33257.6 lineto
68392.4 32920.1 lineto
68336.2 32807.7 lineto
68279.9 32751.4 lineto
68167.4 32695.2 lineto
67998.7 32695.2 lineto
stroke
newpath
69067.3 32695.2 moveto
68954.8 32751.4 lineto
68898.6 32863.9 lineto
68898.6 33876.3 lineto
stroke
newpath
69967.2 32751.4 moveto
69854.7 32695.2 lineto
69629.8 32695.2 lineto
69517.3 32751.4 lineto
69461 32863.9 lineto
69461 33313.8 lineto
69517.3 33426.3 lineto
69629.8 33482.6 lineto
69854.7 33482.6 lineto
69967.2 33426.3 lineto
70023.5 33313.8 lineto
70023.5 33201.4 lineto
69461 33088.9 lineto
stroke
newpath
70473.4 32751.4 moveto
70585.9 32695.2 lineto
70810.9 32695.2 lineto
70923.3 32751.4 lineto
70979.6 32863.9 lineto
70979.6 32920.1 lineto
70923.3 33032.6 lineto
70810.9 33088.9 lineto
70642.1 33088.9 lineto
70529.6 33145.1 lineto
70473.4 33257.6 lineto
70473.4 33313.8 lineto
70529.6 33426.3 lineto
70642.1 33482.6 lineto
70810.9 33482.6 lineto
70923.3 33426.3 lineto
stroke
newpath
71373.3 32245.2 moveto
71429.5 32301.5 lineto
71542 32470.2 lineto
71598.3 32582.7 lineto
71654.5 32751.4 lineto
71710.7 33032.6 lineto
71710.7 33257.6 lineto
71654.5 33538.8 lineto
71598.3 33707.5 lineto
71542 33820 lineto
71429.5 33988.8 lineto
71373.3 34045 lineto
stroke
78.7401 setlinewidth
45623.8 31670.4 271.441 cir0
118.11 setlinewidth
newpath
46851.3 32317.2 moveto
47582.5 32317.2 lineto
47188.8 31867.3 lineto
47357.5 31867.3 lineto
47470 31811 lineto
47526.3 31754.8 lineto
47582.5 31642.3 lineto
47582.5 31361.1 lineto
47526.3 31248.6 lineto
47470 31192.4 lineto
47357.5 31136.1 lineto
47020.1 31136.1 lineto
46907.6 31192.4 lineto
46851.3 31248.6 lineto
stroke
newpath
48088.7 31248.6 moveto
48144.9 31192.4 lineto
48088.7 31136.1 lineto
48032.5 31192.4 lineto
48088.7 31248.6 lineto
48088.7 31136.1 lineto
stroke
newpath
48876.1 32317.2 moveto
48988.6 32317.2 lineto
49101.1 32261 lineto
49157.3 32204.7 lineto
49213.6 32092.2 lineto
49269.8 31867.3 lineto
49269.8 31586.1 lineto
49213.6 31361.1 lineto
49157.3 31248.6 lineto
49101.1 31192.4 lineto
48988.6 31136.1 lineto
48876.1 31136.1 lineto
48763.6 31192.4 lineto
48707.4 31248.6 lineto
48651.1 31361.1 lineto
48594.9 31586.1 lineto
48594.9 31867.3 lineto
48651.1 32092.2 lineto
48707.4 32204.7 lineto
48763.6 32261 lineto
48876.1 32317.2 lineto
stroke
newpath
50001 32317.2 moveto
50113.4 32317.2 lineto
50225.9 32261 lineto
50282.2 32204.7 lineto
50338.4 32092.2 lineto
50394.7 31867.3 lineto
50394.7 31586.1 lineto
50338.4 31361.1 lineto
50282.2 31248.6 lineto
50225.9 31192.4 lineto
50113.4 31136.1 lineto
50001 31136.1 lineto
49888.5 31192.4 lineto
49832.2 31248.6 lineto
49776 31361.1 lineto
49719.7 31586.1 lineto
49719.7 31867.3 lineto
49776 32092.2 lineto
49832.2 32204.7 lineto
49888.5 32261 lineto
50001 32317.2 lineto
stroke
newpath
50900.8 31136.1 moveto
50900.8 31923.5 lineto
stroke
newpath
50900.8 31811 moveto
50957.1 31867.3 lineto
51069.6 31923.5 lineto
51238.3 31923.5 lineto
51350.8 31867.3 lineto
51407 31754.8 lineto
51407 31136.1 lineto
stroke
newpath
51407 31754.8 moveto
51463.3 31867.3 lineto
51575.8 31923.5 lineto
51744.5 31923.5 lineto
51857 31867.3 lineto
51913.2 31754.8 lineto
51913.2 31136.1 lineto
stroke
newpath
52475.6 31136.1 moveto
52475.6 31923.5 lineto
stroke
newpath
52475.6 31811 moveto
52531.9 31867.3 lineto
52644.4 31923.5 lineto
52813.1 31923.5 lineto
52925.6 31867.3 lineto
52981.8 31754.8 lineto
52981.8 31136.1 lineto
stroke
newpath
52981.8 31754.8 moveto
53038.1 31867.3 lineto
53150.6 31923.5 lineto
53319.3 31923.5 lineto
53431.8 31867.3 lineto
53488 31754.8 lineto
53488 31136.1 lineto
stroke
newpath
55794 32373.5 moveto
54781.6 30854.9 lineto
stroke
newpath
57312.5 32317.2 moveto
57425 32317.2 lineto
57537.5 32261 lineto
57593.8 32204.7 lineto
57650 32092.2 lineto
57706.2 31867.3 lineto
57706.2 31586.1 lineto
57650 31361.1 lineto
57593.8 31248.6 lineto
57537.5 31192.4 lineto
57425 31136.1 lineto
57312.5 31136.1 lineto
57200.1 31192.4 lineto
57143.8 31248.6 lineto
57087.6 31361.1 lineto
57031.3 31586.1 lineto
57031.3 31867.3 lineto
57087.6 32092.2 lineto
57143.8 32204.7 lineto
57200.1 32261 lineto
57312.5 32317.2 lineto
stroke
newpath
58212.4 31248.6 moveto
58268.7 31192.4 lineto
58212.4 31136.1 lineto
58156.2 31192.4 lineto
58212.4 31248.6 lineto
58212.4 31136.1 lineto
stroke
newpath
59393.5 31136.1 moveto
58718.6 31136.1 lineto
stroke
newpath
59056.1 31136.1 moveto
59056.1 32317.2 lineto
58943.6 32148.5 lineto
58831.1 32036 lineto
58718.6 31979.8 lineto
stroke
newpath
60518.4 31136.1 moveto
59843.5 31136.1 lineto
stroke
newpath
60180.9 31136.1 moveto
60180.9 32317.2 lineto
60068.4 32148.5 lineto
59956 32036 lineto
59843.5 31979.8 lineto
stroke
newpath
61193.3 31811 moveto
61080.8 31867.3 lineto
61024.6 31923.5 lineto
60968.3 32036 lineto
60968.3 32092.2 lineto
61024.6 32204.7 lineto
61080.8 32261 lineto
61193.3 32317.2 lineto
61418.3 32317.2 lineto
61530.8 32261 lineto
61587 32204.7 lineto
61643.2 32092.2 lineto
61643.2 32036 lineto
61587 31923.5 lineto
61530.8 31867.3 lineto
61418.3 31811 lineto
61193.3 31811 lineto
61080.8 31754.8 lineto
61024.6 31698.5 lineto
60968.3 31586.1 lineto
60968.3 31361.1 lineto
61024.6 31248.6 lineto
61080.8 31192.4 lineto
61193.3 31136.1 lineto
61418.3 31136.1 lineto
61530.8 31192.4 lineto
61587 31248.6 lineto
61643.2 31361.1 lineto
61643.2 31586.1 lineto
61587 31698.5 lineto
61530.8 31754.8 lineto
61418.3 31811 lineto
stroke
newpath
62093.2 32317.2 moveto
62093.2 32092.2 lineto
stroke
newpath
62543.1 32317.2 moveto
62543.1 32092.2 lineto
stroke
newpath
64286.7 30686.2 moveto
64230.4 30742.4 lineto
64117.9 30911.1 lineto
64061.7 31023.6 lineto
64005.5 31192.4 lineto
63949.2 31473.6 lineto
63949.2 31698.5 lineto
64005.5 31979.8 lineto
64061.7 32148.5 lineto
64117.9 32261 lineto
64230.4 32429.7 lineto
64286.7 32485.9 lineto
stroke
newpath
65355.3 31136.1 moveto
64680.4 31136.1 lineto
stroke
newpath
65017.8 31136.1 moveto
65017.8 32317.2 lineto
64905.3 32148.5 lineto
64792.9 32036 lineto
64680.4 31979.8 lineto
stroke
newpath
66480.1 31136.1 moveto
65805.2 31136.1 lineto
stroke
newpath
66142.7 31136.1 moveto
66142.7 32317.2 lineto
66030.2 32148.5 lineto
65917.7 32036 lineto
65805.2 31979.8 lineto
stroke
newpath
67886.2 31136.1 moveto
67886.2 32317.2 lineto
stroke
newpath
68392.4 31136.1 moveto
68392.4 31754.8 lineto
68336.2 31867.3 lineto
68223.7 31923.5 lineto
68054.9 31923.5 lineto
67942.5 31867.3 lineto
67886.2 31811 lineto
stroke
newpath
69123.6 31136.1 moveto
69011.1 31192.4 lineto
68954.8 31248.6 lineto
68898.6 31361.1 lineto
68898.6 31698.5 lineto
68954.8 31811 lineto
69011.1 31867.3 lineto
69123.6 31923.5 lineto
69292.3 31923.5 lineto
69404.8 31867.3 lineto
69461 31811 lineto
69517.3 31698.5 lineto
69517.3 31361.1 lineto
69461 31248.6 lineto
69404.8 31192.4 lineto
69292.3 31136.1 lineto
69123.6 31136.1 lineto
stroke
newpath
70192.2 31136.1 moveto
70079.7 31192.4 lineto
70023.5 31304.8 lineto
70023.5 32317.2 lineto
stroke
newpath
71092.1 31192.4 moveto
70979.6 31136.1 lineto
70754.6 31136.1 lineto
70642.1 31192.4 lineto
70585.9 31304.8 lineto
70585.9 31754.8 lineto
70642.1 31867.3 lineto
70754.6 31923.5 lineto
70979.6 31923.5 lineto
71092.1 31867.3 lineto
71148.3 31754.8 lineto
71148.3 31642.3 lineto
70585.9 31529.8 lineto
stroke
newpath
71598.3 31192.4 moveto
71710.7 31136.1 lineto
71935.7 31136.1 lineto
72048.2 31192.4 lineto
72104.4 31304.8 lineto
72104.4 31361.1 lineto
72048.2 31473.6 lineto
71935.7 31529.8 lineto
71767 31529.8 lineto
71654.5 31586.1 lineto
71598.3 31698.5 lineto
71598.3 31754.8 lineto
71654.5 31867.3 lineto
71767 31923.5 lineto
71935.7 31923.5 lineto
72048.2 31867.3 lineto
stroke
newpath
72498.1 30686.2 moveto
72554.4 30742.4 lineto
72666.9 30911.1 lineto
72723.1 31023.6 lineto
72779.4 31192.4 lineto
72835.6 31473.6 lineto
72835.6 31698.5 lineto
72779.4 31979.8 lineto
72723.1 32148.5 lineto
72666.9 32261 lineto
72554.4 32429.7 lineto
72498.1 32485.9 lineto
stroke
newpath
45623.8 30382.8 moveto
45623.8 29839.9 lineto
stroke
newpath
45352.3 30111.4 moveto
45895.2 30111.4 lineto
stroke
newpath
46851.3 30758.2 moveto
47582.5 30758.2 lineto
47188.8 30308.2 lineto
47357.5 30308.2 lineto
47470 30252 lineto
47526.3 30195.7 lineto
47582.5 30083.2 lineto
47582.5 29802 lineto
47526.3 29689.5 lineto
47470 29633.3 lineto
47357.5 29577.1 lineto
47020.1 29577.1 lineto
46907.6 29633.3 lineto
46851.3 29689.5 lineto
stroke
newpath
48088.7 29689.5 moveto
48144.9 29633.3 lineto
48088.7 29577.1 lineto
48032.5 29633.3 lineto
48088.7 29689.5 lineto
48088.7 29577.1 lineto
stroke
newpath
48876.1 30758.2 moveto
48988.6 30758.2 lineto
49101.1 30701.9 lineto
49157.3 30645.7 lineto
49213.6 30533.2 lineto
49269.8 30308.2 lineto
49269.8 30027 lineto
49213.6 29802 lineto
49157.3 29689.5 lineto
49101.1 29633.3 lineto
48988.6 29577.1 lineto
48876.1 29577.1 lineto
48763.6 29633.3 lineto
48707.4 29689.5 lineto
48651.1 29802 lineto
48594.9 30027 lineto
48594.9 30308.2 lineto
48651.1 30533.2 lineto
48707.4 30645.7 lineto
48763.6 30701.9 lineto
48876.1 30758.2 lineto
stroke
newpath
50001 30758.2 moveto
50113.4 30758.2 lineto
50225.9 30701.9 lineto
50282.2 30645.7 lineto
50338.4 30533.2 lineto
50394.7 30308.2 lineto
50394.7 30027 lineto
50338.4 29802 lineto
50282.2 29689.5 lineto
50225.9 29633.3 lineto
50113.4 29577.1 lineto
50001 29577.1 lineto
49888.5 29633.3 lineto
49832.2 29689.5 lineto
49776 29802 lineto
49719.7 30027 lineto
49719.7 30308.2 lineto
49776 30533.2 lineto
49832.2 30645.7 lineto
49888.5 30701.9 lineto
50001 30758.2 lineto
stroke
newpath
50900.8 29577.1 moveto
50900.8 30364.5 lineto
stroke
newpath
50900.8 30252 moveto
50957.1 30308.2 lineto
51069.6 30364.5 lineto
51238.3 30364.5 lineto
51350.8 30308.2 lineto
51407 30195.7 lineto
51407 29577.1 lineto
stroke
newpath
51407 30195.7 moveto
51463.3 30308.2 lineto
51575.8 30364.5 lineto
51744.5 30364.5 lineto
51857 30308.2 lineto
51913.2 30195.7 lineto
51913.2 29577.1 lineto
stroke
newpath
52475.6 29577.1 moveto
52475.6 30364.5 lineto
stroke
newpath
52475.6 30252 moveto
52531.9 30308.2 lineto
52644.4 30364.5 lineto
52813.1 30364.5 lineto
52925.6 30308.2 lineto
52981.8 30195.7 lineto
52981.8 29577.1 lineto
stroke
newpath
52981.8 30195.7 moveto
53038.1 30308.2 lineto
53150.6 30364.5 lineto
53319.3 30364.5 lineto
53431.8 30308.2 lineto
53488 30195.7 lineto
53488 29577.1 lineto
stroke
newpath
55794 30814.4 moveto
54781.6 29295.8 lineto
stroke
newpath
57312.5 30758.2 moveto
57425 30758.2 lineto
57537.5 30701.9 lineto
57593.8 30645.7 lineto
57650 30533.2 lineto
57706.2 30308.2 lineto
57706.2 30027 lineto
57650 29802 lineto
57593.8 29689.5 lineto
57537.5 29633.3 lineto
57425 29577.1 lineto
57312.5 29577.1 lineto
57200.1 29633.3 lineto
57143.8 29689.5 lineto
57087.6 29802 lineto
57031.3 30027 lineto
57031.3 30308.2 lineto
57087.6 30533.2 lineto
57143.8 30645.7 lineto
57200.1 30701.9 lineto
57312.5 30758.2 lineto
stroke
newpath
58212.4 29689.5 moveto
58268.7 29633.3 lineto
58212.4 29577.1 lineto
58156.2 29633.3 lineto
58212.4 29689.5 lineto
58212.4 29577.1 lineto
stroke
newpath
59393.5 29577.1 moveto
58718.6 29577.1 lineto
stroke
newpath
59056.1 29577.1 moveto
59056.1 30758.2 lineto
58943.6 30589.4 lineto
58831.1 30476.9 lineto
58718.6 30420.7 lineto
stroke
newpath
60518.4 29577.1 moveto
59843.5 29577.1 lineto
stroke
newpath
60180.9 29577.1 moveto
60180.9 30758.2 lineto
60068.4 30589.4 lineto
59956 30476.9 lineto
59843.5 30420.7 lineto
stroke
newpath
61193.3 30252 moveto
61080.8 30308.2 lineto
61024.6 30364.5 lineto
60968.3 30476.9 lineto
60968.3 30533.2 lineto
61024.6 30645.7 lineto
61080.8 30701.9 lineto
61193.3 30758.2 lineto
61418.3 30758.2 lineto
61530.8 30701.9 lineto
61587 30645.7 lineto
61643.2 30533.2 lineto
61643.2 30476.9 lineto
61587 30364.5 lineto
61530.8 30308.2 lineto
61418.3 30252 lineto
61193.3 30252 lineto
61080.8 30195.7 lineto
61024.6 30139.5 lineto
60968.3 30027 lineto
60968.3 29802 lineto
61024.6 29689.5 lineto
61080.8 29633.3 lineto
61193.3 29577.1 lineto
61418.3 29577.1 lineto
61530.8 29633.3 lineto
61587 29689.5 lineto
61643.2 29802 lineto
61643.2 30027 lineto
61587 30139.5 lineto
61530.8 30195.7 lineto
61418.3 30252 lineto
stroke
newpath
62093.2 30758.2 moveto
62093.2 30533.2 lineto
stroke
newpath
62543.1 30758.2 moveto
62543.1 30533.2 lineto
stroke
newpath
64286.7 29127.1 moveto
64230.4 29183.4 lineto
64117.9 29352.1 lineto
64061.7 29464.6 lineto
64005.5 29633.3 lineto
63949.2 29914.5 lineto
63949.2 30139.5 lineto
64005.5 30420.7 lineto
64061.7 30589.4 lineto
64117.9 30701.9 lineto
64230.4 30870.7 lineto
64286.7 30926.9 lineto
stroke
newpath
64905.3 30252 moveto
64792.9 30308.2 lineto
64736.6 30364.5 lineto
64680.4 30476.9 lineto
64680.4 30533.2 lineto
64736.6 30645.7 lineto
64792.9 30701.9 lineto
64905.3 30758.2 lineto
65130.3 30758.2 lineto
65242.8 30701.9 lineto
65299 30645.7 lineto
65355.3 30533.2 lineto
65355.3 30476.9 lineto
65299 30364.5 lineto
65242.8 30308.2 lineto
65130.3 30252 lineto
64905.3 30252 lineto
64792.9 30195.7 lineto
64736.6 30139.5 lineto
64680.4 30027 lineto
64680.4 29802 lineto
64736.6 29689.5 lineto
64792.9 29633.3 lineto
64905.3 29577.1 lineto
65130.3 29577.1 lineto
65242.8 29633.3 lineto
65299 29689.5 lineto
65355.3 29802 lineto
65355.3 30027 lineto
65299 30139.5 lineto
65242.8 30195.7 lineto
65130.3 30252 lineto
stroke
newpath
66761.4 29577.1 moveto
66761.4 30758.2 lineto
stroke
newpath
67267.5 29577.1 moveto
67267.5 30195.7 lineto
67211.3 30308.2 lineto
67098.8 30364.5 lineto
66930.1 30364.5 lineto
66817.6 30308.2 lineto
66761.4 30252 lineto
stroke
newpath
67998.7 29577.1 moveto
67886.2 29633.3 lineto
67830 29689.5 lineto
67773.7 29802 lineto
67773.7 30139.5 lineto
67830 30252 lineto
67886.2 30308.2 lineto
67998.7 30364.5 lineto
68167.4 30364.5 lineto
68279.9 30308.2 lineto
68336.2 30252 lineto
68392.4 30139.5 lineto
68392.4 29802 lineto
68336.2 29689.5 lineto
68279.9 29633.3 lineto
68167.4 29577.1 lineto
67998.7 29577.1 lineto
stroke
newpath
69067.3 29577.1 moveto
68954.8 29633.3 lineto
68898.6 29745.8 lineto
68898.6 30758.2 lineto
stroke
newpath
69967.2 29633.3 moveto
69854.7 29577.1 lineto
69629.8 29577.1 lineto
69517.3 29633.3 lineto
69461 29745.8 lineto
69461 30195.7 lineto
69517.3 30308.2 lineto
69629.8 30364.5 lineto
69854.7 30364.5 lineto
69967.2 30308.2 lineto
70023.5 30195.7 lineto
70023.5 30083.2 lineto
69461 29970.8 lineto
stroke
newpath
70473.4 29633.3 moveto
70585.9 29577.1 lineto
70810.9 29577.1 lineto
70923.3 29633.3 lineto
70979.6 29745.8 lineto
70979.6 29802 lineto
70923.3 29914.5 lineto
70810.9 29970.8 lineto
70642.1 29970.8 lineto
70529.6 30027 lineto
70473.4 30139.5 lineto
70473.4 30195.7 lineto
70529.6 30308.2 lineto
70642.1 30364.5 lineto
70810.9 30364.5 lineto
70923.3 30308.2 lineto
stroke
newpath
71373.3 29127.1 moveto
71429.5 29183.4 lineto
71542 29352.1 lineto
71598.3 29464.6 lineto
71654.5 29633.3 lineto
71710.7 29914.5 lineto
71710.7 30139.5 lineto
71654.5 30420.7 lineto
71598.3 30589.4 lineto
71542 30701.9 lineto
71429.5 30870.7 lineto
71373.3 30926.9 lineto
stroke
78.7401 setlinewidth
newpath
45807.8 28341.2 moveto
45807.8 28763.5 lineto
45385.5 28763.5 lineto
45385.5 28341.2 lineto
45807.8 28341.2 lineto
poly0
118.11 setlinewidth
newpath
46851.3 29199.1 moveto
47582.5 29199.1 lineto
47188.8 28749.2 lineto
47357.5 28749.2 lineto
47470 28692.9 lineto
47526.3 28636.7 lineto
47582.5 28524.2 lineto
47582.5 28243 lineto
47526.3 28130.5 lineto
47470 28074.2 lineto
47357.5 28018 lineto
47020.1 28018 lineto
46907.6 28074.2 lineto
46851.3 28130.5 lineto
stroke
newpath
48088.7 28130.5 moveto
48144.9 28074.2 lineto
48088.7 28018 lineto
48032.5 28074.2 lineto
48088.7 28130.5 lineto
48088.7 28018 lineto
stroke
newpath
48538.6 29199.1 moveto
49269.8 29199.1 lineto
48876.1 28749.2 lineto
49044.8 28749.2 lineto
49157.3 28692.9 lineto
49213.6 28636.7 lineto
49269.8 28524.2 lineto
49269.8 28243 lineto
49213.6 28130.5 lineto
49157.3 28074.2 lineto
49044.8 28018 lineto
48707.4 28018 lineto
48594.9 28074.2 lineto
48538.6 28130.5 lineto
stroke
newpath
50001 29199.1 moveto
50113.4 29199.1 lineto
50225.9 29142.9 lineto
50282.2 29086.6 lineto
50338.4 28974.1 lineto
50394.7 28749.2 lineto
50394.7 28468 lineto
50338.4 28243 lineto
50282.2 28130.5 lineto
50225.9 28074.2 lineto
50113.4 28018 lineto
50001 28018 lineto
49888.5 28074.2 lineto
49832.2 28130.5 lineto
49776 28243 lineto
49719.7 28468 lineto
49719.7 28749.2 lineto
49776 28974.1 lineto
49832.2 29086.6 lineto
49888.5 29142.9 lineto
50001 29199.1 lineto
stroke
newpath
50900.8 28018 moveto
50900.8 28805.4 lineto
stroke
newpath
50900.8 28692.9 moveto
50957.1 28749.2 lineto
51069.6 28805.4 lineto
51238.3 28805.4 lineto
51350.8 28749.2 lineto
51407 28636.7 lineto
51407 28018 lineto
stroke
newpath
51407 28636.7 moveto
51463.3 28749.2 lineto
51575.8 28805.4 lineto
51744.5 28805.4 lineto
51857 28749.2 lineto
51913.2 28636.7 lineto
51913.2 28018 lineto
stroke
newpath
52475.6 28018 moveto
52475.6 28805.4 lineto
stroke
newpath
52475.6 28692.9 moveto
52531.9 28749.2 lineto
52644.4 28805.4 lineto
52813.1 28805.4 lineto
52925.6 28749.2 lineto
52981.8 28636.7 lineto
52981.8 28018 lineto
stroke
newpath
52981.8 28636.7 moveto
53038.1 28749.2 lineto
53150.6 28805.4 lineto
53319.3 28805.4 lineto
53431.8 28749.2 lineto
53488 28636.7 lineto
53488 28018 lineto
stroke
newpath
55794 29255.4 moveto
54781.6 27736.8 lineto
stroke
newpath
57312.5 29199.1 moveto
57425 29199.1 lineto
57537.5 29142.9 lineto
57593.8 29086.6 lineto
57650 28974.1 lineto
57706.2 28749.2 lineto
57706.2 28468 lineto
57650 28243 lineto
57593.8 28130.5 lineto
57537.5 28074.2 lineto
57425 28018 lineto
57312.5 28018 lineto
57200.1 28074.2 lineto
57143.8 28130.5 lineto
57087.6 28243 lineto
57031.3 28468 lineto
57031.3 28749.2 lineto
57087.6 28974.1 lineto
57143.8 29086.6 lineto
57200.1 29142.9 lineto
57312.5 29199.1 lineto
stroke
newpath
58212.4 28130.5 moveto
58268.7 28074.2 lineto
58212.4 28018 lineto
58156.2 28074.2 lineto
58212.4 28130.5 lineto
58212.4 28018 lineto
stroke
newpath
59393.5 28018 moveto
58718.6 28018 lineto
stroke
newpath
59056.1 28018 moveto
59056.1 29199.1 lineto
58943.6 29030.4 lineto
58831.1 28917.9 lineto
58718.6 28861.7 lineto
stroke
newpath
59787.2 29199.1 moveto
60518.4 29199.1 lineto
60124.7 28749.2 lineto
60293.4 28749.2 lineto
60405.9 28692.9 lineto
60462.1 28636.7 lineto
60518.4 28524.2 lineto
60518.4 28243 lineto
60462.1 28130.5 lineto
60405.9 28074.2 lineto
60293.4 28018 lineto
59956 28018 lineto
59843.5 28074.2 lineto
59787.2 28130.5 lineto
stroke
newpath
61249.5 29199.1 moveto
61362 29199.1 lineto
61474.5 29142.9 lineto
61530.8 29086.6 lineto
61587 28974.1 lineto
61643.2 28749.2 lineto
61643.2 28468 lineto
61587 28243 lineto
61530.8 28130.5 lineto
61474.5 28074.2 lineto
61362 28018 lineto
61249.5 28018 lineto
61137.1 28074.2 lineto
61080.8 28130.5 lineto
61024.6 28243 lineto
60968.3 28468 lineto
60968.3 28749.2 lineto
61024.6 28974.1 lineto
61080.8 29086.6 lineto
61137.1 29142.9 lineto
61249.5 29199.1 lineto
stroke
newpath
62093.2 29199.1 moveto
62093.2 28974.1 lineto
stroke
newpath
62543.1 29199.1 moveto
62543.1 28974.1 lineto
stroke
newpath
64286.7 27568.1 moveto
64230.4 27624.3 lineto
64117.9 27793 lineto
64061.7 27905.5 lineto
64005.5 28074.2 lineto
63949.2 28355.5 lineto
63949.2 28580.4 lineto
64005.5 28861.7 lineto
64061.7 29030.4 lineto
64117.9 29142.9 lineto
64230.4 29311.6 lineto
64286.7 29367.8 lineto
stroke
newpath
65242.8 28805.4 moveto
65242.8 28018 lineto
stroke
newpath
64961.6 29255.4 moveto
64680.4 28411.7 lineto
65411.5 28411.7 lineto
stroke
newpath
66761.4 28018 moveto
66761.4 29199.1 lineto
stroke
newpath
67267.5 28018 moveto
67267.5 28636.7 lineto
67211.3 28749.2 lineto
67098.8 28805.4 lineto
66930.1 28805.4 lineto
66817.6 28749.2 lineto
66761.4 28692.9 lineto
stroke
newpath
67998.7 28018 moveto
67886.2 28074.2 lineto
67830 28130.5 lineto
67773.7 28243 lineto
67773.7 28580.4 lineto
67830 28692.9 lineto
67886.2 28749.2 lineto
67998.7 28805.4 lineto
68167.4 28805.4 lineto
68279.9 28749.2 lineto
68336.2 28692.9 lineto
68392.4 28580.4 lineto
68392.4 28243 lineto
68336.2 28130.5 lineto
68279.9 28074.2 lineto
68167.4 28018 lineto
67998.7 28018 lineto
stroke
newpath
69067.3 28018 moveto
68954.8 28074.2 lineto
68898.6 28186.7 lineto
68898.6 29199.1 lineto
stroke
newpath
69967.2 28074.2 moveto
69854.7 28018 lineto
69629.8 28018 lineto
69517.3 28074.2 lineto
69461 28186.7 lineto
69461 28636.7 lineto
69517.3 28749.2 lineto
69629.8 28805.4 lineto
69854.7 28805.4 lineto
69967.2 28749.2 lineto
70023.5 28636.7 lineto
70023.5 28524.2 lineto
69461 28411.7 lineto
stroke
newpath
70473.4 28074.2 moveto
70585.9 28018 lineto
70810.9 28018 lineto
70923.3 28074.2 lineto
70979.6 28186.7 lineto
70979.6 28243 lineto
70923.3 28355.5 lineto
70810.9 28411.7 lineto
70642.1 28411.7 lineto
70529.6 28468 lineto
70473.4 28580.4 lineto
70473.4 28636.7 lineto
70529.6 28749.2 lineto
70642.1 28805.4 lineto
70810.9 28805.4 lineto
70923.3 28749.2 lineto
stroke
newpath
71373.3 27568.1 moveto
71429.5 27624.3 lineto
71542 27793 lineto
71598.3 27905.5 lineto
71654.5 28074.2 lineto
71710.7 28355.5 lineto
71710.7 28580.4 lineto
71654.5 28861.7 lineto
71598.3 29030.4 lineto
71542 29142.9 lineto
71429.5 29311.6 lineto
71373.3 29367.8 lineto
stroke
showpage
grestore
%%EOF
