(module MountingHole_3mm (layer F.Cu) (tedit 53FD62EE)
  (descr "Mounting hole, Befestigungsbohrung, 3mm, No Annular, Kein Restring,")
  (tags "Mounting hole, Befestigungsbohrung, 3mm, No Annular, Kein Restring,")
  (fp_text reference MH (at 0 -3.556) (layer F.SilkS) hide
    (effects (font (size 0.508 0.508) (thickness 0.1016)))
  )
  (fp_text value MountingHole_3mm_RevA_Date21Jun2010 (at 0 3.683) (layer F.SilkS) hide
    (effects (font (size 0.508 0.508) (thickness 0.1016)))
  )
  (fp_circle (center 0 0) (end 2.99974 0) (layer Cmts.User) (width 0.381))
  (pad "" np_thru_hole circle (at 0 0) (size 2.99974 2.99974) (drill 2.99974) (layers *.Cu *.Mask F.SilkS))
)
