(module c_1812 (layer F.Cu) (tedit 53D6E1B5)
  (descr "SMT capacitor, 1812")
  (fp_text reference c_1812 (at 0 -2.286) (layer F.SilkS)
    (effects (font (size 0.50038 0.50038) (thickness 0.11938)))
  )
  (fp_text value C*** (at 0 2.286) (layer F.SilkS) hide
    (effects (font (size 0.50038 0.50038) (thickness 0.11938)))
  )
  (fp_line (start 1.651 -1.651) (end 1.651 1.651) (layer F.SilkS) (width 0.127))
  (fp_line (start -1.651 -1.651) (end -1.651 1.651) (layer F.SilkS) (width 0.127))
  (fp_line (start -2.286 -1.651) (end -2.286 1.651) (layer F.SilkS) (width 0.127))
  (fp_line (start -2.286 1.651) (end 2.286 1.651) (layer F.SilkS) (width 0.127))
  (fp_line (start 2.286 1.651) (end 2.286 -1.651) (layer F.SilkS) (width 0.127))
  (fp_line (start 2.286 -1.651) (end -2.286 -1.651) (layer F.SilkS) (width 0.127))
  (pad 1 smd rect (at 2.04978 0) (size 1.80086 3.70078) (layers F.Cu F.Paste F.Mask))
  (pad 2 smd rect (at -2.04978 0) (size 1.80086 3.70078) (layers F.Cu F.Paste F.Mask))
  (model _modules/SMD_Packages.pretty/c_1812.wrl
    (at (xyz 0 0 0))
    (scale (xyz 1 1 1))
    (rotate (xyz 0 0 0))
  )
)
