#VRML V2.0 utf8
#Exported from Wings 3D 1.5.2
DEF cube1 Transform {
  children [
    Shape {
      appearance Appearance {
        material DEF default Material {
          diffuseColor 0.7898538076923077 0.8133333333333334 0.6940444444444445
          emissiveColor 0.0 0.0 0.0
          specularColor 0.0 0.0 0.0
          ambientIntensity 0.765743861823362
          transparency 0.0
          shininess 0.0
        }
      }
      geometry IndexedFaceSet {
        normalPerVertex TRUE
        colorPerVertex TRUE
        coord Coordinate { point [
          -0.235 -0.27 0.4,
          -0.235 0.27 0.4,
          0.235 0.27 0.4,
          0.235 -0.27 0.4,
          -0.235 -0.27 0.0,
          -0.235 0.27 0.0,
          0.235 0.27 0.0,
          0.235 -0.27 0.0 ] }
        coordIndex [
          0, 3, 2, 1, -1,
          0, 4, 7, 3, -1,
          1, 2, 6, 5, -1,
          4, 5, 6, 7, -1 ]
        normal Normal { vector [
          0.0 -0.7071067811865475 0.7071067811865475,
          0.0 0.7071067811865475 0.7071067811865475,
          0.0 0.7071067811865475 0.7071067811865475,
          0.0 -0.7071067811865475 0.7071067811865475,
          0.0 -0.7071067811865475 -0.7071067811865475,
          0.0 0.7071067811865475 -0.7071067811865475,
          0.0 0.7071067811865475 -0.7071067811865475,
          0.0 -0.7071067811865475 -0.7071067811865475 ] }
        normalIndex [
          0, 3, 2, 1, -1,
          0, 4, 7, 3, -1,
          1, 2, 6, 5, -1,
          4, 5, 6, 7, -1 ]
        color Color { color [
          0.37333333333333335 0.36 0.38,
          1.0 1.0 1.0 ] }
        colorIndex [
          0, 0, 0, 0, -1,
          0, 0, 0, 0, -1,
          0, 0, 0, 0, -1,
          0, 0, 0, 0, -1 ]
      }
    },
    Shape {
      appearance Appearance {
        material DEF pins Material {
          diffuseColor 0.8 0.8 0.8
          emissiveColor 0.8 0.8 0.8
          specularColor 0.8 0.8 0.8
          ambientIntensity 0.8000000000000002
          transparency 0.0
          shininess 1.0
        }
      }
      geometry IndexedFaceSet {
        normalPerVertex TRUE
        colorPerVertex TRUE
        coord Coordinate { point [
          -0.235 -0.27 0.4,
          -0.235 0.27 0.4,
          0.235 0.27 0.4,
          0.235 -0.27 0.4,
          -0.235 -0.27 0.0,
          -0.235 0.27 0.0,
          0.235 0.27 0.0,
          0.235 -0.27 0.0,
          -0.415 -0.27 0.4,
          -0.415 0.27 0.4,
          -0.415 0.27 0.0,
          -0.415 -0.27 0.0,
          0.415 0.27 0.4,
          0.415 -0.27 0.4,
          0.415 -0.27 0.0,
          0.415 0.27 0.0 ] }
        coordIndex [
          0, 1, 9, 8, -1,
          0, 8, 11, 4, -1,
          1, 5, 10, 9, -1,
          2, 3, 13, 12, -1,
          2, 12, 15, 6, -1,
          3, 7, 14, 13, -1,
          4, 11, 10, 5, -1,
          6, 15, 14, 7, -1,
          8, 9, 10, 11, -1,
          12, 13, 14, 15, -1 ]
        normal Normal { vector [
          0.0 -0.7071067811865475 0.7071067811865475,
          0.0 0.7071067811865475 0.7071067811865475,
          0.0 0.7071067811865475 0.7071067811865475,
          0.0 -0.7071067811865475 0.7071067811865475,
          0.0 -0.7071067811865475 -0.7071067811865475,
          0.0 0.7071067811865475 -0.7071067811865475,
          0.0 0.7071067811865475 -0.7071067811865475,
          0.0 -0.7071067811865475 -0.7071067811865475,
          -0.5773502691896258 -0.5773502691896258 0.5773502691896258,
          -0.5773502691896258 0.5773502691896258 0.5773502691896258,
          -0.5773502691896258 0.5773502691896258 -0.5773502691896258,
          -0.5773502691896258 -0.5773502691896258 -0.5773502691896258,
          0.5773502691896258 0.5773502691896258 0.5773502691896258,
          0.5773502691896258 -0.5773502691896258 0.5773502691896258,
          0.5773502691896258 -0.5773502691896258 -0.5773502691896258,
          0.5773502691896258 0.5773502691896258 -0.5773502691896258 ] }
        normalIndex [
          0, 1, 9, 8, -1,
          0, 8, 11, 4, -1,
          1, 5, 10, 9, -1,
          2, 3, 13, 12, -1,
          2, 12, 15, 6, -1,
          3, 7, 14, 13, -1,
          4, 11, 10, 5, -1,
          6, 15, 14, 7, -1,
          8, 9, 10, 11, -1,
          12, 13, 14, 15, -1 ]
        color Color { color [
          0.37333333333333335 0.36 0.38,
          1.0 1.0 1.0 ] }
        colorIndex [
          1, 1, 1, 1, -1,
          1, 1, 1, 1, -1,
          1, 1, 1, 1, -1,
          1, 1, 1, 1, -1,
          1, 1, 1, 1, -1,
          1, 1, 1, 1, -1,
          1, 1, 1, 1, -1,
          1, 1, 1, 1, -1,
          1, 1, 1, 1, -1,
          1, 1, 1, 1, -1 ]
      }
    }
  ]
}

