(module l_1206 (layer F.Cu) (tedit 53D6E6B3)
  (descr "SMT inductor, 1206")
  (fp_text reference l_1206 (at 0.0254 -1.2954) (layer F.SilkS)
    (effects (font (size 0.50038 0.50038) (thickness 0.11938)))
  )
  (fp_text value L*** (at 0 1.27) (layer F.SilkS) hide
    (effects (font (size 0.50038 0.50038) (thickness 0.11938)))
  )
  (fp_line (start 1.143 0.8128) (end 1.143 -0.8128) (layer F.SilkS) (width 0.127))
  (fp_line (start -1.143 -0.8128) (end -1.143 0.8128) (layer F.SilkS) (width 0.127))
  (fp_line (start -1.6002 -0.8128) (end -1.6002 0.8128) (layer F.SilkS) (width 0.127))
  (fp_line (start -1.6002 0.8128) (end 1.6002 0.8128) (layer F.SilkS) (width 0.127))
  (fp_line (start 1.6002 0.8128) (end 1.6002 -0.8128) (layer F.SilkS) (width 0.127))
  (fp_line (start 1.6002 -0.8128) (end -1.6002 -0.8128) (layer F.SilkS) (width 0.127))
  (pad 1 smd rect (at 1.397 0) (size 1.6002 1.8034) (layers F.Cu F.Paste F.Mask))
  (pad 2 smd rect (at -1.397 0) (size 1.6002 1.8034) (layers F.Cu F.Paste F.Mask))
  (model _modules/SMD_Packages.pretty/r_1206.wrl
    (at (xyz 0 0 0))
    (scale (xyz 1.1 1.1 1.1))
    (rotate (xyz 0 0 0))
  )
)
