(module SOT223 (layer F.Cu) (tedit 53CE748F)
  (fp_text reference SOT223 (at 0 -5.334) (layer F.SilkS)
    (effects (font (size 1.016 0.762) (thickness 0.1524)))
  )
  (fp_text value VAL** (at 0 5.334) (layer F.SilkS) hide
    (effects (font (size 1.016 0.762) (thickness 0.1524)))
  )
  (fp_line (start 1.778 2.032) (end 1.778 2.54) (layer F.SilkS) (width 0.15))
  (fp_line (start 1.778 2.54) (end 2.794 2.54) (layer F.SilkS) (width 0.15))
  (fp_line (start 2.794 2.54) (end 2.794 2.032) (layer F.SilkS) (width 0.15))
  (fp_line (start -0.508 2.032) (end -0.508 2.54) (layer F.SilkS) (width 0.15))
  (fp_line (start -0.508 2.54) (end 0.508 2.54) (layer F.SilkS) (width 0.15))
  (fp_line (start 0.508 2.54) (end 0.508 2.032) (layer F.SilkS) (width 0.15))
  (fp_line (start -1.778 2.032) (end -1.778 2.54) (layer F.SilkS) (width 0.15))
  (fp_line (start -1.778 2.54) (end -2.794 2.54) (layer F.SilkS) (width 0.15))
  (fp_line (start -2.794 2.54) (end -2.794 2.032) (layer F.SilkS) (width 0.15))
  (fp_line (start -2.032 -2.032) (end -2.032 -2.54) (layer F.SilkS) (width 0.15))
  (fp_line (start -2.032 -2.54) (end 2.032 -2.54) (layer F.SilkS) (width 0.15))
  (fp_line (start 2.032 -2.54) (end 2.032 -2.032) (layer F.SilkS) (width 0.15))
  (fp_line (start -3.556 -2.032) (end 3.556 -2.032) (layer F.SilkS) (width 0.15))
  (fp_line (start 3.556 -2.032) (end 3.556 2.032) (layer F.SilkS) (width 0.15))
  (fp_line (start 3.556 2.032) (end -3.556 2.032) (layer F.SilkS) (width 0.15))
  (fp_line (start -3.556 2.032) (end -3.556 -2.032) (layer F.SilkS) (width 0.15))
  (pad 1 smd rect (at -2.286 3.556) (size 0.889 1.27) (layers F.Cu F.Paste F.Mask))
  (pad 2 smd rect (at 0 3.556) (size 0.889 1.27) (layers F.Cu F.Paste F.Mask))
  (pad 3 smd rect (at 2.286 3.556) (size 0.889 1.27) (layers F.Cu F.Paste F.Mask))
  (pad 4 smd rect (at 0 -3.556) (size 3.175 1.27) (layers F.Cu F.Paste F.Mask))
  (model _modules/SMD_Packages.pretty/SOT223.wrl
    (at (xyz 0 0 0))
    (scale (xyz 0.4 0.4 0.4))
    (rotate (xyz 0 0 0))
  )
)
