(module VSSOP8 (layer F.Cu) (tedit 53CD8FC2)
  (fp_text reference VSSOP8 (at 0 -2.54) (layer F.SilkS)
    (effects (font (size 1 1) (thickness 0.15)))
  )
  (fp_text value VAL** (at 0 2.54) (layer F.SilkS) hide
    (effects (font (size 1 1) (thickness 0.15)))
  )
  (fp_circle (center -2.54 -1.905) (end -2.286 -1.905) (layer F.SilkS) (width 0.15))
  (fp_line (start -1.524 -1.524) (end -1.524 1.524) (layer F.SilkS) (width 0.15))
  (fp_line (start -1.524 1.524) (end 1.524 1.524) (layer F.SilkS) (width 0.15))
  (fp_line (start 1.524 1.524) (end 1.524 -1.524) (layer F.SilkS) (width 0.15))
  (fp_line (start 1.524 -1.524) (end -1.524 -1.524) (layer F.SilkS) (width 0.15))
  (pad 1 smd rect (at -2.5 -0.975) (size 1.2 0.38) (layers F.Cu F.Paste F.Mask)
    (clearance 0.1))
  (pad 2 smd rect (at -2.5 -0.325) (size 1.2 0.38) (layers F.Cu F.Paste F.Mask)
    (clearance 0.1))
  (pad 3 smd rect (at -2.5 0.325) (size 1.2 0.38) (layers F.Cu F.Paste F.Mask)
    (clearance 0.1))
  (pad 4 smd rect (at -2.5 0.975) (size 1.2 0.38) (layers F.Cu F.Paste F.Mask)
    (clearance 0.1))
  (pad 5 smd rect (at 2.5 0.975) (size 1.2 0.38) (layers F.Cu F.Paste F.Mask)
    (clearance 0.1))
  (pad 6 smd rect (at 2.5 0.325) (size 1.2 0.38) (layers F.Cu F.Paste F.Mask)
    (clearance 0.1))
  (pad 7 smd rect (at 2.5 -0.325) (size 1.2 0.38) (layers F.Cu F.Paste F.Mask)
    (clearance 0.1))
  (pad 8 smd rect (at 2.5 -0.975) (size 1.2 0.38) (layers F.Cu F.Paste F.Mask)
    (clearance 0.1))
)
